[
    {
        "id": 1,
        "seq": 10,
        "name": "未設定",
        "assetbundleName": "default"
    },
    {
        "id": 101,
        "seq": 101,
        "name": "一歌サポーターシャツ",
        "assetbundleName": "avatar_costume_0001"
    },
    {
        "id": 102,
        "seq": 102,
        "name": "咲希サポーターシャツ",
        "assetbundleName": "avatar_costume_0002"
    },
    {
        "id": 103,
        "seq": 103,
        "name": "穂波サポーターシャツ",
        "assetbundleName": "avatar_costume_0003"
    },
    {
        "id": 104,
        "seq": 104,
        "name": "志歩サポーターシャツ",
        "assetbundleName": "avatar_costume_0004"
    },
    {
        "id": 105,
        "seq": 105,
        "name": "みのりサポーターシャツ",
        "assetbundleName": "avatar_costume_0005"
    },
    {
        "id": 106,
        "seq": 106,
        "name": "遥サポーターシャツ",
        "assetbundleName": "avatar_costume_0006"
    },
    {
        "id": 107,
        "seq": 107,
        "name": "愛莉サポーターシャツ",
        "assetbundleName": "avatar_costume_0007"
    },
    {
        "id": 108,
        "seq": 108,
        "name": "雫サポーターシャツ",
        "assetbundleName": "avatar_costume_0008"
    },
    {
        "id": 109,
        "seq": 109,
        "name": "こはねサポーターシャツ",
        "assetbundleName": "avatar_costume_0009"
    },
    {
        "id": 110,
        "seq": 110,
        "name": "杏サポーターシャツ",
        "assetbundleName": "avatar_costume_0010"
    },
    {
        "id": 111,
        "seq": 111,
        "name": "彰人サポーターシャツ",
        "assetbundleName": "avatar_costume_0011"
    },
    {
        "id": 112,
        "seq": 112,
        "name": "冬弥サポーターシャツ",
        "assetbundleName": "avatar_costume_0012"
    },
    {
        "id": 113,
        "seq": 113,
        "name": "司サポーターシャツ",
        "assetbundleName": "avatar_costume_0013"
    },
    {
        "id": 114,
        "seq": 114,
        "name": "えむサポーターシャツ",
        "assetbundleName": "avatar_costume_0014"
    },
    {
        "id": 115,
        "seq": 115,
        "name": "寧々サポーターシャツ",
        "assetbundleName": "avatar_costume_0015"
    },
    {
        "id": 116,
        "seq": 116,
        "name": "類サポーターシャツ",
        "assetbundleName": "avatar_costume_0016"
    },
    {
        "id": 117,
        "seq": 117,
        "name": "奏サポーターシャツ",
        "assetbundleName": "avatar_costume_0017"
    },
    {
        "id": 118,
        "seq": 118,
        "name": "まふゆサポーターシャツ",
        "assetbundleName": "avatar_costume_0018"
    },
    {
        "id": 119,
        "seq": 119,
        "name": "絵名サポーターシャツ",
        "assetbundleName": "avatar_costume_0019"
    },
    {
        "id": 120,
        "seq": 120,
        "name": "瑞希サポーターシャツ",
        "assetbundleName": "avatar_costume_0020"
    },
    {
        "id": 121,
        "seq": 121,
        "name": "ミクサポーターシャツ",
        "assetbundleName": "avatar_costume_0021"
    },
    {
        "id": 122,
        "seq": 122,
        "name": "リンサポーターシャツ",
        "assetbundleName": "avatar_costume_0022"
    },
    {
        "id": 123,
        "seq": 123,
        "name": "レンサポーターシャツ",
        "assetbundleName": "avatar_costume_0023"
    },
    {
        "id": 124,
        "seq": 124,
        "name": "ルカサポーターシャツ",
        "assetbundleName": "avatar_costume_0024"
    },
    {
        "id": 125,
        "seq": 125,
        "name": "MEIKOサポーターシャツ",
        "assetbundleName": "avatar_costume_0025"
    },
    {
        "id": 126,
        "seq": 126,
        "name": "KAITOサポーターシャツ",
        "assetbundleName": "avatar_costume_0026"
    },
    {
        "id": 127,
        "seq": 127,
        "name": "Leo/need応援法被",
        "assetbundleName": "avatar_costume_0027"
    },
    {
        "id": 128,
        "seq": 128,
        "name": "MORE MORE JUMP！応援法被",
        "assetbundleName": "avatar_costume_0028"
    },
    {
        "id": 129,
        "seq": 129,
        "name": "Vivid BAD SQUAD応援法被",
        "assetbundleName": "avatar_costume_0029"
    },
    {
        "id": 130,
        "seq": 130,
        "name": "ワンダーランズ×ショウタイム応援法被",
        "assetbundleName": "avatar_costume_0030"
    },
    {
        "id": 131,
        "seq": 131,
        "name": "25時、ナイトコードで。応援法被",
        "assetbundleName": "avatar_costume_0031"
    },
    {
        "id": 132,
        "seq": 132,
        "name": "バーチャル・シンガー応援法被",
        "assetbundleName": "avatar_costume_0032"
    },
    {
        "id": 138,
        "seq": 138,
        "name": "ラッコシャツ",
        "assetbundleName": "avatar_costume_0038"
    },
    {
        "id": 139,
        "seq": 139,
        "name": "推しが尊いシャツ",
        "assetbundleName": "avatar_costume_0039"
    },
    {
        "id": 140,
        "seq": 140,
        "name": "おだんご大好きシャツ",
        "assetbundleName": "avatar_costume_0040"
    },
    {
        "id": 141,
        "seq": 141,
        "name": "さくらもち大好きシャツ",
        "assetbundleName": "avatar_costume_0041"
    },
    {
        "id": 142,
        "seq": 142,
        "name": "パンケーキ大好きシャツ",
        "assetbundleName": "avatar_costume_0042"
    },
    {
        "id": 143,
        "seq": 143,
        "name": "チーズケーキ大好きシャツ",
        "assetbundleName": "avatar_costume_0043"
    },
    {
        "id": 144,
        "seq": 144,
        "name": "洋装ブライダル派シャツ",
        "assetbundleName": "avatar_costume_0044"
    },
    {
        "id": 145,
        "seq": 145,
        "name": "和装ブライダル派シャツ",
        "assetbundleName": "avatar_costume_0045"
    },
    {
        "id": 146,
        "seq": 146,
        "name": "屋上で食べようシャツ",
        "assetbundleName": "avatar_costume_0046"
    },
    {
        "id": 147,
        "seq": 147,
        "name": "教室で食べようシャツ",
        "assetbundleName": "avatar_costume_0047"
    },
    {
        "id": 148,
        "seq": 148,
        "name": "ボートで波に揺られたいTシャツ",
        "assetbundleName": "avatar_costume_0048"
    },
    {
        "id": 149,
        "seq": 149,
        "name": "浮き輪で波に揺られたいTシャツ",
        "assetbundleName": "avatar_costume_0049"
    },
    {
        "id": 150,
        "seq": 150,
        "name": "栗大好きＴシャツ",
        "assetbundleName": "avatar_costume_0050"
    },
    {
        "id": 151,
        "seq": 151,
        "name": "柿大好きＴシャツ",
        "assetbundleName": "avatar_costume_0051"
    },
    {
        "id": 152,
        "seq": 152,
        "name": "1st Anniversaryシャツ",
        "assetbundleName": "avatar_costume_0052"
    },
    {
        "id": 153,
        "seq": 153,
        "name": "缶バッジ集めたいＴシャツ",
        "assetbundleName": "avatar_costume_0053"
    },
    {
        "id": 154,
        "seq": 154,
        "name": "アクキー集めたいＴシャツ",
        "assetbundleName": "avatar_costume_0054"
    },
    {
        "id": 155,
        "seq": 155,
        "name": "「CRASH」ライブTシャツ（白）",
        "assetbundleName": "avatar_costume_0055"
    },
    {
        "id": 156,
        "seq": 156,
        "name": "「CRASH」ライブTシャツ（黒）",
        "assetbundleName": "avatar_costume_0056"
    },
    {
        "id": 157,
        "seq": 157,
        "name": "カレーライス大好きＴシャツ",
        "assetbundleName": "avatar_costume_0057"
    },
    {
        "id": 158,
        "seq": 158,
        "name": "フライドポテト大好きＴシャツ",
        "assetbundleName": "avatar_costume_0058"
    },
    {
        "id": 159,
        "seq": 159,
        "name": "雪大好きＴシャツ",
        "assetbundleName": "avatar_costume_0059"
    },
    {
        "id": 160,
        "seq": 160,
        "name": "イルミネーション大好きＴシャツ",
        "assetbundleName": "avatar_costume_0060"
    },
    {
        "id": 161,
        "seq": 161,
        "name": "かるたで遊ぼうＴシャツ",
        "assetbundleName": "avatar_costume_0061"
    },
    {
        "id": 162,
        "seq": 162,
        "name": "福笑いで遊ぼうＴシャツ",
        "assetbundleName": "avatar_costume_0062"
    },
    {
        "id": 163,
        "seq": 163,
        "name": "バレンタインあげたいＴシャツ",
        "assetbundleName": "avatar_costume_0063"
    },
    {
        "id": 164,
        "seq": 164,
        "name": "バレンタインもらいたいＴシャツ",
        "assetbundleName": "avatar_costume_0064"
    },
    {
        "id": 165,
        "seq": 165,
        "name": "ビターチョコ大好きＴシャツ",
        "assetbundleName": "avatar_costume_0065"
    },
    {
        "id": 166,
        "seq": 166,
        "name": "ミルクチョコ大好きＴシャツ",
        "assetbundleName": "avatar_costume_0066"
    },
    {
        "id": 167,
        "seq": 167,
        "name": "桜ラテ飲みたいＴシャツ",
        "assetbundleName": "avatar_costume_0067"
    },
    {
        "id": 168,
        "seq": 168,
        "name": "桜スムージー飲みたいＴシャツ",
        "assetbundleName": "avatar_costume_0068"
    },
    {
        "id": 169,
        "seq": 169,
        "name": "盛り上がる曲聴きたいTシャツ",
        "assetbundleName": "avatar_costume_0069"
    },
    {
        "id": 170,
        "seq": 170,
        "name": "しっとりした曲聴きたいTシャツ",
        "assetbundleName": "avatar_costume_0070"
    },
    {
        "id": 171,
        "seq": 171,
        "name": "チャペルウェディング派Tシャツ",
        "assetbundleName": "avatar_costume_0071"
    },
    {
        "id": 172,
        "seq": 172,
        "name": "ガーデンウェディング派Tシャツ",
        "assetbundleName": "avatar_costume_0072"
    },
    {
        "id": 173,
        "seq": 173,
        "name": "野球で遊ぼうTシャツ",
        "assetbundleName": "avatar_costume_0073"
    },
    {
        "id": 174,
        "seq": 174,
        "name": "サッカーで遊ぼうTシャツ",
        "assetbundleName": "avatar_costume_0074"
    },
    {
        "id": 175,
        "seq": 175,
        "name": "みどりぷよ消したいTシャツ",
        "assetbundleName": "avatar_costume_0075"
    },
    {
        "id": 176,
        "seq": 176,
        "name": "おじゃまぷよ消したいTシャツ",
        "assetbundleName": "avatar_costume_0076"
    },
    {
        "id": 177,
        "seq": 177,
        "name": "とんこつラーメン食べたいTシャツ",
        "assetbundleName": "avatar_costume_0077"
    },
    {
        "id": 178,
        "seq": 178,
        "name": "しょうゆラーメン食べたいTシャツ",
        "assetbundleName": "avatar_costume_0078"
    },
    {
        "id": 179,
        "seq": 179,
        "name": "「2nd ANNIVERSARY SPECIAL STAGE」スペシャルライブTシャツ",
        "assetbundleName": "avatar_costume_0079"
    },
    {
        "id": 180,
        "seq": 180,
        "name": "「2nd ANNIVERSARY SPECIAL STAGE」ライブTシャツ（白）",
        "assetbundleName": "avatar_costume_0080"
    },
    {
        "id": 181,
        "seq": 181,
        "name": "「2nd ANNIVERSARY SPECIAL STAGE」ライブTシャツ（黒）",
        "assetbundleName": "avatar_costume_0081"
    },
    {
        "id": 182,
        "seq": 182,
        "name": "りんご飴食べたいTシャツ",
        "assetbundleName": "avatar_costume_0082"
    },
    {
        "id": 183,
        "seq": 183,
        "name": "わたあめ食べたいTシャツ",
        "assetbundleName": "avatar_costume_0083"
    },
    {
        "id": 184,
        "seq": 184,
        "name": "文化祭でカフェしたいTシャツ",
        "assetbundleName": "avatar_costume_0084"
    },
    {
        "id": 185,
        "seq": 185,
        "name": "文化祭でお化け屋敷したいTシャツ",
        "assetbundleName": "avatar_costume_0085"
    },
    {
        "id": 186,
        "seq": 186,
        "name": "テレビ番組よく見るTシャツ",
        "assetbundleName": "avatar_costume_0086"
    },
    {
        "id": 187,
        "seq": 187,
        "name": "ネット配信よく見るTシャツ",
        "assetbundleName": "avatar_costume_0087"
    }
]