[
    {
        "id": 1,
        "seq": 7,
        "billingShopItemType": "jewel",
        "billingProductGroupId": 1,
        "name": "クリスタル A",
        "description": "クリスタル×150",
        "billableLimitType": "unlimited",
        "billableLimitResetIntervalType": "none",
        "assetbundleName": "jewel",
        "resourceBoxId": 146
    },
    {
        "id": 2,
        "seq": 6,
        "billingShopItemType": "jewel",
        "billingProductGroupId": 2,
        "name": "クリスタル B",
        "description": "クリスタル×460",
        "billableLimitType": "unlimited",
        "billableLimitResetIntervalType": "none",
        "assetbundleName": "jewel",
        "resourceBoxId": 147
    },
    {
        "id": 3,
        "seq": 5,
        "billingShopItemType": "jewel",
        "billingProductGroupId": 3,
        "name": "クリスタル C",
        "description": "クリスタル×970",
        "billableLimitType": "unlimited",
        "billableLimitResetIntervalType": "none",
        "assetbundleName": "jewel",
        "resourceBoxId": 148
    },
    {
        "id": 4,
        "seq": 4,
        "billingShopItemType": "jewel",
        "billingProductGroupId": 4,
        "name": "クリスタル D",
        "description": "クリスタル×1760",
        "billableLimitType": "unlimited",
        "billableLimitResetIntervalType": "none",
        "assetbundleName": "jewel",
        "resourceBoxId": 149
    },
    {
        "id": 5,
        "seq": 3,
        "billingShopItemType": "jewel",
        "billingProductGroupId": 5,
        "name": "クリスタル E",
        "description": "クリスタル×3000",
        "billableLimitType": "unlimited",
        "billableLimitResetIntervalType": "none",
        "assetbundleName": "jewel",
        "resourceBoxId": 150
    },
    {
        "id": 6,
        "seq": 2,
        "billingShopItemType": "jewel",
        "billingProductGroupId": 6,
        "name": "クリスタル F",
        "description": "クリスタル×5000",
        "billableLimitType": "unlimited",
        "billableLimitResetIntervalType": "none",
        "assetbundleName": "jewel",
        "resourceBoxId": 7
    },
    {
        "id": 7,
        "seq": 1,
        "billingShopItemType": "jewel",
        "billingProductGroupId": 7,
        "name": "クリスタル G",
        "description": "クリスタル×10500",
        "billableLimitType": "unlimited",
        "billableLimitResetIntervalType": "none",
        "assetbundleName": "jewel",
        "resourceBoxId": 8
    },
    {
        "id": 8,
        "seq": 110,
        "billingShopItemType": "value_set",
        "billingProductGroupId": 8,
        "name": "ウェルカムセカイセットA",
        "description": "クリスタル×110\n想いのカケラ×50\nキュートピース×100\nクールピース×100\nピュアピース×100\nハッピーピース×100\nミステリアスピース×100\nミュージックカード×10",
        "billableLimitType": "count",
        "billableLimitValue": 1,
        "billableLimitResetIntervalType": "none",
        "assetbundleName": "shop_8",
        "resourceBoxId": 9,
        "bonusResourceBoxId": 1,
        "label": "1回限定",
        "endAt": 1632927599000
    },
    {
        "id": 9,
        "seq": 100,
        "billingShopItemType": "value_set",
        "billingProductGroupId": 9,
        "name": "ウェルカムセカイセットB",
        "description": "クリスタル×2810\n★3以上確定チケット×1\n魔法の布×300\n魔法の糸×30\nミュージックカード×30",
        "billableLimitType": "count",
        "billableLimitValue": 1,
        "billableLimitResetIntervalType": "none",
        "assetbundleName": "shop_9",
        "resourceBoxId": 10,
        "bonusResourceBoxId": 2,
        "label": "1回限定",
        "endAt": 1632927599000
    },
    {
        "id": 10,
        "seq": 90,
        "billingShopItemType": "value_set",
        "billingProductGroupId": 10,
        "name": "ウェルカムセカイセットC",
        "description": "クリスタル×9200\n想いの純結晶×1\nキュートジェム×100\nクールジェム×100\nピュアジェム×100\nハッピージェム×100\nミステリアスジェム×100\nキュートピース×200\nクールピース×200\nピュアピース×200\nハッピーピース×200\nミステリアスピース×200\nミラクルジェム×20",
        "billableLimitType": "count",
        "billableLimitValue": 1,
        "billableLimitResetIntervalType": "none",
        "assetbundleName": "shop_10",
        "resourceBoxId": 11,
        "bonusResourceBoxId": 3,
        "label": "1回限定",
        "endAt": 1632927599000
    },
    {
        "id": 11,
        "seq": 70,
        "billingShopItemType": "value_set",
        "billingProductGroupId": 15,
        "name": "お裁縫セット",
        "description": "クリスタル×1800\n魔法の糸×30\n魔法の布×300",
        "billableLimitType": "count",
        "billableLimitValue": 3,
        "billableLimitResetIntervalType": "monthly",
        "assetbundleName": "shop_15",
        "resourceBoxId": 15,
        "bonusResourceBoxId": 6,
        "startAt": 1601478000000,
        "endAt": 1633013999000
    },
    {
        "id": 12,
        "seq": 60,
        "billingShopItemType": "value_set",
        "billingProductGroupId": 14,
        "name": "ミュージックカードセット",
        "description": "クリスタル×450\nミュージックカード×10",
        "billableLimitType": "count",
        "billableLimitValue": 5,
        "billableLimitResetIntervalType": "monthly",
        "assetbundleName": "shop_14",
        "resourceBoxId": 14,
        "bonusResourceBoxId": 5,
        "startAt": 1601478000000,
        "endAt": 1633013999000
    },
    {
        "id": 13,
        "seq": 50,
        "billingShopItemType": "value_set",
        "billingProductGroupId": 11,
        "name": "スタンプ交換券セット",
        "description": "クリスタル×340\nスタンプ交換券×3",
        "billableLimitType": "count",
        "billableLimitValue": 1,
        "billableLimitResetIntervalType": "monthly",
        "assetbundleName": "shop_11",
        "resourceBoxId": 12,
        "bonusResourceBoxId": 4,
        "startAt": 1601478000000,
        "endAt": 1633013999000
    },
    {
        "id": 14,
        "seq": 3,
        "billingShopItemType": "value_set",
        "billingProductGroupId": 17,
        "name": "育成応援セット",
        "description": "クリスタル×2810\n想いのカケラ×50\nキュートジェム×50\nクールジェム×50\nピュアジェム×50\nハッピージェム×50\nミステリアスジェム×50\nキュートピース×100\nクールピース×100\nピュアピース×100\nハッピーピース×100\nミステリアスピース×100\nミラクルジェム×10",
        "billableLimitType": "count",
        "billableLimitValue": 1,
        "billableLimitResetIntervalType": "monthly",
        "assetbundleName": "shop_17",
        "resourceBoxId": 17,
        "bonusResourceBoxId": 7,
        "startAt": 1601478000000,
        "endAt": 1609426799000
    },
    {
        "id": 15,
        "seq": 30,
        "billingShopItemType": "value_set",
        "billingProductGroupId": 21,
        "name": "コインセット",
        "description": "クリスタル×1360\nコイン×100000",
        "billableLimitType": "count",
        "billableLimitValue": 3,
        "billableLimitResetIntervalType": "monthly",
        "assetbundleName": "shop_21",
        "resourceBoxId": 22,
        "bonusResourceBoxId": 8,
        "startAt": 1601478000000,
        "endAt": 1633013999000
    },
    {
        "id": 16,
        "seq": 10,
        "billingShopItemType": "value_set",
        "billingProductGroupId": 12,
        "name": "ライブP ×100",
        "description": "ライブP×100",
        "billableLimitType": "live_point",
        "billableLimitValue": 8000,
        "billableLimitResetIntervalType": "monthly",
        "assetbundleName": "shop_12",
        "resourceBoxId": 21
    },
    {
        "id": 17,
        "seq": 1,
        "billingShopItemType": "colorful_pass",
        "billingProductGroupId": 13,
        "name": "[30日間有効]カラフルパス",
        "description": "クリスタル×440\n毎日1回無償クリスタル×50(14回まで)\n1日1回限定有償ガチャが2回まで引ける\nチャレンジP獲得量2倍\nライブP獲得量2倍",
        "billableLimitType": "count",
        "billableLimitValue": 1,
        "billableLimitResetIntervalType": "day",
        "billableLimitResetIntervalValue": 30,
        "assetbundleName": "shop_61",
        "resourceBoxId": 151
    },
    {
        "id": 18,
        "seq": 1,
        "billingShopItemType": "live_mission_pass",
        "billingProductGroupId": 16,
        "name": "プレミアムミッションパス",
        "description": "クリスタル×1800\n今月のプレミアム報酬枠解放",
        "billableLimitType": "count",
        "billableLimitValue": 1,
        "billableLimitResetIntervalType": "monthly",
        "assetbundleName": "shop_16",
        "resourceBoxId": 16,
        "startAt": 1601478000000,
        "endAt": 1604156399000
    },
    {
        "id": 19,
        "seq": 13,
        "billingShopItemType": "jewel",
        "billingProductGroupId": 18,
        "name": "[お正月セール]クリスタルD",
        "description": "クリスタル×1800\n無償クリスタル×300",
        "billableLimitType": "count",
        "billableLimitValue": 1,
        "billableLimitResetIntervalType": "none",
        "assetbundleName": "shop_18",
        "resourceBoxId": 18,
        "bonusResourceBoxId": 11,
        "startAt": 1609426800000,
        "endAt": 1610290799000
    },
    {
        "id": 20,
        "seq": 12,
        "billingShopItemType": "jewel",
        "billingProductGroupId": 19,
        "name": "[お正月セール]クリスタルF",
        "description": "クリスタル×5000\n無償クリスタル×850",
        "billableLimitType": "count",
        "billableLimitValue": 1,
        "billableLimitResetIntervalType": "none",
        "assetbundleName": "shop_19",
        "resourceBoxId": 19,
        "bonusResourceBoxId": 12,
        "startAt": 1609426800000,
        "endAt": 1610290799000
    },
    {
        "id": 21,
        "seq": 11,
        "billingShopItemType": "jewel",
        "billingProductGroupId": 20,
        "name": "[お正月セール]クリスタルG",
        "description": "クリスタル×10500\n無償クリスタル×1800",
        "billableLimitType": "count",
        "billableLimitValue": 1,
        "billableLimitResetIntervalType": "none",
        "assetbundleName": "shop_20",
        "resourceBoxId": 20,
        "bonusResourceBoxId": 13,
        "startAt": 1609426800000,
        "endAt": 1610290799000
    },
    {
        "id": 23,
        "seq": 80,
        "billingShopItemType": "value_set",
        "billingProductGroupId": 23,
        "name": "初心者特訓セット",
        "description": "クリスタル×450\nミラクルジェム×50\nキュートジェム×100\nクールジェム×100\nピュアジェム×100\nハッピージェム×100\nミステリアスジェム×100",
        "billableLimitType": "count",
        "billableLimitValue": 2,
        "billableLimitResetIntervalType": "none",
        "assetbundleName": "shop_23",
        "resourceBoxId": 23,
        "bonusResourceBoxId": 9,
        "startAt": 1604156400000,
        "endAt": 1633013999000
    },
    {
        "id": 24,
        "seq": 1,
        "billingShopItemType": "live_mission_pass",
        "billingProductGroupId": 24,
        "name": "プレミアムミッションパス",
        "description": "クリスタル×1800\nバーチャルコイン×1800\n今月のプレミアム報酬枠解放",
        "billableLimitType": "count",
        "billableLimitValue": 1,
        "billableLimitResetIntervalType": "monthly",
        "assetbundleName": "shop_24",
        "resourceBoxId": 24,
        "bonusResourceBoxId": 10,
        "startAt": 1604156400000,
        "endAt": 1664550000000
    },
    {
        "id": 25,
        "seq": 12,
        "billingShopItemType": "value_set",
        "billingProductGroupId": 25,
        "name": "2020クリスマス衣装セットA",
        "description": "クリスタル×1800\nライブ衣装「クリスマススタイル☆2020（レディース）」20着×4カラー",
        "billableLimitType": "count",
        "billableLimitValue": 1,
        "billableLimitResetIntervalType": "none",
        "assetbundleName": "shop_25",
        "resourceBoxId": 25,
        "bonusResourceBoxId": 14,
        "startAt": 1608735600000,
        "endAt": 1608908399000
    },
    {
        "id": 26,
        "seq": 11,
        "billingShopItemType": "value_set",
        "billingProductGroupId": 26,
        "name": "2020クリスマス衣装セットB",
        "description": "クリスタル×1800\nライブ衣装「クリスマススタイル☆2020（メンズ）」6着×4カラー",
        "billableLimitType": "count",
        "billableLimitValue": 1,
        "billableLimitResetIntervalType": "none",
        "assetbundleName": "shop_26",
        "resourceBoxId": 26,
        "bonusResourceBoxId": 15,
        "startAt": 1608735600000,
        "endAt": 1608908399000
    },
    {
        "id": 27,
        "seq": 14,
        "billingShopItemType": "value_set",
        "billingProductGroupId": 27,
        "name": "2021お正月衣装セットA",
        "description": "クリスタル×1800\nライブ衣装「謹賀の装い（レディース）」20着×4カラー",
        "billableLimitType": "count",
        "billableLimitValue": 1,
        "billableLimitResetIntervalType": "none",
        "assetbundleName": "shop_27",
        "resourceBoxId": 27,
        "bonusResourceBoxId": 16,
        "startAt": 1609426800000,
        "endAt": 1610290799000
    },
    {
        "id": 28,
        "seq": 13,
        "billingShopItemType": "value_set",
        "billingProductGroupId": 28,
        "name": "2021お正月衣装セットB",
        "description": "クリスタル×1800\nライブ衣装「謹賀の装い（メンズ）」6着×4カラー",
        "billableLimitType": "count",
        "billableLimitValue": 1,
        "billableLimitResetIntervalType": "none",
        "assetbundleName": "shop_28",
        "resourceBoxId": 28,
        "bonusResourceBoxId": 17,
        "startAt": 1609426800000,
        "endAt": 1610290799000
    },
    {
        "id": 29,
        "seq": 15,
        "billingShopItemType": "value_set",
        "billingProductGroupId": 29,
        "name": "新春福袋2021 梅",
        "description": "★3以上確定チケット×1\nバーチャルコイン×250",
        "billableLimitType": "count",
        "billableLimitValue": 1,
        "billableLimitResetIntervalType": "none",
        "assetbundleName": "shop_29",
        "resourceBoxId": 29,
        "bonusResourceBoxId": 18,
        "startAt": 1609426800000,
        "endAt": 1610290799000
    },
    {
        "id": 30,
        "seq": 16,
        "billingShopItemType": "value_set",
        "billingProductGroupId": 30,
        "name": "新春福袋2021 竹",
        "description": "練習用スコア（上級）×10\nキュートジェム×200\nクールジェム×200\nピュアジェム×200\nハッピージェム×200\nミステリアスジェム×200\nミラクルジェム×100\nバーチャルコイン×1500",
        "billableLimitType": "count",
        "billableLimitValue": 1,
        "billableLimitResetIntervalType": "none",
        "assetbundleName": "shop_30",
        "resourceBoxId": 30,
        "bonusResourceBoxId": 19,
        "startAt": 1609426800000,
        "endAt": 1610290799000
    },
    {
        "id": 31,
        "seq": 17,
        "billingShopItemType": "value_set",
        "billingProductGroupId": 31,
        "name": "新春福袋2021 松",
        "description": "想いの純結晶×1\nスキルアップ用スコア（上級）×3\nふしぎな種×30\nコイン×300,000\nバーチャルコイン×5000",
        "billableLimitType": "count",
        "billableLimitValue": 1,
        "billableLimitResetIntervalType": "none",
        "assetbundleName": "shop_31",
        "resourceBoxId": 31,
        "bonusResourceBoxId": 20,
        "startAt": 1609426800000,
        "endAt": 1610290799000
    },
    {
        "id": 32,
        "seq": 40,
        "billingShopItemType": "value_set",
        "billingProductGroupId": 32,
        "name": "育成応援セット",
        "description": "クリスタル×2810\n想いのカケラ×50\nキュートジェム×50\nクールジェム×50\nピュアジェム×50\nハッピージェム×50\nミステリアスジェム×50\nキュートピース×100\nクールピース×100\nピュアピース×100\nハッピーピース×100\nミステリアスピース×100\nミラクルジェム×30",
        "billableLimitType": "count",
        "billableLimitValue": 1,
        "billableLimitResetIntervalType": "monthly",
        "assetbundleName": "shop_17",
        "resourceBoxId": 32,
        "bonusResourceBoxId": 21,
        "startAt": 1609426800000,
        "endAt": 1633013999000
    },
    {
        "id": 33,
        "seq": 20,
        "billingShopItemType": "value_set",
        "billingProductGroupId": 33,
        "name": "ライブP ×1000",
        "description": "ライブP×1000",
        "billableLimitType": "live_point",
        "billableLimitValue": 8000,
        "billableLimitResetIntervalType": "monthly",
        "assetbundleName": "shop_33",
        "resourceBoxId": 33,
        "startAt": 1614232800000
    },
    {
        "id": 34,
        "seq": 13,
        "billingShopItemType": "jewel",
        "billingProductGroupId": 37,
        "name": "[ハーフアニバーサリーセール]クリスタルD",
        "description": "クリスタル×1800\n無償クリスタル×300",
        "billableLimitType": "count",
        "billableLimitValue": 1,
        "billableLimitResetIntervalType": "none",
        "assetbundleName": "shop_18",
        "resourceBoxId": 18,
        "bonusResourceBoxId": 11,
        "label": "期間限定",
        "startAt": 1617256800000,
        "endAt": 1618066799000
    },
    {
        "id": 35,
        "seq": 12,
        "billingShopItemType": "jewel",
        "billingProductGroupId": 38,
        "name": "[ハーフアニバーサリーセール]クリスタルF",
        "description": "クリスタル×5000\n無償クリスタル×850",
        "billableLimitType": "count",
        "billableLimitValue": 1,
        "billableLimitResetIntervalType": "none",
        "assetbundleName": "shop_19",
        "resourceBoxId": 19,
        "bonusResourceBoxId": 12,
        "label": "期間限定",
        "startAt": 1617256800000,
        "endAt": 1618066799000
    },
    {
        "id": 36,
        "seq": 11,
        "billingShopItemType": "jewel",
        "billingProductGroupId": 39,
        "name": "[ハーフアニバーサリーセール]クリスタルG",
        "description": "クリスタル×10500\n無償クリスタル×1800",
        "billableLimitType": "count",
        "billableLimitValue": 1,
        "billableLimitResetIntervalType": "none",
        "assetbundleName": "shop_20",
        "resourceBoxId": 20,
        "bonusResourceBoxId": 13,
        "label": "期間限定",
        "startAt": 1617256800000,
        "endAt": 1618066799000
    },
    {
        "id": 37,
        "seq": 170,
        "billingShopItemType": "value_set",
        "billingProductGroupId": 40,
        "name": "ハーフアニバーサリー衣装セットA",
        "description": "クリスタル×1800\nライブ衣装「ハミングバード（レディース）」20着×4カラー",
        "billableLimitType": "count",
        "billableLimitValue": 1,
        "billableLimitResetIntervalType": "none",
        "assetbundleName": "shop_37",
        "resourceBoxId": 34,
        "bonusResourceBoxId": 25,
        "label": "1回限定",
        "startAt": 1617256800000,
        "endAt": 1618066799000
    },
    {
        "id": 38,
        "seq": 160,
        "billingShopItemType": "value_set",
        "billingProductGroupId": 41,
        "name": "ハーフアニバーサリー衣装セットB",
        "description": "クリスタル×1800\nライブ衣装「ハミングバード（メンズ）」6着×4カラー",
        "billableLimitType": "count",
        "billableLimitValue": 1,
        "billableLimitResetIntervalType": "none",
        "assetbundleName": "shop_38",
        "resourceBoxId": 35,
        "bonusResourceBoxId": 26,
        "label": "1回限定",
        "startAt": 1617256800000,
        "endAt": 1618066799000
    },
    {
        "id": 39,
        "seq": 200,
        "billingShopItemType": "value_set",
        "billingProductGroupId": 34,
        "name": "ハーフアニバーサリーセットA",
        "description": "★3以上確定チケット×1\n練習用スコア（中級）×25",
        "billableLimitType": "count",
        "billableLimitValue": 1,
        "billableLimitResetIntervalType": "none",
        "assetbundleName": "shop_39",
        "resourceBoxId": 36,
        "bonusResourceBoxId": 22,
        "label": "1回限定",
        "startAt": 1617256800000,
        "endAt": 1618066799000
    },
    {
        "id": 40,
        "seq": 190,
        "billingShopItemType": "value_set",
        "billingProductGroupId": 35,
        "name": "ハーフアニバーサリーセットB",
        "description": "キュートジェム×300\nクールジェム×300\nピュアジェム×300\nハッピージェム×300\nミステリアスジェム×300\nミラクルジェム×150",
        "billableLimitType": "count",
        "billableLimitValue": 1,
        "billableLimitResetIntervalType": "none",
        "assetbundleName": "shop_40",
        "resourceBoxId": 37,
        "bonusResourceBoxId": 23,
        "label": "1回限定",
        "startAt": 1617256800000,
        "endAt": 1618066799000
    },
    {
        "id": 41,
        "seq": 180,
        "billingShopItemType": "value_set",
        "billingProductGroupId": 36,
        "name": "ハーフアニバーサリーセットC",
        "description": "想いの純結晶×1\nボーカルカード交換券×1",
        "billableLimitType": "count",
        "billableLimitValue": 1,
        "billableLimitResetIntervalType": "none",
        "assetbundleName": "shop_41",
        "resourceBoxId": 38,
        "bonusResourceBoxId": 24,
        "label": "1回限定",
        "startAt": 1617256800000,
        "endAt": 1618066799000
    },
    {
        "id": 42,
        "seq": 100,
        "billingShopItemType": "jewel",
        "billingProductGroupId": 42,
        "name": "お得なクリスタル D",
        "description": "クリスタル×1760\n無償クリスタル×300",
        "billableLimitType": "count",
        "billableLimitValue": 1,
        "billableLimitResetIntervalType": "none",
        "assetbundleName": "shop_66",
        "resourceBoxId": 149,
        "bonusResourceBoxId": 11,
        "startAt": 1632927600000
    },
    {
        "id": 43,
        "seq": 100,
        "billingShopItemType": "jewel",
        "billingProductGroupId": 43,
        "name": "お得なクリスタル F",
        "description": "クリスタル×5000\n無償クリスタル×850",
        "billableLimitType": "count",
        "billableLimitValue": 1,
        "billableLimitResetIntervalType": "none",
        "assetbundleName": "shop_19",
        "resourceBoxId": 19,
        "bonusResourceBoxId": 12,
        "startAt": 1632927600000
    },
    {
        "id": 44,
        "seq": 100,
        "billingShopItemType": "jewel",
        "billingProductGroupId": 44,
        "name": "お得なクリスタル G",
        "description": "クリスタル×10500\n無償クリスタル×1800",
        "billableLimitType": "count",
        "billableLimitValue": 1,
        "billableLimitResetIntervalType": "none",
        "assetbundleName": "shop_20",
        "resourceBoxId": 20,
        "bonusResourceBoxId": 13,
        "startAt": 1632927600000
    },
    {
        "id": 45,
        "seq": 200,
        "billingShopItemType": "value_set",
        "billingProductGroupId": 45,
        "name": "ウェルカムセカイセットＡ",
        "description": "有償クリスタル×110\n★3以上確定チケット×1",
        "billableLimitType": "count",
        "billableLimitValue": 1,
        "billableLimitResetIntervalType": "none",
        "assetbundleName": "shop_45_v2",
        "resourceBoxId": 39,
        "bonusResourceBoxId": 27,
        "label": "1回限定",
        "startAt": 1632927600000,
        "endAt": 1651298399000
    },
    {
        "id": 46,
        "seq": 200,
        "billingShopItemType": "value_set",
        "billingProductGroupId": 46,
        "name": "ウェルカムセカイセット B",
        "description": "有償クリスタル×440\n想いのカケラ×300\nミラクルジェム×100\nキュートジェム×100\nクールジェム×100\nピュアジェム×100\nハッピージェム×100\nミステリアスジェム×100\n練習用スコア（中級）×20",
        "billableLimitType": "count",
        "billableLimitValue": 1,
        "billableLimitResetIntervalType": "none",
        "assetbundleName": "shop_46_v2",
        "resourceBoxId": 153,
        "bonusResourceBoxId": 28,
        "label": "1回限定",
        "startAt": 1632927600000
    },
    {
        "id": 47,
        "seq": 200,
        "billingShopItemType": "value_set",
        "billingProductGroupId": 47,
        "name": "ウェルカムセカイセット C",
        "description": "有償クリスタル×2750\nボーカルカード交換チケット×2\nスタンプ交換券×3\n魔法の布×300\n魔法の糸×30",
        "billableLimitType": "count",
        "billableLimitValue": 1,
        "billableLimitResetIntervalType": "none",
        "assetbundleName": "shop_47_v2",
        "resourceBoxId": 154,
        "bonusResourceBoxId": 29,
        "label": "1回限定",
        "startAt": 1632927600000
    },
    {
        "id": 48,
        "seq": 200,
        "billingShopItemType": "value_set",
        "billingProductGroupId": 48,
        "name": "ウェルカムセカイセット D",
        "description": "有償クリスタル×9200\n想いの純結晶×2\nスキルアップ用スコア（上級）×3\nふしぎな種×50\nコイン×500,000",
        "billableLimitType": "count",
        "billableLimitValue": 1,
        "billableLimitResetIntervalType": "none",
        "assetbundleName": "shop_48_v2",
        "resourceBoxId": 42,
        "bonusResourceBoxId": 30,
        "label": "1回限定",
        "startAt": 1632927600000
    },
    {
        "id": 49,
        "seq": 300,
        "billingShopItemType": "jewel",
        "billingProductGroupId": 49,
        "name": "[新春2022セール]クリスタルD",
        "description": "[新春2022セール]クリスタルDセット",
        "billableLimitType": "count",
        "billableLimitValue": 1,
        "billableLimitResetIntervalType": "none",
        "assetbundleName": "shop_18",
        "resourceBoxId": 18,
        "bonusResourceBoxId": 11,
        "label": "期間限定",
        "startAt": 1640930400000,
        "endAt": 1641967199000
    },
    {
        "id": 50,
        "seq": 290,
        "billingShopItemType": "jewel",
        "billingProductGroupId": 50,
        "name": "[新春2022セール]クリスタルF",
        "description": "[新春2022セール]クリスタルFセット",
        "billableLimitType": "count",
        "billableLimitValue": 1,
        "billableLimitResetIntervalType": "none",
        "assetbundleName": "shop_19",
        "resourceBoxId": 19,
        "bonusResourceBoxId": 12,
        "label": "期間限定",
        "startAt": 1640930400000,
        "endAt": 1641967199000
    },
    {
        "id": 51,
        "seq": 280,
        "billingShopItemType": "jewel",
        "billingProductGroupId": 51,
        "name": "[新春2022セール]クリスタルG",
        "description": "[新春2022セール]クリスタルGセット",
        "billableLimitType": "count",
        "billableLimitValue": 1,
        "billableLimitResetIntervalType": "none",
        "assetbundleName": "shop_20",
        "resourceBoxId": 20,
        "bonusResourceBoxId": 13,
        "label": "期間限定",
        "startAt": 1640930400000,
        "endAt": 1641967199000
    },
    {
        "id": 52,
        "seq": 300,
        "billingShopItemType": "jewel",
        "billingProductGroupId": 52,
        "name": "[1.5周年記念セール]クリスタルD",
        "description": "[1.5周年記念セール]クリスタルDセット",
        "billableLimitType": "count",
        "billableLimitValue": 1,
        "billableLimitResetIntervalType": "none",
        "assetbundleName": "shop_18",
        "resourceBoxId": 18,
        "bonusResourceBoxId": 11,
        "label": "期間限定",
        "startAt": 1648620000000,
        "endAt": 1649656799000
    },
    {
        "id": 53,
        "seq": 290,
        "billingShopItemType": "jewel",
        "billingProductGroupId": 53,
        "name": "[1.5周年記念セール]クリスタルF",
        "description": "[1.5周年記念セール]クリスタルFセット",
        "billableLimitType": "count",
        "billableLimitValue": 1,
        "billableLimitResetIntervalType": "none",
        "assetbundleName": "shop_19",
        "resourceBoxId": 19,
        "bonusResourceBoxId": 12,
        "label": "期間限定",
        "startAt": 1648620000000,
        "endAt": 1649656799000
    },
    {
        "id": 54,
        "seq": 280,
        "billingShopItemType": "jewel",
        "billingProductGroupId": 54,
        "name": "[1.5周年記念セール]クリスタルG",
        "description": "[1.5周年記念セール]クリスタルGセット",
        "billableLimitType": "count",
        "billableLimitValue": 1,
        "billableLimitResetIntervalType": "none",
        "assetbundleName": "shop_20",
        "resourceBoxId": 20,
        "bonusResourceBoxId": 13,
        "label": "期間限定",
        "startAt": 1648620000000,
        "endAt": 1649656799000
    },
    {
        "id": 55,
        "seq": 1,
        "billingShopItemType": "live_mission_pass",
        "billingProductGroupId": 63,
        "name": "[毎月更新]プレミアムミッションパス",
        "description": "クリスタル×1850\n想いのカケラ×300（ボーナス）\n今月のプレミアム報酬枠解放",
        "billableLimitType": "count",
        "billableLimitValue": 1,
        "billableLimitResetIntervalType": "monthly",
        "assetbundleName": "shop_62",
        "resourceBoxId": 152,
        "bonusResourceBoxId": 39,
        "startAt": 1664550000000,
        "endAt": 4097141999000
    },
    {
        "id": 56,
        "seq": 300,
        "billingShopItemType": "jewel",
        "billingProductGroupId": 56,
        "name": "[2周年記念セール]クリスタル A",
        "description": "クリスタル×150\n無償クリスタル×15",
        "billableLimitType": "count",
        "billableLimitValue": 1,
        "billableLimitResetIntervalType": "none",
        "assetbundleName": "shop_63",
        "resourceBoxId": 146,
        "bonusResourceBoxId": 44,
        "label": "期間限定",
        "startAt": 1664463600000,
        "endAt": 1665543599000
    },
    {
        "id": 57,
        "seq": 290,
        "billingShopItemType": "jewel",
        "billingProductGroupId": 57,
        "name": "[2周年記念セール]クリスタル B",
        "description": "クリスタル×460\n無償クリスタル×50",
        "billableLimitType": "count",
        "billableLimitValue": 1,
        "billableLimitResetIntervalType": "none",
        "assetbundleName": "shop_64",
        "resourceBoxId": 147,
        "bonusResourceBoxId": 45,
        "label": "期間限定",
        "startAt": 1664463600000,
        "endAt": 1665543599000
    },
    {
        "id": 58,
        "seq": 280,
        "billingShopItemType": "jewel",
        "billingProductGroupId": 58,
        "name": "[2周年記念セール]クリスタル C",
        "description": "クリスタル×970\n無償クリスタル×150",
        "billableLimitType": "count",
        "billableLimitValue": 1,
        "billableLimitResetIntervalType": "none",
        "assetbundleName": "shop_65",
        "resourceBoxId": 148,
        "bonusResourceBoxId": 46,
        "label": "期間限定",
        "startAt": 1664463600000,
        "endAt": 1665543599000
    },
    {
        "id": 59,
        "seq": 270,
        "billingShopItemType": "jewel",
        "billingProductGroupId": 59,
        "name": "[2周年記念セール]クリスタル D",
        "description": "クリスタル×1760\n無償クリスタル×300",
        "billableLimitType": "count",
        "billableLimitValue": 1,
        "billableLimitResetIntervalType": "none",
        "assetbundleName": "shop_66",
        "resourceBoxId": 149,
        "bonusResourceBoxId": 11,
        "label": "期間限定",
        "startAt": 1664463600000,
        "endAt": 1665543599000
    },
    {
        "id": 60,
        "seq": 260,
        "billingShopItemType": "jewel",
        "billingProductGroupId": 60,
        "name": "[2周年記念セール]クリスタル E",
        "description": "クリスタル×3,000\n無償クリスタル×500",
        "billableLimitType": "count",
        "billableLimitValue": 1,
        "billableLimitResetIntervalType": "none",
        "assetbundleName": "shop_67",
        "resourceBoxId": 150,
        "bonusResourceBoxId": 47,
        "label": "期間限定",
        "startAt": 1664463600000,
        "endAt": 1665543599000
    },
    {
        "id": 61,
        "seq": 250,
        "billingShopItemType": "jewel",
        "billingProductGroupId": 61,
        "name": "[2周年記念セール]クリスタル F",
        "description": "クリスタル×5000\n無償クリスタル×850",
        "billableLimitType": "count",
        "billableLimitValue": 1,
        "billableLimitResetIntervalType": "none",
        "assetbundleName": "shop_19",
        "resourceBoxId": 19,
        "bonusResourceBoxId": 12,
        "label": "期間限定",
        "startAt": 1664463600000,
        "endAt": 1665543599000
    },
    {
        "id": 62,
        "seq": 240,
        "billingShopItemType": "jewel",
        "billingProductGroupId": 62,
        "name": "[2周年記念セール]クリスタル G",
        "description": "クリスタル×10500\n無償クリスタル×1800",
        "billableLimitType": "count",
        "billableLimitValue": 1,
        "billableLimitResetIntervalType": "none",
        "assetbundleName": "shop_20",
        "resourceBoxId": 20,
        "bonusResourceBoxId": 13,
        "label": "期間限定",
        "startAt": 1664463600000,
        "endAt": 1665543599000
    },
    {
        "id": 10001,
        "seq": 80,
        "billingShopItemType": "value_set",
        "name": "お裁縫セット",
        "description": "ガチャチケット×5\n魔法の布×300\n魔法の糸×30",
        "billableLimitType": "count",
        "billableLimitValue": 3,
        "billableLimitResetIntervalType": "monthly",
        "assetbundleName": "shop_10001",
        "resourceBoxId": 43,
        "startAt": 1633014000000,
        "purchaseOption": "exchange"
    },
    {
        "id": 10002,
        "seq": 70,
        "billingShopItemType": "value_set",
        "name": "ミュージックカードセット",
        "description": "ガチャチケット×1\nミュージックカード×10",
        "billableLimitType": "count",
        "billableLimitValue": 10,
        "billableLimitResetIntervalType": "monthly",
        "assetbundleName": "shop_10002",
        "resourceBoxId": 44,
        "startAt": 1633014000000,
        "purchaseOption": "exchange"
    },
    {
        "id": 10003,
        "seq": 60,
        "billingShopItemType": "value_set",
        "name": "スタンプ交換券セット",
        "description": "ガチャチケット×1\nスタンプ交換券×3",
        "billableLimitType": "count",
        "billableLimitValue": 1,
        "billableLimitResetIntervalType": "monthly",
        "assetbundleName": "shop_10003",
        "resourceBoxId": 45,
        "startAt": 1633014000000,
        "purchaseOption": "exchange"
    },
    {
        "id": 10004,
        "seq": 50,
        "billingShopItemType": "value_set",
        "name": "育成応援セット",
        "description": "ガチャチケット×10\nミラクルジェム×100\nキュートジェム×100\nクールジェム×100\nピュアジェム×100\nハッピージェム×100\nミステリアスジェム×100\nキュートジェム×200\nクールジェム×200\nピュアジェム×200\nハッピージェム×200\nミステリアスジェム×200\n練習用スコア(中)×50",
        "billableLimitType": "count",
        "billableLimitValue": 1,
        "billableLimitResetIntervalType": "monthly",
        "assetbundleName": "shop_10004",
        "resourceBoxId": 46,
        "startAt": 1633014000000,
        "purchaseOption": "exchange"
    },
    {
        "id": 10005,
        "seq": 40,
        "billingShopItemType": "value_set",
        "name": "コインセット",
        "description": "ガチャチケット×5\nコイン×100,000",
        "billableLimitType": "count",
        "billableLimitValue": 3,
        "billableLimitResetIntervalType": "monthly",
        "assetbundleName": "shop_10005",
        "resourceBoxId": 47,
        "startAt": 1633014000000,
        "purchaseOption": "exchange"
    },
    {
        "id": 10006,
        "seq": 50,
        "billingShopItemType": "costume_3d",
        "name": "「サブカルボーイスタイル」衣装 全カラー",
        "description": "「サブカルボーイスタイル」衣装 全カラーセット",
        "billableLimitType": "count",
        "billableLimitValue": 1,
        "billableLimitResetIntervalType": "none",
        "assetbundleName": "shop_10006",
        "resourceBoxId": 48,
        "label": "期間限定",
        "startAt": 1633014000000,
        "endAt": 1635692399000,
        "purchaseOption": "exchange"
    },
    {
        "id": 10007,
        "seq": 40,
        "billingShopItemType": "costume_3d",
        "name": "「サブカルボーイスタイル」衣装 オリジナルカラー",
        "description": "「サブカルボーイスタイル」衣装 オリジナルカラーセット",
        "billableLimitType": "count",
        "billableLimitValue": 1,
        "billableLimitResetIntervalType": "none",
        "assetbundleName": "shop_10007",
        "resourceBoxId": 49,
        "label": "期間限定",
        "startAt": 1633014000000,
        "endAt": 1635692399000,
        "purchaseOption": "exchange"
    },
    {
        "id": 10008,
        "seq": 30,
        "billingShopItemType": "costume_3d",
        "name": "「サブカルボーイスタイル」衣装 アナザーカラー1",
        "description": "「サブカルボーイスタイル」衣装 アナザーカラー1セット",
        "billableLimitType": "count",
        "billableLimitValue": 1,
        "billableLimitResetIntervalType": "none",
        "assetbundleName": "shop_10008",
        "resourceBoxId": 50,
        "label": "期間限定",
        "startAt": 1633014000000,
        "endAt": 1635692399000,
        "purchaseOption": "exchange"
    },
    {
        "id": 10009,
        "seq": 20,
        "billingShopItemType": "costume_3d",
        "name": "「サブカルボーイスタイル」衣装 アナザーカラー2",
        "description": "「サブカルボーイスタイル」衣装 アナザーカラー2セット",
        "billableLimitType": "count",
        "billableLimitValue": 1,
        "billableLimitResetIntervalType": "none",
        "assetbundleName": "shop_10009",
        "resourceBoxId": 51,
        "label": "期間限定",
        "startAt": 1633014000000,
        "endAt": 1635692399000,
        "purchaseOption": "exchange"
    },
    {
        "id": 10010,
        "seq": 10,
        "billingShopItemType": "costume_3d",
        "name": "「サブカルボーイスタイル」衣装 アナザーカラー3",
        "description": "「サブカルボーイスタイル」衣装 アナザーカラー3セット",
        "billableLimitType": "count",
        "billableLimitValue": 1,
        "billableLimitResetIntervalType": "none",
        "assetbundleName": "shop_10010",
        "resourceBoxId": 52,
        "label": "期間限定",
        "startAt": 1633014000000,
        "endAt": 1635692399000,
        "purchaseOption": "exchange"
    },
    {
        "id": 10011,
        "seq": 70,
        "billingShopItemType": "costume_3d",
        "name": "2021ハロウィン衣装セットA",
        "description": "2021ハロウィン衣装セットAセット",
        "billableLimitType": "count",
        "billableLimitValue": 1,
        "billableLimitResetIntervalType": "none",
        "assetbundleName": "shop_10011",
        "resourceBoxId": 53,
        "label": "期間限定",
        "startAt": 1635487200000,
        "endAt": 1635832799000,
        "purchaseOption": "exchange"
    },
    {
        "id": 10012,
        "seq": 60,
        "billingShopItemType": "costume_3d",
        "name": "2021ハロウィン衣装セットB",
        "description": "2021ハロウィン衣装セットBセット",
        "billableLimitType": "count",
        "billableLimitValue": 1,
        "billableLimitResetIntervalType": "none",
        "assetbundleName": "shop_10012",
        "resourceBoxId": 54,
        "label": "期間限定",
        "startAt": 1635487200000,
        "endAt": 1635832799000,
        "purchaseOption": "exchange"
    },
    {
        "id": 10013,
        "seq": 120,
        "billingShopItemType": "costume_3d",
        "name": "「もこもこスノーコート」衣装 全カラー",
        "description": "「もこもこスノーコート」衣装 全カラーセット",
        "billableLimitType": "count",
        "billableLimitValue": 1,
        "billableLimitResetIntervalType": "none",
        "assetbundleName": "shop_10013",
        "resourceBoxId": 55,
        "label": "期間限定",
        "startAt": 1635692400000,
        "endAt": 1638284399000,
        "purchaseOption": "exchange"
    },
    {
        "id": 10014,
        "seq": 110,
        "billingShopItemType": "costume_3d",
        "name": "「もこもこスノーコート」衣装 オリジナルカラー",
        "description": "「もこもこスノーコート」衣装 オリジナルカラーセット",
        "billableLimitType": "count",
        "billableLimitValue": 1,
        "billableLimitResetIntervalType": "none",
        "assetbundleName": "shop_10014",
        "resourceBoxId": 56,
        "label": "期間限定",
        "startAt": 1635692400000,
        "endAt": 1638284399000,
        "purchaseOption": "exchange"
    },
    {
        "id": 10015,
        "seq": 100,
        "billingShopItemType": "costume_3d",
        "name": "「もこもこスノーコート」衣装 アナザーカラー1",
        "description": "「もこもこスノーコート」衣装 アナザーカラー1セット",
        "billableLimitType": "count",
        "billableLimitValue": 1,
        "billableLimitResetIntervalType": "none",
        "assetbundleName": "shop_10015",
        "resourceBoxId": 57,
        "label": "期間限定",
        "startAt": 1635692400000,
        "endAt": 1638284399000,
        "purchaseOption": "exchange"
    },
    {
        "id": 10016,
        "seq": 90,
        "billingShopItemType": "costume_3d",
        "name": "「もこもこスノーコート」衣装 アナザーカラー2",
        "description": "「もこもこスノーコート」衣装 アナザーカラー2セット",
        "billableLimitType": "count",
        "billableLimitValue": 1,
        "billableLimitResetIntervalType": "none",
        "assetbundleName": "shop_10016",
        "resourceBoxId": 58,
        "label": "期間限定",
        "startAt": 1635692400000,
        "endAt": 1638284399000,
        "purchaseOption": "exchange"
    },
    {
        "id": 10017,
        "seq": 80,
        "billingShopItemType": "costume_3d",
        "name": "「もこもこスノーコート」衣装 アナザーカラー3",
        "description": "「もこもこスノーコート」衣装 アナザーカラー3セット",
        "billableLimitType": "count",
        "billableLimitValue": 1,
        "billableLimitResetIntervalType": "none",
        "assetbundleName": "shop_10017",
        "resourceBoxId": 59,
        "label": "期間限定",
        "startAt": 1635692400000,
        "endAt": 1638284399000,
        "purchaseOption": "exchange"
    },
    {
        "id": 10018,
        "seq": 120,
        "billingShopItemType": "costume_3d",
        "name": "「メイド・バトラー」衣装 全カラー",
        "description": "「メイド・バトラー」衣装 全カラーセット",
        "billableLimitType": "count",
        "billableLimitValue": 1,
        "billableLimitResetIntervalType": "none",
        "assetbundleName": "shop_10018",
        "resourceBoxId": 60,
        "label": "期間限定",
        "startAt": 1638284400000,
        "endAt": 1640962799000,
        "purchaseOption": "exchange"
    },
    {
        "id": 10019,
        "seq": 110,
        "billingShopItemType": "costume_3d",
        "name": "「メイド・バトラー」衣装オリジナルカラー",
        "description": "「メイド・バトラー」衣装オリジナルカラーセット",
        "billableLimitType": "count",
        "billableLimitValue": 1,
        "billableLimitResetIntervalType": "none",
        "assetbundleName": "shop_10019",
        "resourceBoxId": 61,
        "label": "期間限定",
        "startAt": 1638284400000,
        "endAt": 1640962799000,
        "purchaseOption": "exchange"
    },
    {
        "id": 10020,
        "seq": 100,
        "billingShopItemType": "costume_3d",
        "name": "「メイド・バトラー」衣装アナザーカラー1",
        "description": "「メイド・バトラー」衣装アナザーカラー1セット",
        "billableLimitType": "count",
        "billableLimitValue": 1,
        "billableLimitResetIntervalType": "none",
        "assetbundleName": "shop_10020",
        "resourceBoxId": 62,
        "label": "期間限定",
        "startAt": 1638284400000,
        "endAt": 1640962799000,
        "purchaseOption": "exchange"
    },
    {
        "id": 10021,
        "seq": 90,
        "billingShopItemType": "costume_3d",
        "name": "「メイド・バトラー」衣装アナザーカラー2",
        "description": "「メイド・バトラー」衣装アナザーカラー2セット",
        "billableLimitType": "count",
        "billableLimitValue": 1,
        "billableLimitResetIntervalType": "none",
        "assetbundleName": "shop_10021",
        "resourceBoxId": 63,
        "label": "期間限定",
        "startAt": 1638284400000,
        "endAt": 1640962799000,
        "purchaseOption": "exchange"
    },
    {
        "id": 10022,
        "seq": 80,
        "billingShopItemType": "costume_3d",
        "name": "「メイド・バトラー」衣装アナザーカラー3",
        "description": "「メイド・バトラー」衣装アナザーカラー3セット",
        "billableLimitType": "count",
        "billableLimitValue": 1,
        "billableLimitResetIntervalType": "none",
        "assetbundleName": "shop_10022",
        "resourceBoxId": 64,
        "label": "期間限定",
        "startAt": 1638284400000,
        "endAt": 1640962799000,
        "purchaseOption": "exchange"
    },
    {
        "id": 10023,
        "seq": 200,
        "billingShopItemType": "costume_3d",
        "name": "【再販売】クリスマス衣装セットA（レディース）",
        "description": "【再販売】クリスマス衣装セットA（レディース）セット",
        "billableLimitType": "count",
        "billableLimitValue": 1,
        "billableLimitResetIntervalType": "none",
        "assetbundleName": "shop_10023",
        "resourceBoxId": 65,
        "label": "期間限定",
        "startAt": 1640152800000,
        "endAt": 1640584799000,
        "purchaseOption": "exchange"
    },
    {
        "id": 10024,
        "seq": 190,
        "billingShopItemType": "costume_3d",
        "name": "【再販売】クリスマス衣装セットB（メンズ）",
        "description": "【再販売】クリスマス衣装セットB（メンズ）セット",
        "billableLimitType": "count",
        "billableLimitValue": 1,
        "billableLimitResetIntervalType": "none",
        "assetbundleName": "shop_10024",
        "resourceBoxId": 66,
        "label": "期間限定",
        "startAt": 1640152800000,
        "endAt": 1640584799000,
        "purchaseOption": "exchange"
    },
    {
        "id": 10025,
        "seq": 150,
        "billingShopItemType": "costume_3d",
        "name": "【再販売】お正月衣装セットA（レディース）",
        "description": "【再販売】お正月衣装セットA（レディース）セット",
        "billableLimitType": "count",
        "billableLimitValue": 1,
        "billableLimitResetIntervalType": "none",
        "assetbundleName": "shop_10025",
        "resourceBoxId": 67,
        "label": "期間限定",
        "startAt": 1640930400000,
        "endAt": 1641967199000,
        "purchaseOption": "exchange"
    },
    {
        "id": 10026,
        "seq": 140,
        "billingShopItemType": "costume_3d",
        "name": "【再販売】お正月衣装セットB（メンズ）",
        "description": "【再販売】お正月衣装セットB（メンズ）セット",
        "billableLimitType": "count",
        "billableLimitValue": 1,
        "billableLimitResetIntervalType": "none",
        "assetbundleName": "shop_10026",
        "resourceBoxId": 68,
        "label": "期間限定",
        "startAt": 1640930400000,
        "endAt": 1641967199000,
        "purchaseOption": "exchange"
    },
    {
        "id": 10027,
        "seq": 80,
        "billingShopItemType": "costume_3d",
        "name": "「モーモー☆ニューイヤー」衣装全カラー",
        "description": "「モーモー☆ニューイヤー」衣装全カラーセット",
        "billableLimitType": "count",
        "billableLimitValue": 1,
        "billableLimitResetIntervalType": "none",
        "assetbundleName": "shop_10027",
        "resourceBoxId": 69,
        "label": "期間限定",
        "startAt": 1640962800000,
        "endAt": 1643641199000,
        "purchaseOption": "exchange"
    },
    {
        "id": 10028,
        "seq": 70,
        "billingShopItemType": "costume_3d",
        "name": "「モーモー☆ニューイヤー」衣装オリジナルカラー",
        "description": "「モーモー☆ニューイヤー」衣装オリジナルカラーセット",
        "billableLimitType": "count",
        "billableLimitValue": 1,
        "billableLimitResetIntervalType": "none",
        "assetbundleName": "shop_10028",
        "resourceBoxId": 70,
        "label": "期間限定",
        "startAt": 1640962800000,
        "endAt": 1643641199000,
        "purchaseOption": "exchange"
    },
    {
        "id": 10029,
        "seq": 60,
        "billingShopItemType": "costume_3d",
        "name": "「モーモー☆ニューイヤー」衣装アナザーカラー1",
        "description": "「モーモー☆ニューイヤー」衣装アナザーカラー1セット",
        "billableLimitType": "count",
        "billableLimitValue": 1,
        "billableLimitResetIntervalType": "none",
        "assetbundleName": "shop_10029",
        "resourceBoxId": 71,
        "label": "期間限定",
        "startAt": 1640962800000,
        "endAt": 1643641199000,
        "purchaseOption": "exchange"
    },
    {
        "id": 10030,
        "seq": 50,
        "billingShopItemType": "costume_3d",
        "name": "「モーモー☆ニューイヤー」衣装アナザーカラー2",
        "description": "「モーモー☆ニューイヤー」衣装アナザーカラー2セット",
        "billableLimitType": "count",
        "billableLimitValue": 1,
        "billableLimitResetIntervalType": "none",
        "assetbundleName": "shop_10030",
        "resourceBoxId": 72,
        "label": "期間限定",
        "startAt": 1640962800000,
        "endAt": 1643641199000,
        "purchaseOption": "exchange"
    },
    {
        "id": 10031,
        "seq": 40,
        "billingShopItemType": "costume_3d",
        "name": "「モーモー☆ニューイヤー」衣装アナザーカラー3",
        "description": "「モーモー☆ニューイヤー」衣装アナザーカラー3セット",
        "billableLimitType": "count",
        "billableLimitValue": 1,
        "billableLimitResetIntervalType": "none",
        "assetbundleName": "shop_10031",
        "resourceBoxId": 73,
        "label": "期間限定",
        "startAt": 1640962800000,
        "endAt": 1643641199000,
        "purchaseOption": "exchange"
    },
    {
        "id": 10032,
        "seq": 500,
        "billingShopItemType": "value_set",
        "name": "セカイのお年玉",
        "description": "セカイのお年玉セット",
        "billableLimitType": "count",
        "billableLimitValue": 1,
        "billableLimitResetIntervalType": "none",
        "assetbundleName": "shop_10032",
        "resourceBoxId": 74,
        "bonusResourceBoxId": 31,
        "startAt": 1640930400000,
        "endAt": 1641967199000,
        "purchaseOption": "exchange"
    },
    {
        "id": 10033,
        "seq": 490,
        "billingShopItemType": "value_set",
        "name": "新春福袋2022 玉",
        "description": "新春福袋2022 玉セット",
        "billableLimitType": "count",
        "billableLimitValue": 2,
        "billableLimitResetIntervalType": "none",
        "assetbundleName": "shop_10033",
        "resourceBoxId": 75,
        "bonusResourceBoxId": 32,
        "startAt": 1640930400000,
        "endAt": 1641967199000,
        "purchaseOption": "exchange"
    },
    {
        "id": 10034,
        "seq": 480,
        "billingShopItemType": "value_set",
        "name": "新春福袋2022 雅",
        "description": "新春福袋2022 雅セット",
        "billableLimitType": "count",
        "billableLimitValue": 2,
        "billableLimitResetIntervalType": "none",
        "assetbundleName": "shop_10034",
        "resourceBoxId": 76,
        "bonusResourceBoxId": 33,
        "startAt": 1640930400000,
        "endAt": 1641967199000,
        "purchaseOption": "exchange"
    },
    {
        "id": 10035,
        "seq": 470,
        "billingShopItemType": "value_set",
        "name": "新春福袋2022 極",
        "description": "新春福袋2022 極セット",
        "billableLimitType": "count",
        "billableLimitValue": 2,
        "billableLimitResetIntervalType": "none",
        "assetbundleName": "shop_10035",
        "resourceBoxId": 77,
        "bonusResourceBoxId": 34,
        "startAt": 1640930400000,
        "endAt": 1641967199000,
        "purchaseOption": "exchange"
    },
    {
        "id": 10036,
        "seq": 120,
        "billingShopItemType": "costume_3d",
        "name": "「スイーツ」衣装全カラー",
        "description": "「スイーツ」衣装全カラーセット",
        "billableLimitType": "count",
        "billableLimitValue": 1,
        "billableLimitResetIntervalType": "none",
        "assetbundleName": "shop_10036",
        "resourceBoxId": 78,
        "label": "期間限定",
        "startAt": 1643641200000,
        "endAt": 1646060399000,
        "purchaseOption": "exchange"
    },
    {
        "id": 10037,
        "seq": 110,
        "billingShopItemType": "costume_3d",
        "name": "「スイーツ」衣装オリジナルカラー",
        "description": "「スイーツ」衣装オリジナルカラーセット",
        "billableLimitType": "count",
        "billableLimitValue": 1,
        "billableLimitResetIntervalType": "none",
        "assetbundleName": "shop_10037",
        "resourceBoxId": 79,
        "label": "期間限定",
        "startAt": 1643641200000,
        "endAt": 1646060399000,
        "purchaseOption": "exchange"
    },
    {
        "id": 10038,
        "seq": 100,
        "billingShopItemType": "costume_3d",
        "name": "「スイーツ」衣装アナザーカラー1",
        "description": "「スイーツ」衣装アナザーカラー1セット",
        "billableLimitType": "count",
        "billableLimitValue": 1,
        "billableLimitResetIntervalType": "none",
        "assetbundleName": "shop_10038",
        "resourceBoxId": 80,
        "label": "期間限定",
        "startAt": 1643641200000,
        "endAt": 1646060399000,
        "purchaseOption": "exchange"
    },
    {
        "id": 10039,
        "seq": 90,
        "billingShopItemType": "costume_3d",
        "name": "「スイーツ」衣装アナザーカラー2",
        "description": "「スイーツ」衣装アナザーカラー2セット",
        "billableLimitType": "count",
        "billableLimitValue": 1,
        "billableLimitResetIntervalType": "none",
        "assetbundleName": "shop_10039",
        "resourceBoxId": 81,
        "label": "期間限定",
        "startAt": 1643641200000,
        "endAt": 1646060399000,
        "purchaseOption": "exchange"
    },
    {
        "id": 10040,
        "seq": 80,
        "billingShopItemType": "costume_3d",
        "name": "「スイーツ」衣装アナザーカラー3",
        "description": "「スイーツ」衣装アナザーカラー3セット",
        "billableLimitType": "count",
        "billableLimitValue": 1,
        "billableLimitResetIntervalType": "none",
        "assetbundleName": "shop_10040",
        "resourceBoxId": 82,
        "label": "期間限定",
        "startAt": 1643641200000,
        "endAt": 1646060399000,
        "purchaseOption": "exchange"
    },
    {
        "id": 10041,
        "seq": 120,
        "billingShopItemType": "costume_3d",
        "name": "「近未来」衣装全カラー",
        "description": "「近未来」衣装全カラーセット",
        "billableLimitType": "count",
        "billableLimitValue": 1,
        "billableLimitResetIntervalType": "none",
        "assetbundleName": "shop_10041",
        "resourceBoxId": 83,
        "label": "期間限定",
        "startAt": 1646060400000,
        "endAt": 1648738799000,
        "purchaseOption": "exchange"
    },
    {
        "id": 10042,
        "seq": 110,
        "billingShopItemType": "costume_3d",
        "name": "「近未来」衣装オリジナルカラー",
        "description": "「近未来」衣装オリジナルカラーセット",
        "billableLimitType": "count",
        "billableLimitValue": 1,
        "billableLimitResetIntervalType": "none",
        "assetbundleName": "shop_10042",
        "resourceBoxId": 84,
        "label": "期間限定",
        "startAt": 1646060400000,
        "endAt": 1648738799000,
        "purchaseOption": "exchange"
    },
    {
        "id": 10043,
        "seq": 100,
        "billingShopItemType": "costume_3d",
        "name": "「近未来」衣装アナザーカラー1",
        "description": "「近未来」衣装アナザーカラー1セット",
        "billableLimitType": "count",
        "billableLimitValue": 1,
        "billableLimitResetIntervalType": "none",
        "assetbundleName": "shop_10043",
        "resourceBoxId": 85,
        "label": "期間限定",
        "startAt": 1646060400000,
        "endAt": 1648738799000,
        "purchaseOption": "exchange"
    },
    {
        "id": 10044,
        "seq": 90,
        "billingShopItemType": "costume_3d",
        "name": "「近未来」衣装アナザーカラー2",
        "description": "「近未来」衣装アナザーカラー2セット",
        "billableLimitType": "count",
        "billableLimitValue": 1,
        "billableLimitResetIntervalType": "none",
        "assetbundleName": "shop_10044",
        "resourceBoxId": 86,
        "label": "期間限定",
        "startAt": 1646060400000,
        "endAt": 1648738799000,
        "purchaseOption": "exchange"
    },
    {
        "id": 10045,
        "seq": 80,
        "billingShopItemType": "costume_3d",
        "name": "「近未来」衣装アナザーカラー3",
        "description": "「近未来」衣装アナザーカラー3セット",
        "billableLimitType": "count",
        "billableLimitValue": 1,
        "billableLimitResetIntervalType": "none",
        "assetbundleName": "shop_10045",
        "resourceBoxId": 87,
        "label": "期間限定",
        "startAt": 1646060400000,
        "endAt": 1648738799000,
        "purchaseOption": "exchange"
    },
    {
        "id": 10046,
        "seq": 120,
        "billingShopItemType": "costume_3d",
        "name": "「怪盗」衣装全カラー",
        "description": "「怪盗」衣装全カラーセット",
        "billableLimitType": "count",
        "billableLimitValue": 1,
        "billableLimitResetIntervalType": "none",
        "assetbundleName": "shop_10046",
        "resourceBoxId": 88,
        "label": "期間限定",
        "startAt": 1648738800000,
        "endAt": 1651330799000,
        "purchaseOption": "exchange"
    },
    {
        "id": 10047,
        "seq": 110,
        "billingShopItemType": "costume_3d",
        "name": "「怪盗」衣装オリジナルカラー",
        "description": "「怪盗」衣装オリジナルカラーセット",
        "billableLimitType": "count",
        "billableLimitValue": 1,
        "billableLimitResetIntervalType": "none",
        "assetbundleName": "shop_10047",
        "resourceBoxId": 89,
        "label": "期間限定",
        "startAt": 1648738800000,
        "endAt": 1651330799000,
        "purchaseOption": "exchange"
    },
    {
        "id": 10048,
        "seq": 100,
        "billingShopItemType": "costume_3d",
        "name": "「怪盗」衣装アナザーカラー1",
        "description": "「怪盗」衣装アナザーカラー1セット",
        "billableLimitType": "count",
        "billableLimitValue": 1,
        "billableLimitResetIntervalType": "none",
        "assetbundleName": "shop_10048",
        "resourceBoxId": 90,
        "label": "期間限定",
        "startAt": 1648738800000,
        "endAt": 1651330799000,
        "purchaseOption": "exchange"
    },
    {
        "id": 10049,
        "seq": 90,
        "billingShopItemType": "costume_3d",
        "name": "「怪盗」衣装アナザーカラー2",
        "description": "「怪盗」衣装アナザーカラー2セット",
        "billableLimitType": "count",
        "billableLimitValue": 1,
        "billableLimitResetIntervalType": "none",
        "assetbundleName": "shop_10049",
        "resourceBoxId": 91,
        "label": "期間限定",
        "startAt": 1648738800000,
        "endAt": 1651330799000,
        "purchaseOption": "exchange"
    },
    {
        "id": 10050,
        "seq": 80,
        "billingShopItemType": "costume_3d",
        "name": "「怪盗」衣装アナザーカラー3",
        "description": "「怪盗」衣装アナザーカラー3セット",
        "billableLimitType": "count",
        "billableLimitValue": 1,
        "billableLimitResetIntervalType": "none",
        "assetbundleName": "shop_10050",
        "resourceBoxId": 92,
        "label": "期間限定",
        "startAt": 1648738800000,
        "endAt": 1651330799000,
        "purchaseOption": "exchange"
    },
    {
        "id": 10051,
        "seq": 150,
        "billingShopItemType": "costume_3d",
        "name": "【再販売】ハミングバード（レディース）",
        "description": "【再販売】ハミングバード（レディース）セット",
        "billableLimitType": "count",
        "billableLimitValue": 1,
        "billableLimitResetIntervalType": "none",
        "assetbundleName": "shop_10051",
        "resourceBoxId": 93,
        "label": "期間限定",
        "startAt": 1648620000000,
        "endAt": 1649656799000,
        "purchaseOption": "exchange"
    },
    {
        "id": 10052,
        "seq": 140,
        "billingShopItemType": "costume_3d",
        "name": "【再販売】ハミングバード（メンズ）",
        "description": "【再販売】ハミングバード（メンズ）セット",
        "billableLimitType": "count",
        "billableLimitValue": 1,
        "billableLimitResetIntervalType": "none",
        "assetbundleName": "shop_10052",
        "resourceBoxId": 94,
        "label": "期間限定",
        "startAt": 1648620000000,
        "endAt": 1649656799000,
        "purchaseOption": "exchange"
    },
    {
        "id": 10053,
        "seq": 300,
        "billingShopItemType": "value_set",
        "name": "1.5周年記念セット ベーシック",
        "description": "1.5周年記念セット ベーシックセット",
        "billableLimitType": "count",
        "billableLimitValue": 1,
        "billableLimitResetIntervalType": "none",
        "assetbundleName": "shop_10053",
        "resourceBoxId": 95,
        "bonusResourceBoxId": 35,
        "label": "期間限定",
        "startAt": 1648620000000,
        "endAt": 1649656799000,
        "purchaseOption": "exchange"
    },
    {
        "id": 10054,
        "seq": 290,
        "billingShopItemType": "value_set",
        "name": "1.5周年記念セット スタンダード",
        "description": "1.5周年記念セット スタンダードセット",
        "billableLimitType": "count",
        "billableLimitValue": 1,
        "billableLimitResetIntervalType": "none",
        "assetbundleName": "shop_10054",
        "resourceBoxId": 96,
        "bonusResourceBoxId": 36,
        "label": "期間限定",
        "startAt": 1648620000000,
        "endAt": 1649656799000,
        "purchaseOption": "exchange"
    },
    {
        "id": 10055,
        "seq": 280,
        "billingShopItemType": "value_set",
        "name": "1.5周年記念セット デラックス",
        "description": "1.5周年記念セット デラックスセット",
        "billableLimitType": "count",
        "billableLimitValue": 1,
        "billableLimitResetIntervalType": "none",
        "assetbundleName": "shop_10055",
        "resourceBoxId": 97,
        "bonusResourceBoxId": 37,
        "label": "期間限定",
        "startAt": 1648620000000,
        "endAt": 1649656799000,
        "purchaseOption": "exchange"
    },
    {
        "id": 10056,
        "seq": 270,
        "billingShopItemType": "value_set",
        "name": "1.5周年記念セット プレミアム",
        "description": "1.5周年記念セット プレミアムセット",
        "billableLimitType": "count",
        "billableLimitValue": 1,
        "billableLimitResetIntervalType": "none",
        "assetbundleName": "shop_10056",
        "resourceBoxId": 98,
        "bonusResourceBoxId": 38,
        "label": "期間限定",
        "startAt": 1648620000000,
        "endAt": 1649656799000,
        "purchaseOption": "exchange"
    },
    {
        "id": 10057,
        "seq": 120,
        "billingShopItemType": "costume_3d",
        "name": "「魔法」衣装全カラー",
        "description": "「魔法」衣装全カラーセット",
        "billableLimitType": "count",
        "billableLimitValue": 1,
        "billableLimitResetIntervalType": "none",
        "assetbundleName": "shop_10057",
        "resourceBoxId": 99,
        "label": "期間限定",
        "startAt": 1651330800000,
        "endAt": 1654009199000,
        "purchaseOption": "exchange"
    },
    {
        "id": 10058,
        "seq": 110,
        "billingShopItemType": "costume_3d",
        "name": "「魔法」衣装オリジナルカラー",
        "description": "「魔法」衣装オリジナルカラーセット",
        "billableLimitType": "count",
        "billableLimitValue": 1,
        "billableLimitResetIntervalType": "none",
        "assetbundleName": "shop_10058",
        "resourceBoxId": 100,
        "label": "期間限定",
        "startAt": 1651330800000,
        "endAt": 1654009199000,
        "purchaseOption": "exchange"
    },
    {
        "id": 10059,
        "seq": 100,
        "billingShopItemType": "costume_3d",
        "name": "「魔法」衣装アナザーカラー1",
        "description": "「魔法」衣装アナザーカラー1セット",
        "billableLimitType": "count",
        "billableLimitValue": 1,
        "billableLimitResetIntervalType": "none",
        "assetbundleName": "shop_10059",
        "resourceBoxId": 101,
        "label": "期間限定",
        "startAt": 1651330800000,
        "endAt": 1654009199000,
        "purchaseOption": "exchange"
    },
    {
        "id": 10060,
        "seq": 90,
        "billingShopItemType": "costume_3d",
        "name": "「魔法」衣装アナザーカラー2",
        "description": "「魔法」衣装アナザーカラー2セット",
        "billableLimitType": "count",
        "billableLimitValue": 1,
        "billableLimitResetIntervalType": "none",
        "assetbundleName": "shop_10060",
        "resourceBoxId": 102,
        "label": "期間限定",
        "startAt": 1651330800000,
        "endAt": 1654009199000,
        "purchaseOption": "exchange"
    },
    {
        "id": 10061,
        "seq": 80,
        "billingShopItemType": "costume_3d",
        "name": "「魔法」衣装アナザーカラー3",
        "description": "「魔法」衣装アナザーカラー3セット",
        "billableLimitType": "count",
        "billableLimitValue": 1,
        "billableLimitResetIntervalType": "none",
        "assetbundleName": "shop_10061",
        "resourceBoxId": 103,
        "label": "期間限定",
        "startAt": 1651330800000,
        "endAt": 1654009199000,
        "purchaseOption": "exchange"
    },
    {
        "id": 10062,
        "seq": 120,
        "billingShopItemType": "costume_3d",
        "name": "「レストラン」衣装全カラー",
        "description": "「レストラン」衣装全カラーセット",
        "billableLimitType": "count",
        "billableLimitValue": 1,
        "billableLimitResetIntervalType": "none",
        "assetbundleName": "shop_10072",
        "resourceBoxId": 104,
        "label": "期間限定",
        "startAt": 1654009200000,
        "endAt": 1656601199000,
        "purchaseOption": "exchange"
    },
    {
        "id": 10063,
        "seq": 110,
        "billingShopItemType": "costume_3d",
        "name": "「レストラン」衣装オリジナルカラー",
        "description": "「レストラン」衣装オリジナルカラーセット",
        "billableLimitType": "count",
        "billableLimitValue": 1,
        "billableLimitResetIntervalType": "none",
        "assetbundleName": "shop_10073",
        "resourceBoxId": 105,
        "label": "期間限定",
        "startAt": 1654009200000,
        "endAt": 1656601199000,
        "purchaseOption": "exchange"
    },
    {
        "id": 10064,
        "seq": 100,
        "billingShopItemType": "costume_3d",
        "name": "「レストラン」衣装アナザーカラー1",
        "description": "「レストラン」衣装アナザーカラー1セット",
        "billableLimitType": "count",
        "billableLimitValue": 1,
        "billableLimitResetIntervalType": "none",
        "assetbundleName": "shop_10074",
        "resourceBoxId": 106,
        "label": "期間限定",
        "startAt": 1654009200000,
        "endAt": 1656601199000,
        "purchaseOption": "exchange"
    },
    {
        "id": 10065,
        "seq": 90,
        "billingShopItemType": "costume_3d",
        "name": "「レストラン」衣装アナザーカラー2",
        "description": "「レストラン」衣装アナザーカラー2セット",
        "billableLimitType": "count",
        "billableLimitValue": 1,
        "billableLimitResetIntervalType": "none",
        "assetbundleName": "shop_10075",
        "resourceBoxId": 107,
        "label": "期間限定",
        "startAt": 1654009200000,
        "endAt": 1656601199000,
        "purchaseOption": "exchange"
    },
    {
        "id": 10066,
        "seq": 80,
        "billingShopItemType": "costume_3d",
        "name": "「レストラン」衣装アナザーカラー3",
        "description": "「レストラン」衣装アナザーカラー3セット",
        "billableLimitType": "count",
        "billableLimitValue": 1,
        "billableLimitResetIntervalType": "none",
        "assetbundleName": "shop_10076",
        "resourceBoxId": 108,
        "label": "期間限定",
        "startAt": 1654009200000,
        "endAt": 1656601199000,
        "purchaseOption": "exchange"
    },
    {
        "id": 10067,
        "seq": 120,
        "billingShopItemType": "costume_3d",
        "name": "「海賊」衣装全カラー",
        "description": "「海賊」衣装全カラーセット",
        "billableLimitType": "count",
        "billableLimitValue": 1,
        "billableLimitResetIntervalType": "none",
        "assetbundleName": "shop_10077",
        "resourceBoxId": 109,
        "label": "期間限定",
        "startAt": 1656601200000,
        "endAt": 1659279599000,
        "purchaseOption": "exchange"
    },
    {
        "id": 10068,
        "seq": 110,
        "billingShopItemType": "costume_3d",
        "name": "「海賊」衣装オリジナルカラー",
        "description": "「海賊」衣装オリジナルカラーセット",
        "billableLimitType": "count",
        "billableLimitValue": 1,
        "billableLimitResetIntervalType": "none",
        "assetbundleName": "shop_10078",
        "resourceBoxId": 110,
        "label": "期間限定",
        "startAt": 1656601200000,
        "endAt": 1659279599000,
        "purchaseOption": "exchange"
    },
    {
        "id": 10069,
        "seq": 100,
        "billingShopItemType": "costume_3d",
        "name": "「海賊」衣装アナザーカラー1",
        "description": "「海賊」衣装アナザーカラー1セット",
        "billableLimitType": "count",
        "billableLimitValue": 1,
        "billableLimitResetIntervalType": "none",
        "assetbundleName": "shop_10079",
        "resourceBoxId": 111,
        "label": "期間限定",
        "startAt": 1656601200000,
        "endAt": 1659279599000,
        "purchaseOption": "exchange"
    },
    {
        "id": 10070,
        "seq": 90,
        "billingShopItemType": "costume_3d",
        "name": "「海賊」衣装アナザーカラー2",
        "description": "「海賊」衣装アナザーカラー2セット",
        "billableLimitType": "count",
        "billableLimitValue": 1,
        "billableLimitResetIntervalType": "none",
        "assetbundleName": "shop_10080",
        "resourceBoxId": 112,
        "label": "期間限定",
        "startAt": 1656601200000,
        "endAt": 1659279599000,
        "purchaseOption": "exchange"
    },
    {
        "id": 10071,
        "seq": 80,
        "billingShopItemType": "costume_3d",
        "name": "「海賊」衣装アナザーカラー3",
        "description": "「海賊」衣装アナザーカラー3セット",
        "billableLimitType": "count",
        "billableLimitValue": 1,
        "billableLimitResetIntervalType": "none",
        "assetbundleName": "shop_10081",
        "resourceBoxId": 113,
        "label": "期間限定",
        "startAt": 1656601200000,
        "endAt": 1659279599000,
        "purchaseOption": "exchange"
    },
    {
        "id": 10072,
        "seq": 120,
        "billingShopItemType": "costume_3d",
        "name": "「アニマル」衣装全カラー",
        "description": "「アニマル」衣装全カラーセット",
        "billableLimitType": "count",
        "billableLimitValue": 1,
        "billableLimitResetIntervalType": "none",
        "assetbundleName": "shop_10082",
        "resourceBoxId": 114,
        "label": "期間限定",
        "startAt": 1659279600000,
        "endAt": 1661957999000,
        "purchaseOption": "exchange"
    },
    {
        "id": 10073,
        "seq": 110,
        "billingShopItemType": "costume_3d",
        "name": "「アニマル」衣装オリジナルカラー",
        "description": "「アニマル」衣装オリジナルカラーセット",
        "billableLimitType": "count",
        "billableLimitValue": 1,
        "billableLimitResetIntervalType": "none",
        "assetbundleName": "shop_10083",
        "resourceBoxId": 115,
        "label": "期間限定",
        "startAt": 1659279600000,
        "endAt": 1661957999000,
        "purchaseOption": "exchange"
    },
    {
        "id": 10074,
        "seq": 100,
        "billingShopItemType": "costume_3d",
        "name": "「アニマル」衣装アナザーカラー1",
        "description": "「アニマル」衣装アナザーカラー1セット",
        "billableLimitType": "count",
        "billableLimitValue": 1,
        "billableLimitResetIntervalType": "none",
        "assetbundleName": "shop_10084",
        "resourceBoxId": 116,
        "label": "期間限定",
        "startAt": 1659279600000,
        "endAt": 1661957999000,
        "purchaseOption": "exchange"
    },
    {
        "id": 10075,
        "seq": 90,
        "billingShopItemType": "costume_3d",
        "name": "「アニマル」衣装アナザーカラー2",
        "description": "「アニマル」衣装アナザーカラー2セット",
        "billableLimitType": "count",
        "billableLimitValue": 1,
        "billableLimitResetIntervalType": "none",
        "assetbundleName": "shop_10085",
        "resourceBoxId": 117,
        "label": "期間限定",
        "startAt": 1659279600000,
        "endAt": 1661957999000,
        "purchaseOption": "exchange"
    },
    {
        "id": 10076,
        "seq": 80,
        "billingShopItemType": "costume_3d",
        "name": "「アニマル」衣装アナザーカラー3",
        "description": "「アニマル」衣装アナザーカラー3セット",
        "billableLimitType": "count",
        "billableLimitValue": 1,
        "billableLimitResetIntervalType": "none",
        "assetbundleName": "shop_10086",
        "resourceBoxId": 118,
        "label": "期間限定",
        "startAt": 1659279600000,
        "endAt": 1661957999000,
        "purchaseOption": "exchange"
    },
    {
        "id": 10087,
        "seq": 120,
        "billingShopItemType": "costume_3d",
        "name": "「パジャマ」衣装全カラー",
        "description": "「パジャマ」衣装全カラーセット",
        "billableLimitType": "count",
        "billableLimitValue": 1,
        "billableLimitResetIntervalType": "none",
        "assetbundleName": "shop_10087",
        "resourceBoxId": 119,
        "label": "期間限定",
        "startAt": 1661958000000,
        "endAt": 1664549999000,
        "purchaseOption": "exchange"
    },
    {
        "id": 10088,
        "seq": 110,
        "billingShopItemType": "costume_3d",
        "name": "「パジャマ」衣装オリジナルカラー",
        "description": "「パジャマ」衣装オリジナルカラーセット",
        "billableLimitType": "count",
        "billableLimitValue": 1,
        "billableLimitResetIntervalType": "none",
        "assetbundleName": "shop_10088",
        "resourceBoxId": 120,
        "label": "期間限定",
        "startAt": 1661958000000,
        "endAt": 1664549999000,
        "purchaseOption": "exchange"
    },
    {
        "id": 10089,
        "seq": 100,
        "billingShopItemType": "costume_3d",
        "name": "「パジャマ」衣装アナザーカラー1",
        "description": "「パジャマ」衣装アナザーカラー1セット",
        "billableLimitType": "count",
        "billableLimitValue": 1,
        "billableLimitResetIntervalType": "none",
        "assetbundleName": "shop_10089",
        "resourceBoxId": 121,
        "label": "期間限定",
        "startAt": 1661958000000,
        "endAt": 1664549999000,
        "purchaseOption": "exchange"
    },
    {
        "id": 10090,
        "seq": 90,
        "billingShopItemType": "costume_3d",
        "name": "「パジャマ」衣装アナザーカラー2",
        "description": "「パジャマ」衣装アナザーカラー2セット",
        "billableLimitType": "count",
        "billableLimitValue": 1,
        "billableLimitResetIntervalType": "none",
        "assetbundleName": "shop_10090",
        "resourceBoxId": 122,
        "label": "期間限定",
        "startAt": 1661958000000,
        "endAt": 1664549999000,
        "purchaseOption": "exchange"
    },
    {
        "id": 10091,
        "seq": 80,
        "billingShopItemType": "costume_3d",
        "name": "「パジャマ」衣装アナザーカラー3",
        "description": "「パジャマ」衣装アナザーカラー3セット",
        "billableLimitType": "count",
        "billableLimitValue": 1,
        "billableLimitResetIntervalType": "none",
        "assetbundleName": "shop_10091",
        "resourceBoxId": 123,
        "label": "期間限定",
        "startAt": 1661958000000,
        "endAt": 1664549999000,
        "purchaseOption": "exchange"
    },
    {
        "id": 10092,
        "seq": 200040,
        "billingShopItemType": "costume_3d",
        "name": "「ゴースト」衣装全カラー",
        "description": "「ゴースト」衣装全カラーセット",
        "billableLimitType": "count",
        "billableLimitValue": 1,
        "billableLimitResetIntervalType": "none",
        "assetbundleName": "shop_10092",
        "resourceBoxId": 124,
        "label": "期間限定",
        "startAt": 1664550000000,
        "endAt": 1667228399000,
        "purchaseOption": "exchange"
    },
    {
        "id": 10093,
        "seq": 200030,
        "billingShopItemType": "costume_3d",
        "name": "「ゴースト」衣装オリジナルカラー",
        "description": "「ゴースト」衣装オリジナルカラーセット",
        "billableLimitType": "count",
        "billableLimitValue": 1,
        "billableLimitResetIntervalType": "none",
        "assetbundleName": "shop_10093",
        "resourceBoxId": 125,
        "label": "期間限定",
        "startAt": 1664550000000,
        "endAt": 1667228399000,
        "purchaseOption": "exchange"
    },
    {
        "id": 10094,
        "seq": 200020,
        "billingShopItemType": "costume_3d",
        "name": "「ゴースト」衣装アナザーカラー1",
        "description": "「ゴースト」衣装アナザーカラー1セット",
        "billableLimitType": "count",
        "billableLimitValue": 1,
        "billableLimitResetIntervalType": "none",
        "assetbundleName": "shop_10094",
        "resourceBoxId": 126,
        "label": "期間限定",
        "startAt": 1664550000000,
        "endAt": 1667228399000,
        "purchaseOption": "exchange"
    },
    {
        "id": 10095,
        "seq": 200010,
        "billingShopItemType": "costume_3d",
        "name": "「ゴースト」衣装アナザーカラー2",
        "description": "「ゴースト」衣装アナザーカラー2セット",
        "billableLimitType": "count",
        "billableLimitValue": 1,
        "billableLimitResetIntervalType": "none",
        "assetbundleName": "shop_10095",
        "resourceBoxId": 127,
        "label": "期間限定",
        "startAt": 1664550000000,
        "endAt": 1667228399000,
        "purchaseOption": "exchange"
    },
    {
        "id": 10096,
        "seq": 200000,
        "billingShopItemType": "costume_3d",
        "name": "「ゴースト」衣装アナザーカラー3",
        "description": "「ゴースト」衣装アナザーカラー3セット",
        "billableLimitType": "count",
        "billableLimitValue": 1,
        "billableLimitResetIntervalType": "none",
        "assetbundleName": "shop_10096",
        "resourceBoxId": 128,
        "label": "期間限定",
        "startAt": 1664550000000,
        "endAt": 1667228399000,
        "purchaseOption": "exchange"
    },
    {
        "id": 10097,
        "seq": 90,
        "billingShopItemType": "value_set",
        "name": "バラエティセカイセット",
        "description": "バラエティセカイセット",
        "billableLimitType": "count",
        "billableLimitValue": 1,
        "billableLimitResetIntervalType": "none",
        "assetbundleName": "shop_10097",
        "resourceBoxId": 129,
        "bonusResourceBoxId": 40,
        "startAt": 1664463600000,
        "purchaseOption": "exchange"
    },
    {
        "id": 10098,
        "seq": 290,
        "billingShopItemType": "value_set",
        "name": "2周年記念セット スタンダード",
        "description": "2周年記念セット スタンダードセット",
        "billableLimitType": "count",
        "billableLimitValue": 1,
        "billableLimitResetIntervalType": "none",
        "assetbundleName": "shop_10098",
        "resourceBoxId": 130,
        "bonusResourceBoxId": 41,
        "label": "期間中1回限定",
        "startAt": 1664463600000,
        "endAt": 1665543599000,
        "purchaseOption": "exchange"
    },
    {
        "id": 10099,
        "seq": 280,
        "billingShopItemType": "value_set",
        "name": "2周年記念セット デラックス",
        "description": "2周年記念セット デラックスセット",
        "billableLimitType": "count",
        "billableLimitValue": 1,
        "billableLimitResetIntervalType": "none",
        "assetbundleName": "shop_10099",
        "resourceBoxId": 131,
        "bonusResourceBoxId": 42,
        "label": "期間中1回限定",
        "startAt": 1664463600000,
        "endAt": 1665543599000,
        "purchaseOption": "exchange"
    },
    {
        "id": 10100,
        "seq": 270,
        "billingShopItemType": "value_set",
        "name": "2周年記念セット プレミアム",
        "description": "2周年記念セット プレミアムセット",
        "billableLimitType": "count",
        "billableLimitValue": 1,
        "billableLimitResetIntervalType": "none",
        "assetbundleName": "shop_10100",
        "resourceBoxId": 132,
        "bonusResourceBoxId": 43,
        "label": "期間中1回限定",
        "startAt": 1664463600000,
        "endAt": 1665543599000,
        "purchaseOption": "exchange"
    },
    {
        "id": 10101,
        "seq": 100000,
        "billingShopItemType": "costume_3d",
        "name": "「サブカルボーイスタイル」衣装全カラー",
        "description": "「サブカルボーイスタイル」衣装全カラーセット",
        "billableLimitType": "count",
        "billableLimitValue": 1,
        "billableLimitResetIntervalType": "none",
        "assetbundleName": "shop_10006",
        "resourceBoxId": 48,
        "startAt": 1664463600000,
        "purchaseOption": "exchange"
    },
    {
        "id": 10102,
        "seq": 100010,
        "billingShopItemType": "costume_3d",
        "name": "「2020クリスマス」衣装全カラー",
        "description": "「2020クリスマス」衣装全カラーセット",
        "billableLimitType": "count",
        "billableLimitValue": 1,
        "billableLimitResetIntervalType": "none",
        "assetbundleName": "shop_10102",
        "resourceBoxId": 136,
        "startAt": 1664463600000,
        "purchaseOption": "exchange"
    },
    {
        "id": 10103,
        "seq": 100020,
        "billingShopItemType": "costume_3d",
        "name": "「2021お正月」衣装全カラー",
        "description": "「2021お正月」衣装全カラーセット",
        "billableLimitType": "count",
        "billableLimitValue": 1,
        "billableLimitResetIntervalType": "none",
        "assetbundleName": "shop_10103",
        "resourceBoxId": 137,
        "startAt": 1664463600000,
        "purchaseOption": "exchange"
    },
    {
        "id": 10104,
        "seq": 100030,
        "billingShopItemType": "costume_3d",
        "name": "「2021ハロウィン」衣装全カラー",
        "description": "「2021ハロウィン」衣装全カラーセット",
        "billableLimitType": "count",
        "billableLimitValue": 1,
        "billableLimitResetIntervalType": "none",
        "assetbundleName": "shop_10104",
        "resourceBoxId": 138,
        "startAt": 1664463600000,
        "purchaseOption": "exchange"
    },
    {
        "id": 10105,
        "seq": 100040,
        "billingShopItemType": "costume_3d",
        "name": "「ハーフアニバーサリー」衣装全カラー",
        "description": "「ハーフアニバーサリー」衣装全カラーセット",
        "billableLimitType": "count",
        "billableLimitValue": 1,
        "billableLimitResetIntervalType": "none",
        "assetbundleName": "shop_10105",
        "resourceBoxId": 139,
        "startAt": 1664463600000,
        "purchaseOption": "exchange"
    },
    {
        "id": 10106,
        "seq": 300100,
        "billingShopItemType": "costume_3d",
        "name": "「1周年」衣装全カラー",
        "description": "「1周年」衣装全カラーセット",
        "billableLimitType": "count",
        "billableLimitValue": 1,
        "billableLimitResetIntervalType": "none",
        "assetbundleName": "shop_10106",
        "resourceBoxId": 140,
        "startAt": 1664463600000,
        "purchaseOption": "exchange"
    },
    {
        "id": 10107,
        "seq": 300090,
        "billingShopItemType": "costume_3d",
        "name": "「1周年Leo/need」衣装全カラー",
        "description": "「1周年Leo/need」衣装全カラーセット",
        "billableLimitType": "count",
        "billableLimitValue": 1,
        "billableLimitResetIntervalType": "none",
        "assetbundleName": "shop_10107",
        "resourceBoxId": 141,
        "startAt": 1664463600000,
        "purchaseOption": "exchange"
    },
    {
        "id": 10108,
        "seq": 300080,
        "billingShopItemType": "costume_3d",
        "name": "「1周年MORE MORE JUMP！」衣装全カラー",
        "description": "「1周年MORE MORE JUMP！」衣装全カラーセット",
        "billableLimitType": "count",
        "billableLimitValue": 1,
        "billableLimitResetIntervalType": "none",
        "assetbundleName": "shop_10108",
        "resourceBoxId": 142,
        "startAt": 1664463600000,
        "purchaseOption": "exchange"
    },
    {
        "id": 10109,
        "seq": 300070,
        "billingShopItemType": "costume_3d",
        "name": "「1周年Vivid BAD SQUAD」衣装全カラー",
        "description": "「1周年Vivid BAD SQUAD」衣装全カラーセット",
        "billableLimitType": "count",
        "billableLimitValue": 1,
        "billableLimitResetIntervalType": "none",
        "assetbundleName": "shop_10109",
        "resourceBoxId": 143,
        "startAt": 1664463600000,
        "purchaseOption": "exchange"
    },
    {
        "id": 10110,
        "seq": 300060,
        "billingShopItemType": "costume_3d",
        "name": "｢1周年ワンダーランズ×ショウタイム｣衣装全カラー",
        "description": "｢1周年ワンダーランズ×ショウタイム｣衣装全カラーセット",
        "billableLimitType": "count",
        "billableLimitValue": 1,
        "billableLimitResetIntervalType": "none",
        "assetbundleName": "shop_10110",
        "resourceBoxId": 144,
        "startAt": 1664463600000,
        "purchaseOption": "exchange"
    },
    {
        "id": 10111,
        "seq": 300050,
        "billingShopItemType": "costume_3d",
        "name": "「1周年25時、ナイトコードで。」衣装全カラー",
        "description": "「1周年25時、ナイトコードで。」衣装全カラーセット",
        "billableLimitType": "count",
        "billableLimitValue": 1,
        "billableLimitResetIntervalType": "none",
        "assetbundleName": "shop_10111",
        "resourceBoxId": 145,
        "startAt": 1664463600000,
        "purchaseOption": "exchange"
    },
    {
        "id": 10112,
        "seq": 300120,
        "billingShopItemType": "costume_3d",
        "name": "2022ハロウィン衣装セットA",
        "description": "2022ハロウィン衣装セットAセット",
        "billableLimitType": "count",
        "billableLimitValue": 1,
        "billableLimitResetIntervalType": "none",
        "assetbundleName": "shop_10112",
        "resourceBoxId": 155,
        "label": "期間限定",
        "startAt": 1667023200000,
        "endAt": 1667282399000,
        "purchaseOption": "exchange"
    },
    {
        "id": 10113,
        "seq": 300110,
        "billingShopItemType": "costume_3d",
        "name": "2022ハロウィン衣装セットB",
        "description": "2022ハロウィン衣装セットBセット",
        "billableLimitType": "count",
        "billableLimitValue": 1,
        "billableLimitResetIntervalType": "none",
        "assetbundleName": "shop_10113",
        "resourceBoxId": 156,
        "label": "期間限定",
        "startAt": 1667023200000,
        "endAt": 1667282399000,
        "purchaseOption": "exchange"
    },
    {
        "id": 10114,
        "seq": 300180,
        "billingShopItemType": "costume_3d",
        "name": "「ゴシック」衣装全カラー",
        "description": "「ゴシック」衣装全カラーセット",
        "billableLimitType": "count",
        "billableLimitValue": 1,
        "billableLimitResetIntervalType": "none",
        "assetbundleName": "shop_10114",
        "resourceBoxId": 157,
        "label": "期間限定",
        "startAt": 1667228400000,
        "endAt": 1669820399000,
        "purchaseOption": "exchange"
    },
    {
        "id": 10115,
        "seq": 300170,
        "billingShopItemType": "costume_3d",
        "name": "「ゴシック」衣装オリジナルカラー",
        "description": "「ゴシック」衣装オリジナルカラーセット",
        "billableLimitType": "count",
        "billableLimitValue": 1,
        "billableLimitResetIntervalType": "none",
        "assetbundleName": "shop_10115",
        "resourceBoxId": 158,
        "label": "期間限定",
        "startAt": 1667228400000,
        "endAt": 1669820399000,
        "purchaseOption": "exchange"
    },
    {
        "id": 10116,
        "seq": 300160,
        "billingShopItemType": "costume_3d",
        "name": "「ゴシック」衣装アナザーカラー1",
        "description": "「ゴシック」衣装アナザーカラー1セット",
        "billableLimitType": "count",
        "billableLimitValue": 1,
        "billableLimitResetIntervalType": "none",
        "assetbundleName": "shop_10116",
        "resourceBoxId": 159,
        "label": "期間限定",
        "startAt": 1667228400000,
        "endAt": 1669820399000,
        "purchaseOption": "exchange"
    },
    {
        "id": 10117,
        "seq": 300150,
        "billingShopItemType": "costume_3d",
        "name": "「ゴシック」衣装アナザーカラー2",
        "description": "「ゴシック」衣装アナザーカラー2セット",
        "billableLimitType": "count",
        "billableLimitValue": 1,
        "billableLimitResetIntervalType": "none",
        "assetbundleName": "shop_10117",
        "resourceBoxId": 160,
        "label": "期間限定",
        "startAt": 1667228400000,
        "endAt": 1669820399000,
        "purchaseOption": "exchange"
    },
    {
        "id": 10118,
        "seq": 300140,
        "billingShopItemType": "costume_3d",
        "name": "「ゴシック」衣装アナザーカラー3",
        "description": "「ゴシック」衣装アナザーカラー3セット",
        "billableLimitType": "count",
        "billableLimitValue": 1,
        "billableLimitResetIntervalType": "none",
        "assetbundleName": "shop_10118",
        "resourceBoxId": 161,
        "label": "期間限定",
        "startAt": 1667228400000,
        "endAt": 1669820399000,
        "purchaseOption": "exchange"
    },
    {
        "id": 10119,
        "seq": 300130,
        "billingShopItemType": "costume_3d",
        "name": "「もこもこスノーコート」衣装 全カラー",
        "description": "「もこもこスノーコート」衣装 全カラーセット",
        "billableLimitType": "count",
        "billableLimitValue": 1,
        "billableLimitResetIntervalType": "none",
        "assetbundleName": "shop_10013",
        "resourceBoxId": 55,
        "startAt": 1667228400000,
        "purchaseOption": "exchange"
    },
    {
        "id": 10120,
        "seq": 300240,
        "billingShopItemType": "costume_3d",
        "name": "「チェック柄」衣装全カラー",
        "description": "「チェック柄」衣装全カラーセット",
        "billableLimitType": "count",
        "billableLimitValue": 1,
        "billableLimitResetIntervalType": "none",
        "assetbundleName": "shop_10120",
        "resourceBoxId": 162,
        "label": "期間限定",
        "startAt": 1669820400000,
        "endAt": 1672498799000,
        "purchaseOption": "exchange"
    },
    {
        "id": 10121,
        "seq": 300230,
        "billingShopItemType": "costume_3d",
        "name": "「チェック柄」衣装オリジナルカラー",
        "description": "「チェック柄」衣装オリジナルカラーセット",
        "billableLimitType": "count",
        "billableLimitValue": 1,
        "billableLimitResetIntervalType": "none",
        "assetbundleName": "shop_10121",
        "resourceBoxId": 163,
        "label": "期間限定",
        "startAt": 1669820400000,
        "endAt": 1672498799000,
        "purchaseOption": "exchange"
    },
    {
        "id": 10122,
        "seq": 300220,
        "billingShopItemType": "costume_3d",
        "name": "「チェック柄」衣装アナザーカラー1",
        "description": "「チェック柄」衣装アナザーカラー1セット",
        "billableLimitType": "count",
        "billableLimitValue": 1,
        "billableLimitResetIntervalType": "none",
        "assetbundleName": "shop_10122",
        "resourceBoxId": 164,
        "label": "期間限定",
        "startAt": 1669820400000,
        "endAt": 1672498799000,
        "purchaseOption": "exchange"
    },
    {
        "id": 10123,
        "seq": 300210,
        "billingShopItemType": "costume_3d",
        "name": "「チェック柄」衣装アナザーカラー2",
        "description": "「チェック柄」衣装アナザーカラー2セット",
        "billableLimitType": "count",
        "billableLimitValue": 1,
        "billableLimitResetIntervalType": "none",
        "assetbundleName": "shop_10123",
        "resourceBoxId": 165,
        "label": "期間限定",
        "startAt": 1669820400000,
        "endAt": 1672498799000,
        "purchaseOption": "exchange"
    },
    {
        "id": 10124,
        "seq": 300200,
        "billingShopItemType": "costume_3d",
        "name": "「チェック柄」衣装アナザーカラー3",
        "description": "「チェック柄」衣装アナザーカラー3セット",
        "billableLimitType": "count",
        "billableLimitValue": 1,
        "billableLimitResetIntervalType": "none",
        "assetbundleName": "shop_10124",
        "resourceBoxId": 166,
        "label": "期間限定",
        "startAt": 1669820400000,
        "endAt": 1672498799000,
        "purchaseOption": "exchange"
    },
    {
        "id": 10125,
        "seq": 300190,
        "billingShopItemType": "costume_3d",
        "name": "「メイド・バトラー」衣装 全カラー",
        "description": "「メイド・バトラー」衣装 全カラーセット",
        "billableLimitType": "count",
        "billableLimitValue": 1,
        "billableLimitResetIntervalType": "none",
        "assetbundleName": "shop_10018",
        "resourceBoxId": 60,
        "startAt": 1669820400000,
        "purchaseOption": "exchange"
    }
]