[
    {
        "id": 1,
        "characterType": "game_character",
        "characterId": 1,
        "unit": "light_sound",
        "assetName": "01ichika"
    },
    {
        "id": 2,
        "characterType": "game_character",
        "characterId": 2,
        "unit": "light_sound",
        "assetName": "02saki"
    },
    {
        "id": 3,
        "characterType": "game_character",
        "characterId": 3,
        "unit": "light_sound",
        "assetName": "03honami"
    },
    {
        "id": 4,
        "characterType": "game_character",
        "characterId": 4,
        "unit": "light_sound",
        "assetName": "04shiho"
    },
    {
        "id": 5,
        "characterType": "game_character",
        "characterId": 5,
        "unit": "idol",
        "assetName": "05minori"
    },
    {
        "id": 6,
        "characterType": "game_character",
        "characterId": 6,
        "unit": "idol",
        "assetName": "06haruka"
    },
    {
        "id": 7,
        "characterType": "game_character",
        "characterId": 7,
        "unit": "idol",
        "assetName": "07airi"
    },
    {
        "id": 8,
        "characterType": "game_character",
        "characterId": 8,
        "unit": "idol",
        "assetName": "08shizuku"
    },
    {
        "id": 9,
        "characterType": "game_character",
        "characterId": 9,
        "unit": "street",
        "assetName": "09kohane"
    },
    {
        "id": 10,
        "characterType": "game_character",
        "characterId": 10,
        "unit": "street",
        "assetName": "10an"
    },
    {
        "id": 11,
        "characterType": "game_character",
        "characterId": 11,
        "unit": "street",
        "assetName": "11akito"
    },
    {
        "id": 12,
        "characterType": "game_character",
        "characterId": 12,
        "unit": "street",
        "assetName": "12touya"
    },
    {
        "id": 13,
        "characterType": "game_character",
        "characterId": 13,
        "unit": "theme_park",
        "assetName": "13tsukasa"
    },
    {
        "id": 14,
        "characterType": "game_character",
        "characterId": 14,
        "unit": "theme_park",
        "assetName": "14emu"
    },
    {
        "id": 15,
        "characterType": "game_character",
        "characterId": 15,
        "unit": "theme_park",
        "assetName": "15nene"
    },
    {
        "id": 16,
        "characterType": "game_character",
        "characterId": 16,
        "unit": "theme_park",
        "assetName": "16rui"
    },
    {
        "id": 17,
        "characterType": "game_character",
        "characterId": 17,
        "unit": "school_refusal",
        "assetName": "17kanade"
    },
    {
        "id": 18,
        "characterType": "game_character",
        "characterId": 18,
        "unit": "school_refusal",
        "assetName": "18mafuyu"
    },
    {
        "id": 19,
        "characterType": "game_character",
        "characterId": 19,
        "unit": "school_refusal",
        "assetName": "19ena"
    },
    {
        "id": 20,
        "characterType": "game_character",
        "characterId": 20,
        "unit": "school_refusal",
        "assetName": "20mizuki"
    },
    {
        "id": 21,
        "characterType": "game_character",
        "characterId": 21,
        "unit": "piapro",
        "assetName": "21miku"
    },
    {
        "id": 22,
        "characterType": "game_character",
        "characterId": 21,
        "unit": "light_sound",
        "assetName": "21miku"
    },
    {
        "id": 23,
        "characterType": "game_character",
        "characterId": 21,
        "unit": "street",
        "assetName": "21miku"
    },
    {
        "id": 24,
        "characterType": "game_character",
        "characterId": 21,
        "unit": "theme_park",
        "assetName": "21miku"
    },
    {
        "id": 25,
        "characterType": "game_character",
        "characterId": 21,
        "unit": "idol",
        "assetName": "21miku"
    },
    {
        "id": 26,
        "characterType": "game_character",
        "characterId": 21,
        "unit": "school_refusal",
        "assetName": "21miku"
    },
    {
        "id": 27,
        "characterType": "game_character",
        "characterId": 22,
        "unit": "piapro",
        "assetName": "22rin"
    },
    {
        "id": 28,
        "characterType": "game_character",
        "characterId": 23,
        "unit": "piapro",
        "assetName": "23len"
    },
    {
        "id": 29,
        "characterType": "game_character",
        "characterId": 24,
        "unit": "piapro",
        "assetName": "24luka"
    },
    {
        "id": 30,
        "characterType": "game_character",
        "characterId": 25,
        "unit": "piapro",
        "assetName": "25meiko"
    },
    {
        "id": 31,
        "characterType": "game_character",
        "characterId": 26,
        "unit": "piapro",
        "assetName": "26kaito"
    },
    {
        "id": 32,
        "characterType": "mob",
        "characterId": 1,
        "unit": "none"
    },
    {
        "id": 33,
        "characterType": "mob",
        "characterId": 2,
        "unit": "none"
    },
    {
        "id": 34,
        "characterType": "mob",
        "characterId": 3,
        "unit": "none"
    },
    {
        "id": 35,
        "characterType": "mob",
        "characterId": 4,
        "unit": "none"
    },
    {
        "id": 36,
        "characterType": "mob",
        "characterId": 5,
        "unit": "none"
    },
    {
        "id": 37,
        "characterType": "mob",
        "characterId": 6,
        "unit": "none"
    },
    {
        "id": 38,
        "characterType": "mob",
        "characterId": 7,
        "unit": "none"
    },
    {
        "id": 39,
        "characterType": "mob",
        "characterId": 8,
        "unit": "none"
    },
    {
        "id": 40,
        "characterType": "mob",
        "characterId": 9,
        "unit": "none"
    },
    {
        "id": 41,
        "characterType": "mob",
        "characterId": 10,
        "unit": "none"
    },
    {
        "id": 42,
        "characterType": "mob",
        "characterId": 11,
        "unit": "none"
    },
    {
        "id": 43,
        "characterType": "mob",
        "characterId": 12,
        "unit": "none"
    },
    {
        "id": 44,
        "characterType": "mob",
        "characterId": 13,
        "unit": "none"
    },
    {
        "id": 45,
        "characterType": "mob",
        "characterId": 14,
        "unit": "none"
    },
    {
        "id": 46,
        "characterType": "mob",
        "characterId": 15,
        "unit": "none"
    },
    {
        "id": 47,
        "characterType": "mob",
        "characterId": 16,
        "unit": "none"
    },
    {
        "id": 48,
        "characterType": "mob",
        "characterId": 17,
        "unit": "none"
    },
    {
        "id": 49,
        "characterType": "mob",
        "characterId": 18,
        "unit": "none"
    },
    {
        "id": 50,
        "characterType": "mob",
        "characterId": 19,
        "unit": "none"
    },
    {
        "id": 51,
        "characterType": "mob",
        "characterId": 20,
        "unit": "none"
    },
    {
        "id": 52,
        "characterType": "mob",
        "characterId": 21,
        "unit": "none"
    },
    {
        "id": 53,
        "characterType": "mob",
        "characterId": 22,
        "unit": "none"
    },
    {
        "id": 54,
        "characterType": "mob",
        "characterId": 23,
        "unit": "none"
    },
    {
        "id": 55,
        "characterType": "mob",
        "characterId": 24,
        "unit": "none"
    },
    {
        "id": 57,
        "characterType": "mob",
        "characterId": 26,
        "unit": "none"
    },
    {
        "id": 58,
        "characterType": "mob",
        "characterId": 27,
        "unit": "none"
    },
    {
        "id": 59,
        "characterType": "mob",
        "characterId": 28,
        "unit": "none"
    },
    {
        "id": 60,
        "characterType": "mob",
        "characterId": 29,
        "unit": "none"
    },
    {
        "id": 61,
        "characterType": "mob",
        "characterId": 30,
        "unit": "none"
    },
    {
        "id": 62,
        "characterType": "mob",
        "characterId": 31,
        "unit": "none"
    },
    {
        "id": 63,
        "characterType": "mob",
        "characterId": 32,
        "unit": "none"
    },
    {
        "id": 64,
        "characterType": "mob",
        "characterId": 33,
        "unit": "none"
    },
    {
        "id": 65,
        "characterType": "mob",
        "characterId": 34,
        "unit": "none"
    },
    {
        "id": 66,
        "characterType": "mob",
        "characterId": 35,
        "unit": "none"
    },
    {
        "id": 67,
        "characterType": "mob",
        "characterId": 36,
        "unit": "none",
        "assetName": "sub_anfather"
    },
    {
        "id": 68,
        "characterType": "mob",
        "characterId": 37,
        "unit": "none",
        "assetName": "sub_kanadefather"
    },
    {
        "id": 69,
        "characterType": "mob",
        "characterId": 38,
        "unit": "none",
        "assetName": "sub_tsukasadoll"
    },
    {
        "id": 70,
        "characterType": "mob",
        "characterId": 39,
        "unit": "none",
        "assetName": "sub_wondermascot"
    },
    {
        "id": 71,
        "characterType": "mob",
        "characterId": 40,
        "unit": "none",
        "assetName": "sub_nenedayo"
    },
    {
        "id": 72,
        "characterType": "mob",
        "characterId": 41,
        "unit": "none",
        "assetName": "sub_mikudayo"
    },
    {
        "id": 73,
        "characterType": "mob",
        "characterId": 42,
        "unit": "none",
        "assetName": "sub_harukafan"
    },
    {
        "id": 74,
        "characterType": "mob",
        "characterId": 43,
        "unit": "none",
        "assetName": "sub_cordnukio"
    },
    {
        "id": 75,
        "characterType": "mob",
        "characterId": 44,
        "unit": "none"
    },
    {
        "id": 76,
        "characterType": "mob",
        "characterId": 45,
        "unit": "none"
    },
    {
        "id": 77,
        "characterType": "mob",
        "characterId": 46,
        "unit": "none"
    },
    {
        "id": 78,
        "characterType": "mob",
        "characterId": 47,
        "unit": "none"
    },
    {
        "id": 79,
        "characterType": "mob",
        "characterId": 48,
        "unit": "none"
    },
    {
        "id": 80,
        "characterType": "mob",
        "characterId": 49,
        "unit": "none"
    },
    {
        "id": 81,
        "characterType": "mob",
        "characterId": 50,
        "unit": "none"
    },
    {
        "id": 82,
        "characterType": "mob",
        "characterId": 51,
        "unit": "none"
    },
    {
        "id": 83,
        "characterType": "mob",
        "characterId": 52,
        "unit": "none"
    },
    {
        "id": 84,
        "characterType": "mob",
        "characterId": 53,
        "unit": "none"
    },
    {
        "id": 85,
        "characterType": "mob",
        "characterId": 54,
        "unit": "none"
    },
    {
        "id": 86,
        "characterType": "mob",
        "characterId": 55,
        "unit": "none"
    },
    {
        "id": 87,
        "characterType": "mob",
        "characterId": 56,
        "unit": "none"
    },
    {
        "id": 88,
        "characterType": "mob",
        "characterId": 57,
        "unit": "none"
    },
    {
        "id": 89,
        "characterType": "mob",
        "characterId": 58,
        "unit": "none"
    },
    {
        "id": 90,
        "characterType": "mob",
        "characterId": 59,
        "unit": "none"
    },
    {
        "id": 91,
        "characterType": "mob",
        "characterId": 60,
        "unit": "none"
    },
    {
        "id": 92,
        "characterType": "mob",
        "characterId": 61,
        "unit": "none"
    },
    {
        "id": 93,
        "characterType": "mob",
        "characterId": 62,
        "unit": "none"
    },
    {
        "id": 94,
        "characterType": "mob",
        "characterId": 63,
        "unit": "none"
    },
    {
        "id": 95,
        "characterType": "mob",
        "characterId": 64,
        "unit": "none"
    },
    {
        "id": 96,
        "characterType": "mob",
        "characterId": 65,
        "unit": "none"
    },
    {
        "id": 97,
        "characterType": "mob",
        "characterId": 66,
        "unit": "none"
    },
    {
        "id": 98,
        "characterType": "mob",
        "characterId": 67,
        "unit": "none"
    },
    {
        "id": 99,
        "characterType": "mob",
        "characterId": 68,
        "unit": "none"
    },
    {
        "id": 100,
        "characterType": "mob",
        "characterId": 69,
        "unit": "none"
    },
    {
        "id": 101,
        "characterType": "mob",
        "characterId": 70,
        "unit": "none"
    },
    {
        "id": 102,
        "characterType": "mob",
        "characterId": 71,
        "unit": "none"
    },
    {
        "id": 103,
        "characterType": "mob",
        "characterId": 72,
        "unit": "none"
    },
    {
        "id": 104,
        "characterType": "mob",
        "characterId": 73,
        "unit": "none"
    },
    {
        "id": 105,
        "characterType": "mob",
        "characterId": 74,
        "unit": "none"
    },
    {
        "id": 106,
        "characterType": "mob",
        "characterId": 75,
        "unit": "none"
    },
    {
        "id": 107,
        "characterType": "game_character",
        "characterId": 22,
        "unit": "street",
        "assetName": "22rin"
    },
    {
        "id": 108,
        "characterType": "game_character",
        "characterId": 23,
        "unit": "theme_park",
        "assetName": "23len"
    },
    {
        "id": 109,
        "characterType": "mob",
        "characterId": 76,
        "unit": "none",
        "assetName": "sub_iori"
    },
    {
        "id": 110,
        "characterType": "mob",
        "characterId": 77,
        "unit": "none",
        "assetName": "sub_diva"
    },
    {
        "id": 111,
        "characterType": "mob",
        "characterId": 78,
        "unit": "none",
        "assetName": "sub_shinonomefather"
    },
    {
        "id": 112,
        "characterType": "mob",
        "characterId": 79,
        "unit": "none",
        "assetName": "sub_touyafather"
    },
    {
        "id": 113,
        "characterType": "game_character",
        "characterId": 7,
        "unit": "idol",
        "assetName": "sub_airichild"
    },
    {
        "id": 114,
        "characterType": "game_character",
        "characterId": 25,
        "unit": "theme_park",
        "assetName": "25meiko"
    },
    {
        "id": 115,
        "characterType": "game_character",
        "characterId": 15,
        "unit": "theme_park",
        "assetName": "sub_nenechild"
    },
    {
        "id": 116,
        "characterType": "mob",
        "characterId": 80,
        "unit": "none",
        "assetName": "sub_liondancerobot"
    },
    {
        "id": 117,
        "characterType": "game_character",
        "characterId": 13,
        "unit": "theme_park",
        "assetName": "13tsukasa_liondance"
    },
    {
        "id": 118,
        "characterType": "game_character",
        "characterId": 25,
        "unit": "light_sound",
        "assetName": "25meiko"
    },
    {
        "id": 119,
        "characterType": "game_character",
        "characterId": 24,
        "unit": "idol",
        "assetName": "24luka"
    },
    {
        "id": 120,
        "characterType": "game_character",
        "characterId": 22,
        "unit": "theme_park",
        "assetName": "22rin"
    },
    {
        "id": 121,
        "characterType": "game_character",
        "characterId": 22,
        "unit": "school_refusal",
        "assetName": "22rin"
    },
    {
        "id": 122,
        "characterType": "mob",
        "characterId": 81,
        "unit": "none",
        "assetName": "sub_otorifather"
    },
    {
        "id": 123,
        "characterType": "mob",
        "characterId": 82,
        "unit": "none",
        "assetName": "sub_otorisister"
    },
    {
        "id": 124,
        "characterType": "mob",
        "characterId": 83,
        "unit": "none",
        "assetName": "sub_otoribrother1"
    },
    {
        "id": 125,
        "characterType": "mob",
        "characterId": 84,
        "unit": "none",
        "assetName": "sub_otoribrother2"
    },
    {
        "id": 126,
        "characterType": "game_character",
        "characterId": 13,
        "unit": "theme_park",
        "assetName": "sub_tsukasachild"
    },
    {
        "id": 127,
        "characterType": "game_character",
        "characterId": 2,
        "unit": "light_sound",
        "assetName": "sub_sakichild"
    },
    {
        "id": 128,
        "characterType": "game_character",
        "characterId": 24,
        "unit": "theme_park",
        "assetName": "24luka"
    },
    {
        "id": 129,
        "characterType": "mob",
        "characterId": 85,
        "unit": "none",
        "assetName": "sub_nanamin"
    },
    {
        "id": 130,
        "characterType": "game_character",
        "characterId": 25,
        "unit": "school_refusal",
        "assetName": "25meiko"
    },
    {
        "id": 131,
        "characterType": "mob",
        "characterId": 86,
        "unit": "none",
        "assetName": "sub_mio"
    },
    {
        "id": 132,
        "characterType": "mob",
        "characterId": 87,
        "unit": "none",
        "assetName": "sub_arata"
    },
    {
        "id": 133,
        "characterType": "game_character",
        "characterId": 26,
        "unit": "street",
        "assetName": "26kaito"
    },
    {
        "id": 134,
        "characterType": "game_character",
        "characterId": 25,
        "unit": "idol",
        "assetName": "25meiko"
    },
    {
        "id": 135,
        "characterType": "mob",
        "characterId": 88,
        "unit": "none",
        "assetName": "sub_rilley"
    },
    {
        "id": 136,
        "characterType": "mob",
        "characterId": 89,
        "unit": "none",
        "assetName": "sub_kanademother"
    },
    {
        "id": 137,
        "characterType": "game_character",
        "characterId": 17,
        "unit": "school_refusal",
        "assetName": "sub_kanadechild"
    },
    {
        "id": 138,
        "characterType": "game_character",
        "characterId": 24,
        "unit": "school_refusal",
        "assetName": "24luka"
    },
    {
        "id": 139,
        "characterType": "game_character",
        "characterId": 22,
        "unit": "light_sound",
        "assetName": "22rin"
    },
    {
        "id": 140,
        "characterType": "mob",
        "characterId": 90,
        "unit": "none",
        "assetName": "sub_partner"
    },
    {
        "id": 141,
        "characterType": "game_character",
        "characterId": 11,
        "unit": "street",
        "assetName": "sub_akitochild"
    },
    {
        "id": 142,
        "characterType": "mob",
        "characterId": 91,
        "unit": "none",
        "assetName": "sub_yuuka"
    },
    {
        "id": 143,
        "characterType": "game_character",
        "characterId": 23,
        "unit": "idol",
        "assetName": "23len"
    },
    {
        "id": 144,
        "characterType": "game_character",
        "characterId": 4,
        "unit": "light_sound",
        "assetName": "sub_shihochild"
    },
    {
        "id": 145,
        "characterType": "game_character",
        "characterId": 8,
        "unit": "idol",
        "assetName": "sub_shizukuchild"
    },
    {
        "id": 146,
        "characterType": "game_character",
        "characterId": 18,
        "unit": "school_refusal",
        "assetName": "sub_mafuyuchild"
    },
    {
        "id": 147,
        "characterType": "game_character",
        "characterId": 26,
        "unit": "light_sound",
        "assetName": "26kaito"
    },
    {
        "id": 148,
        "characterType": "game_character",
        "characterId": 16,
        "unit": "theme_park",
        "assetName": "sub_ruichild"
    },
    {
        "id": 149,
        "characterType": "game_character",
        "characterId": 23,
        "unit": "light_sound",
        "assetName": "23len"
    },
    {
        "id": 150,
        "characterType": "game_character",
        "characterId": 22,
        "unit": "piapro",
        "assetName": "clb01_22rin"
    },
    {
        "id": 151,
        "characterType": "game_character",
        "characterId": 23,
        "unit": "piapro",
        "assetName": "clb01_23len"
    },
    {
        "id": 152,
        "characterType": "game_character",
        "characterId": 24,
        "unit": "piapro",
        "assetName": "clb01_24luka01"
    },
    {
        "id": 153,
        "characterType": "game_character",
        "characterId": 24,
        "unit": "piapro",
        "assetName": "clb01_24luka02"
    },
    {
        "id": 154,
        "characterType": "game_character",
        "characterId": 25,
        "unit": "piapro",
        "assetName": "clb01_25meiko"
    },
    {
        "id": 155,
        "characterType": "game_character",
        "characterId": 26,
        "unit": "piapro",
        "assetName": "clb01_26kaito"
    },
    {
        "id": 156,
        "characterType": "game_character",
        "characterId": 21,
        "unit": "piapro",
        "assetName": "clb01_21miku"
    },
    {
        "id": 157,
        "characterType": "game_character",
        "characterId": 26,
        "unit": "idol",
        "assetName": "26kaito"
    },
    {
        "id": 158,
        "characterType": "mob",
        "characterId": 92,
        "unit": "none",
        "assetName": "sub_yuina"
    },
    {
        "id": 159,
        "characterType": "mob",
        "characterId": 93,
        "unit": "none",
        "assetName": "sub_saito"
    },
    {
        "id": 160,
        "characterType": "game_character",
        "characterId": 25,
        "unit": "piapro",
        "assetName": "clb01_25meikoblack"
    },
    {
        "id": 161,
        "characterType": "game_character",
        "characterId": 22,
        "unit": "piapro",
        "assetName": "clb01_22rin02"
    },
    {
        "id": 162,
        "characterType": "game_character",
        "characterId": 23,
        "unit": "piapro",
        "assetName": "clb01_23len02"
    },
    {
        "id": 163,
        "characterType": "game_character",
        "characterId": 23,
        "unit": "piapro",
        "assetName": "clb01_23lenblack"
    },
    {
        "id": 164,
        "characterType": "game_character",
        "characterId": 24,
        "unit": "street",
        "assetName": "24luka"
    },
    {
        "id": 165,
        "characterType": "game_character",
        "characterId": 22,
        "unit": "idol",
        "assetName": "22rin"
    },
    {
        "id": 166,
        "characterType": "game_character",
        "characterId": 23,
        "unit": "street",
        "assetName": "23len"
    },
    {
        "id": 167,
        "characterType": "game_character",
        "characterId": 24,
        "unit": "light_sound",
        "assetName": "24luka"
    },
    {
        "id": 168,
        "characterType": "game_character",
        "characterId": 25,
        "unit": "street",
        "assetName": "25meiko"
    },
    {
        "id": 169,
        "characterType": "game_character",
        "characterId": 26,
        "unit": "theme_park",
        "assetName": "26kaito"
    },
    {
        "id": 170,
        "characterType": "mob",
        "characterId": 94,
        "unit": "none",
        "assetName": "sub_otorirakunosuke"
    },
    {
        "id": 171,
        "characterType": "mob",
        "characterId": 95,
        "unit": "none",
        "assetName": "sub_rilleyyoung"
    },
    {
        "id": 172,
        "characterType": "game_character",
        "characterId": 1,
        "unit": "light_sound"
    },
    {
        "id": 173,
        "characterType": "game_character",
        "characterId": 2,
        "unit": "light_sound"
    },
    {
        "id": 174,
        "characterType": "game_character",
        "characterId": 3,
        "unit": "light_sound"
    },
    {
        "id": 175,
        "characterType": "game_character",
        "characterId": 4,
        "unit": "light_sound"
    },
    {
        "id": 176,
        "characterType": "game_character",
        "characterId": 21,
        "unit": "light_sound"
    },
    {
        "id": 177,
        "characterType": "game_character",
        "characterId": 22,
        "unit": "light_sound"
    },
    {
        "id": 178,
        "characterType": "game_character",
        "characterId": 23,
        "unit": "light_sound"
    },
    {
        "id": 179,
        "characterType": "game_character",
        "characterId": 24,
        "unit": "light_sound"
    },
    {
        "id": 180,
        "characterType": "game_character",
        "characterId": 25,
        "unit": "light_sound"
    },
    {
        "id": 181,
        "characterType": "game_character",
        "characterId": 26,
        "unit": "light_sound"
    },
    {
        "id": 182,
        "characterType": "game_character",
        "characterId": 5,
        "unit": "idol"
    },
    {
        "id": 183,
        "characterType": "game_character",
        "characterId": 5,
        "unit": "idol"
    },
    {
        "id": 184,
        "characterType": "game_character",
        "characterId": 6,
        "unit": "idol"
    },
    {
        "id": 185,
        "characterType": "game_character",
        "characterId": 6,
        "unit": "idol"
    },
    {
        "id": 186,
        "characterType": "game_character",
        "characterId": 7,
        "unit": "idol"
    },
    {
        "id": 187,
        "characterType": "game_character",
        "characterId": 7,
        "unit": "idol"
    },
    {
        "id": 188,
        "characterType": "game_character",
        "characterId": 8,
        "unit": "idol"
    },
    {
        "id": 189,
        "characterType": "game_character",
        "characterId": 8,
        "unit": "idol"
    },
    {
        "id": 190,
        "characterType": "game_character",
        "characterId": 21,
        "unit": "idol"
    },
    {
        "id": 191,
        "characterType": "game_character",
        "characterId": 21,
        "unit": "idol"
    },
    {
        "id": 192,
        "characterType": "game_character",
        "characterId": 22,
        "unit": "idol"
    },
    {
        "id": 193,
        "characterType": "game_character",
        "characterId": 22,
        "unit": "idol"
    },
    {
        "id": 194,
        "characterType": "game_character",
        "characterId": 23,
        "unit": "idol"
    },
    {
        "id": 195,
        "characterType": "game_character",
        "characterId": 23,
        "unit": "idol"
    },
    {
        "id": 196,
        "characterType": "game_character",
        "characterId": 24,
        "unit": "idol"
    },
    {
        "id": 197,
        "characterType": "game_character",
        "characterId": 24,
        "unit": "idol"
    },
    {
        "id": 198,
        "characterType": "game_character",
        "characterId": 25,
        "unit": "idol"
    },
    {
        "id": 199,
        "characterType": "game_character",
        "characterId": 25,
        "unit": "idol"
    },
    {
        "id": 200,
        "characterType": "game_character",
        "characterId": 26,
        "unit": "idol"
    },
    {
        "id": 201,
        "characterType": "game_character",
        "characterId": 26,
        "unit": "idol"
    },
    {
        "id": 202,
        "characterType": "game_character",
        "characterId": 17,
        "unit": "school_refusal"
    },
    {
        "id": 203,
        "characterType": "game_character",
        "characterId": 18,
        "unit": "school_refusal"
    },
    {
        "id": 204,
        "characterType": "game_character",
        "characterId": 19,
        "unit": "school_refusal"
    },
    {
        "id": 205,
        "characterType": "game_character",
        "characterId": 20,
        "unit": "school_refusal"
    },
    {
        "id": 206,
        "characterType": "game_character",
        "characterId": 21,
        "unit": "school_refusal"
    },
    {
        "id": 207,
        "characterType": "game_character",
        "characterId": 22,
        "unit": "school_refusal"
    },
    {
        "id": 208,
        "characterType": "game_character",
        "characterId": 24,
        "unit": "school_refusal"
    },
    {
        "id": 209,
        "characterType": "game_character",
        "characterId": 25,
        "unit": "school_refusal"
    },
    {
        "id": 210,
        "characterType": "mob",
        "characterId": 96,
        "unit": "none",
        "assetName": "sub_nagi"
    },
    {
        "id": 211,
        "characterType": "mob",
        "characterId": 97,
        "unit": "none",
        "assetName": "sub_anfather_rw"
    },
    {
        "id": 212,
        "characterType": "mob",
        "characterId": 98,
        "unit": "none",
        "assetName": "sub_partner_rw"
    },
    {
        "id": 213,
        "characterType": "mob",
        "characterId": 99,
        "unit": "none",
        "assetName": "sub_nagi_live"
    },
    {
        "id": 214,
        "characterType": "mob",
        "characterId": 100,
        "unit": "none",
        "assetName": "sub_nagi_black"
    },
    {
        "id": 215,
        "characterType": "mob",
        "characterId": 101,
        "unit": "none",
        "assetName": "sub_anfather_live"
    },
    {
        "id": 216,
        "characterType": "mob",
        "characterId": 102,
        "unit": "none",
        "assetName": "sub_partner_live"
    },
    {
        "id": 217,
        "characterType": "mob",
        "characterId": 103,
        "unit": "none",
        "assetName": "sub_miu"
    },
    {
        "id": 218,
        "characterType": "mob",
        "characterId": 104,
        "unit": "none",
        "assetName": "sub_futaba"
    },
    {
        "id": 219,
        "characterType": "game_character",
        "characterId": 22,
        "unit": "light_sound",
        "assetName": "22rin"
    },
    {
        "id": 220,
        "characterType": "game_character",
        "characterId": 22,
        "unit": "idol",
        "assetName": "22rin"
    },
    {
        "id": 221,
        "characterType": "game_character",
        "characterId": 22,
        "unit": "street",
        "assetName": "22rin"
    },
    {
        "id": 222,
        "characterType": "game_character",
        "characterId": 22,
        "unit": "theme_park",
        "assetName": "22rin"
    },
    {
        "id": 223,
        "characterType": "game_character",
        "characterId": 22,
        "unit": "school_refusal",
        "assetName": "22rin"
    },
    {
        "id": 224,
        "characterType": "game_character",
        "characterId": 23,
        "unit": "light_sound",
        "assetName": "23len"
    },
    {
        "id": 225,
        "characterType": "game_character",
        "characterId": 23,
        "unit": "idol",
        "assetName": "23len"
    },
    {
        "id": 226,
        "characterType": "game_character",
        "characterId": 23,
        "unit": "street",
        "assetName": "23len"
    },
    {
        "id": 227,
        "characterType": "game_character",
        "characterId": 23,
        "unit": "theme_park",
        "assetName": "23len"
    },
    {
        "id": 228,
        "characterType": "game_character",
        "characterId": 24,
        "unit": "light_sound",
        "assetName": "24luka"
    },
    {
        "id": 229,
        "characterType": "game_character",
        "characterId": 24,
        "unit": "idol",
        "assetName": "24luka"
    },
    {
        "id": 230,
        "characterType": "game_character",
        "characterId": 24,
        "unit": "street",
        "assetName": "24luka"
    },
    {
        "id": 231,
        "characterType": "game_character",
        "characterId": 24,
        "unit": "theme_park",
        "assetName": "24luka"
    },
    {
        "id": 232,
        "characterType": "game_character",
        "characterId": 24,
        "unit": "school_refusal",
        "assetName": "24luka"
    },
    {
        "id": 233,
        "characterType": "game_character",
        "characterId": 25,
        "unit": "light_sound",
        "assetName": "25meiko"
    },
    {
        "id": 234,
        "characterType": "game_character",
        "characterId": 25,
        "unit": "idol",
        "assetName": "25meiko"
    },
    {
        "id": 235,
        "characterType": "game_character",
        "characterId": 25,
        "unit": "street",
        "assetName": "25meiko"
    },
    {
        "id": 236,
        "characterType": "game_character",
        "characterId": 25,
        "unit": "theme_park",
        "assetName": "25meiko"
    },
    {
        "id": 237,
        "characterType": "game_character",
        "characterId": 25,
        "unit": "school_refusal",
        "assetName": "25meiko"
    },
    {
        "id": 238,
        "characterType": "game_character",
        "characterId": 26,
        "unit": "light_sound",
        "assetName": "26kaito"
    },
    {
        "id": 239,
        "characterType": "game_character",
        "characterId": 26,
        "unit": "idol",
        "assetName": "26kaito"
    },
    {
        "id": 240,
        "characterType": "game_character",
        "characterId": 26,
        "unit": "street",
        "assetName": "26kaito"
    },
    {
        "id": 241,
        "characterType": "game_character",
        "characterId": 26,
        "unit": "theme_park",
        "assetName": "26kaito"
    },
    {
        "id": 242,
        "characterType": "game_character",
        "characterId": 4,
        "unit": "light_sound",
        "assetName": "04shiho"
    },
    {
        "id": 243,
        "characterType": "game_character",
        "characterId": 10,
        "unit": "street",
        "assetName": "10an"
    },
    {
        "id": 244,
        "characterType": "game_character",
        "characterId": 17,
        "unit": "school_refusal",
        "assetName": "17kanade"
    },
    {
        "id": 245,
        "characterType": "game_character",
        "characterId": 6,
        "unit": "idol",
        "assetName": "06haruka"
    },
    {
        "id": 246,
        "characterType": "game_character",
        "characterId": 9,
        "unit": "street",
        "assetName": "09kohane"
    },
    {
        "id": 247,
        "characterType": "game_character",
        "characterId": 18,
        "unit": "school_refusal",
        "assetName": "18mafuyu"
    },
    {
        "id": 248,
        "characterType": "mob",
        "characterId": 105,
        "unit": "none",
        "assetName": "sub_youta"
    },
    {
        "id": 249,
        "characterType": "mob",
        "characterId": 106,
        "unit": "none",
        "assetName": "sub_hanano"
    },
    {
        "id": 250,
        "characterType": "mob",
        "characterId": 107,
        "unit": "none",
        "assetName": "sub_riho"
    },
    {
        "id": 251,
        "characterType": "mob",
        "characterId": 108,
        "unit": "none",
        "assetName": "sub_souma"
    },
    {
        "id": 252,
        "characterType": "game_character",
        "characterId": 23,
        "unit": "school_refusal",
        "assetName": "23len"
    },
    {
        "id": 253,
        "characterType": "game_character",
        "characterId": 10,
        "unit": "street",
        "assetName": "sub_anchild"
    },
    {
        "id": 254,
        "characterType": "mob",
        "characterId": 109,
        "unit": "none",
        "assetName": "sub_saku"
    },
    {
        "id": 255,
        "characterType": "mob",
        "characterId": 110,
        "unit": "none",
        "assetName": "sub_tatsuya"
    },
    {
        "id": 256,
        "characterType": "mob",
        "characterId": 111,
        "unit": "none",
        "assetName": "sub_asahi"
    },
    {
        "id": 257,
        "characterType": "game_character",
        "characterId": 6,
        "unit": "idol",
        "assetName": "sub_harukachild"
    },
    {
        "id": 900000,
        "characterType": "mob",
        "characterId": 900000,
        "unit": "none"
    }
]