[
    {
        "id": 1,
        "characterPartyName": "みんなすごい",
        "gameCharacterUnitId": 1
    },
    {
        "id": 2,
        "characterPartyName": "ミク大好き",
        "gameCharacterUnitId": 1
    },
    {
        "id": 3,
        "characterPartyName": "幼馴染み大切",
        "gameCharacterUnitId": 2
    },
    {
        "id": 4,
        "characterPartyName": "青春しよう！",
        "gameCharacterUnitId": 2
    },
    {
        "id": 5,
        "characterPartyName": "しばおラブ",
        "gameCharacterUnitId": 3
    },
    {
        "id": 6,
        "characterPartyName": "星好き",
        "gameCharacterUnitId": 3
    },
    {
        "id": 7,
        "characterPartyName": "ひとりが好き",
        "gameCharacterUnitId": 4
    },
    {
        "id": 8,
        "characterPartyName": "ラーメン好き",
        "gameCharacterUnitId": 4
    },
    {
        "id": 9,
        "characterPartyName": "推しが尊い",
        "gameCharacterUnitId": 5
    },
    {
        "id": 10,
        "characterPartyName": "サーモン好き",
        "gameCharacterUnitId": 5
    },
    {
        "id": 11,
        "characterPartyName": "とっても甘党",
        "gameCharacterUnitId": 6
    },
    {
        "id": 12,
        "characterPartyName": "ペンギン好き",
        "gameCharacterUnitId": 6
    },
    {
        "id": 13,
        "characterPartyName": "猫好き",
        "gameCharacterUnitId": 7
    },
    {
        "id": 14,
        "characterPartyName": "アイドル好き",
        "gameCharacterUnitId": 7
    },
    {
        "id": 15,
        "characterPartyName": "方向音痴",
        "gameCharacterUnitId": 8
    },
    {
        "id": 16,
        "characterPartyName": "妹ラブ",
        "gameCharacterUnitId": 8
    },
    {
        "id": 17,
        "characterPartyName": "趣味はカメラ",
        "gameCharacterUnitId": 9
    },
    {
        "id": 18,
        "characterPartyName": "ケモノの闘志",
        "gameCharacterUnitId": 9
    },
    {
        "id": 19,
        "characterPartyName": "風紀委員",
        "gameCharacterUnitId": 10
    },
    {
        "id": 20,
        "characterPartyName": "カフェ看板娘",
        "gameCharacterUnitId": 10
    },
    {
        "id": 21,
        "characterPartyName": "実は甘党",
        "gameCharacterUnitId": 11
    },
    {
        "id": 22,
        "characterPartyName": "犬は天敵",
        "gameCharacterUnitId": 11
    },
    {
        "id": 23,
        "characterPartyName": "図書委員",
        "gameCharacterUnitId": 12
    },
    {
        "id": 24,
        "characterPartyName": "コーヒー好き",
        "gameCharacterUnitId": 12
    },
    {
        "id": 25,
        "characterPartyName": "未来のスター",
        "gameCharacterUnitId": 13
    },
    {
        "id": 26,
        "characterPartyName": "自称座長",
        "gameCharacterUnitId": 13
    },
    {
        "id": 27,
        "characterPartyName": "わんだほーい",
        "gameCharacterUnitId": 14
    },
    {
        "id": 28,
        "characterPartyName": "たい焼きラブ",
        "gameCharacterUnitId": 14
    },
    {
        "id": 29,
        "characterPartyName": "人見知り",
        "gameCharacterUnitId": 15
    },
    {
        "id": 30,
        "characterPartyName": "ゲーマー",
        "gameCharacterUnitId": 15
    },
    {
        "id": 31,
        "characterPartyName": "天才演出家",
        "gameCharacterUnitId": 16
    },
    {
        "id": 32,
        "characterPartyName": "発明が得意",
        "gameCharacterUnitId": 16
    },
    {
        "id": 33,
        "characterPartyName": "カップ麺生活",
        "gameCharacterUnitId": 17
    },
    {
        "id": 34,
        "characterPartyName": "ジャージ常備",
        "gameCharacterUnitId": 17
    },
    {
        "id": 35,
        "characterPartyName": "「優等生」",
        "gameCharacterUnitId": 18
    },
    {
        "id": 36,
        "characterPartyName": "ひとりにして",
        "gameCharacterUnitId": 18
    },
    {
        "id": 37,
        "characterPartyName": "自撮り上手",
        "gameCharacterUnitId": 19
    },
    {
        "id": 38,
        "characterPartyName": "映え主義",
        "gameCharacterUnitId": 19
    },
    {
        "id": 39,
        "characterPartyName": "裁縫上手",
        "gameCharacterUnitId": 20
    },
    {
        "id": 40,
        "characterPartyName": "猫舌",
        "gameCharacterUnitId": 20
    },
    {
        "id": 41,
        "characterPartyName": "セカイの歌姫",
        "gameCharacterUnitId": 21
    },
    {
        "id": 42,
        "characterPartyName": "バンドの先輩",
        "gameCharacterUnitId": 27
    },
    {
        "id": 43,
        "characterPartyName": "ステージの花",
        "gameCharacterUnitId": 28
    },
    {
        "id": 44,
        "characterPartyName": "カフェ手伝い",
        "gameCharacterUnitId": 29
    },
    {
        "id": 45,
        "characterPartyName": "猫耳",
        "gameCharacterUnitId": 30
    },
    {
        "id": 46,
        "characterPartyName": "いつも隣に",
        "gameCharacterUnitId": 31
    },
    {
        "id": 47,
        "characterPartyName": "元気な歌姫",
        "gameCharacterUnitId": 22
    },
    {
        "id": 48,
        "characterPartyName": "元気な歌姫",
        "gameCharacterUnitId": 32
    },
    {
        "id": 49,
        "characterPartyName": "元気な歌姫",
        "gameCharacterUnitId": 33
    },
    {
        "id": 50,
        "characterPartyName": "元気な歌姫",
        "gameCharacterUnitId": 34
    },
    {
        "id": 51,
        "characterPartyName": "元気な歌姫",
        "gameCharacterUnitId": 35
    },
    {
        "id": 52,
        "characterPartyName": "元気な歌姫",
        "gameCharacterUnitId": 36
    },
    {
        "id": 53,
        "characterPartyName": "元気な歌姫",
        "gameCharacterUnitId": 37
    },
    {
        "id": 54,
        "characterPartyName": "活発シンガー",
        "gameCharacterUnitId": 23
    },
    {
        "id": 55,
        "characterPartyName": "活発シンガー",
        "gameCharacterUnitId": 37
    },
    {
        "id": 56,
        "characterPartyName": "活発シンガー",
        "gameCharacterUnitId": 38
    },
    {
        "id": 57,
        "characterPartyName": "活発シンガー",
        "gameCharacterUnitId": 39
    },
    {
        "id": 58,
        "characterPartyName": "活発シンガー",
        "gameCharacterUnitId": 40
    },
    {
        "id": 59,
        "characterPartyName": "活発シンガー",
        "gameCharacterUnitId": 41
    },
    {
        "id": 60,
        "characterPartyName": "穏やかな歌姫",
        "gameCharacterUnitId": 24
    },
    {
        "id": 61,
        "characterPartyName": "穏やかな歌姫",
        "gameCharacterUnitId": 42
    },
    {
        "id": 62,
        "characterPartyName": "穏やかな歌姫",
        "gameCharacterUnitId": 43
    },
    {
        "id": 63,
        "characterPartyName": "穏やかな歌姫",
        "gameCharacterUnitId": 44
    },
    {
        "id": 64,
        "characterPartyName": "穏やかな歌姫",
        "gameCharacterUnitId": 45
    },
    {
        "id": 65,
        "characterPartyName": "穏やかな歌姫",
        "gameCharacterUnitId": 46
    },
    {
        "id": 66,
        "characterPartyName": "力強い歌姫",
        "gameCharacterUnitId": 25
    },
    {
        "id": 67,
        "characterPartyName": "力強い歌姫",
        "gameCharacterUnitId": 47
    },
    {
        "id": 68,
        "characterPartyName": "力強い歌姫",
        "gameCharacterUnitId": 48
    },
    {
        "id": 69,
        "characterPartyName": "力強い歌姫",
        "gameCharacterUnitId": 49
    },
    {
        "id": 70,
        "characterPartyName": "力強い歌姫",
        "gameCharacterUnitId": 50
    },
    {
        "id": 71,
        "characterPartyName": "力強い歌姫",
        "gameCharacterUnitId": 51
    },
    {
        "id": 72,
        "characterPartyName": "清涼シンガー",
        "gameCharacterUnitId": 26
    },
    {
        "id": 73,
        "characterPartyName": "清涼シンガー",
        "gameCharacterUnitId": 52
    },
    {
        "id": 74,
        "characterPartyName": "清涼シンガー",
        "gameCharacterUnitId": 53
    },
    {
        "id": 75,
        "characterPartyName": "清涼シンガー",
        "gameCharacterUnitId": 54
    },
    {
        "id": 76,
        "characterPartyName": "清涼シンガー",
        "gameCharacterUnitId": 55
    },
    {
        "id": 77,
        "characterPartyName": "清涼シンガー",
        "gameCharacterUnitId": 56
    },
    {
        "id": 78,
        "characterPartyName": "焼きそばパン",
        "gameCharacterUnitId": 1
    },
    {
        "id": 79,
        "characterPartyName": "友達思い",
        "gameCharacterUnitId": 1
    },
    {
        "id": 80,
        "characterPartyName": "綺麗な黒い髪",
        "gameCharacterUnitId": 1
    },
    {
        "id": 81,
        "characterPartyName": "見た目ギャル",
        "gameCharacterUnitId": 2
    },
    {
        "id": 82,
        "characterPartyName": "ツインテール",
        "gameCharacterUnitId": 2
    },
    {
        "id": 83,
        "characterPartyName": "明るく健気",
        "gameCharacterUnitId": 2
    },
    {
        "id": 84,
        "characterPartyName": "アップルパイ",
        "gameCharacterUnitId": 3
    },
    {
        "id": 85,
        "characterPartyName": "スニーカー好き",
        "gameCharacterUnitId": 3
    },
    {
        "id": 86,
        "characterPartyName": "画伯です",
        "gameCharacterUnitId": 3
    },
    {
        "id": 87,
        "characterPartyName": "一匹狼",
        "gameCharacterUnitId": 4
    },
    {
        "id": 88,
        "characterPartyName": "濃い味が好き",
        "gameCharacterUnitId": 4
    },
    {
        "id": 89,
        "characterPartyName": "正直者",
        "gameCharacterUnitId": 4
    },
    {
        "id": 90,
        "characterPartyName": "ラッコＴ",
        "gameCharacterUnitId": 5
    },
    {
        "id": 91,
        "characterPartyName": "こたつ",
        "gameCharacterUnitId": 5
    },
    {
        "id": 92,
        "characterPartyName": "もっともっと",
        "gameCharacterUnitId": 5
    },
    {
        "id": 93,
        "characterPartyName": "夢は完全南極",
        "gameCharacterUnitId": 6
    },
    {
        "id": 94,
        "characterPartyName": "全部２個ずつ",
        "gameCharacterUnitId": 6
    },
    {
        "id": 95,
        "characterPartyName": "ストイック",
        "gameCharacterUnitId": 6
    },
    {
        "id": 96,
        "characterPartyName": "八重歯キラン",
        "gameCharacterUnitId": 7
    },
    {
        "id": 97,
        "characterPartyName": "しっかり者",
        "gameCharacterUnitId": 7
    },
    {
        "id": 98,
        "characterPartyName": "不屈の精神",
        "gameCharacterUnitId": 7
    },
    {
        "id": 99,
        "characterPartyName": "しぃちゃん",
        "gameCharacterUnitId": 8
    },
    {
        "id": 100,
        "characterPartyName": "美しほくろ",
        "gameCharacterUnitId": 8
    },
    {
        "id": 101,
        "characterPartyName": "天然お姉さん",
        "gameCharacterUnitId": 8
    },
    {
        "id": 102,
        "characterPartyName": "ハムハム",
        "gameCharacterUnitId": 9
    },
    {
        "id": 103,
        "characterPartyName": "ペットはヘビ",
        "gameCharacterUnitId": 9
    },
    {
        "id": 104,
        "characterPartyName": "もう逃げない",
        "gameCharacterUnitId": 9
    },
    {
        "id": 105,
        "characterPartyName": "相棒大好き",
        "gameCharacterUnitId": 10
    },
    {
        "id": 106,
        "characterPartyName": "トマトNG",
        "gameCharacterUnitId": 10
    },
    {
        "id": 107,
        "characterPartyName": "サバサバ",
        "gameCharacterUnitId": 10
    },
    {
        "id": 108,
        "characterPartyName": "にんじんNG",
        "gameCharacterUnitId": 11
    },
    {
        "id": 109,
        "characterPartyName": "人当たり良し",
        "gameCharacterUnitId": 11
    },
    {
        "id": 110,
        "characterPartyName": "常に高みへ",
        "gameCharacterUnitId": 11
    },
    {
        "id": 111,
        "characterPartyName": "泣きぼくろ",
        "gameCharacterUnitId": 12
    },
    {
        "id": 112,
        "characterPartyName": "口下手",
        "gameCharacterUnitId": 12
    },
    {
        "id": 113,
        "characterPartyName": "表情筋が固い",
        "gameCharacterUnitId": 12
    },
    {
        "id": 114,
        "characterPartyName": "お魚シャツ",
        "gameCharacterUnitId": 13
    },
    {
        "id": 115,
        "characterPartyName": "演出NGなし",
        "gameCharacterUnitId": 13
    },
    {
        "id": 116,
        "characterPartyName": "オレだ！",
        "gameCharacterUnitId": 13
    },
    {
        "id": 117,
        "characterPartyName": "たい焼きラブ",
        "gameCharacterUnitId": 14
    },
    {
        "id": 118,
        "characterPartyName": "何でも食べる",
        "gameCharacterUnitId": 14
    },
    {
        "id": 119,
        "characterPartyName": "はちゃめちゃ",
        "gameCharacterUnitId": 14
    },
    {
        "id": 120,
        "characterPartyName": "毒舌",
        "gameCharacterUnitId": 15
    },
    {
        "id": 121,
        "characterPartyName": "抜群の歌声",
        "gameCharacterUnitId": 15
    },
    {
        "id": 122,
        "characterPartyName": "ミント系NG",
        "gameCharacterUnitId": 15
    },
    {
        "id": 123,
        "characterPartyName": "野菜NG",
        "gameCharacterUnitId": 16
    },
    {
        "id": 125,
        "characterPartyName": "カモノハシ",
        "gameCharacterUnitId": 16
    },
    {
        "id": 126,
        "characterPartyName": "日光苦手",
        "gameCharacterUnitId": 17
    },
    {
        "id": 127,
        "characterPartyName": "体内時計",
        "gameCharacterUnitId": 17
    },
    {
        "id": 128,
        "characterPartyName": "作らなくちゃ",
        "gameCharacterUnitId": 17
    },
    {
        "id": 129,
        "characterPartyName": "Ｋ",
        "gameCharacterUnitId": 17
    },
    {
        "id": 130,
        "characterPartyName": "わからない",
        "gameCharacterUnitId": 18
    },
    {
        "id": 131,
        "characterPartyName": "ポニーテール",
        "gameCharacterUnitId": 18
    },
    {
        "id": 132,
        "characterPartyName": "アクアリウム",
        "gameCharacterUnitId": 18
    },
    {
        "id": 133,
        "characterPartyName": "雪",
        "gameCharacterUnitId": 18
    },
    {
        "id": 134,
        "characterPartyName": "いいね欲しい",
        "gameCharacterUnitId": 19
    },
    {
        "id": 135,
        "characterPartyName": "買ってきて",
        "gameCharacterUnitId": 19
    },
    {
        "id": 136,
        "characterPartyName": "今日のタグは",
        "gameCharacterUnitId": 19
    },
    {
        "id": 137,
        "characterPartyName": "えななん",
        "gameCharacterUnitId": 19
    },
    {
        "id": 138,
        "characterPartyName": "ふーふーしよ",
        "gameCharacterUnitId": 20
    },
    {
        "id": 139,
        "characterPartyName": "カワイイ最高",
        "gameCharacterUnitId": 20
    },
    {
        "id": 140,
        "characterPartyName": "アニメ好き",
        "gameCharacterUnitId": 20
    },
    {
        "id": 141,
        "characterPartyName": "Amia",
        "gameCharacterUnitId": 20
    },
    {
        "id": 142,
        "characterPartyName": "みんなの歌姫",
        "gameCharacterUnitId": 21
    },
    {
        "id": 143,
        "characterPartyName": "ネギって何",
        "gameCharacterUnitId": 21
    },
    {
        "id": 144,
        "characterPartyName": "元気いっぱい",
        "gameCharacterUnitId": 22
    },
    {
        "id": 145,
        "characterPartyName": "大きいリボン",
        "gameCharacterUnitId": 22
    },
    {
        "id": 146,
        "characterPartyName": "はつらつ",
        "gameCharacterUnitId": 23
    },
    {
        "id": 147,
        "characterPartyName": "ミステリアス",
        "gameCharacterUnitId": 24
    },
    {
        "id": 148,
        "characterPartyName": "お姉さま",
        "gameCharacterUnitId": 24
    },
    {
        "id": 149,
        "characterPartyName": "姉御肌",
        "gameCharacterUnitId": 25
    },
    {
        "id": 150,
        "characterPartyName": "パワフル",
        "gameCharacterUnitId": 25
    },
    {
        "id": 151,
        "characterPartyName": "青マフラー",
        "gameCharacterUnitId": 26
    },
    {
        "id": 152,
        "characterPartyName": "時々へたれる",
        "gameCharacterUnitId": 26
    },
    {
        "id": 153,
        "characterPartyName": "安全ピン",
        "gameCharacterUnitId": 27
    },
    {
        "id": 154,
        "characterPartyName": "実はハネっ毛",
        "gameCharacterUnitId": 27
    },
    {
        "id": 155,
        "characterPartyName": "衣装いろいろ",
        "gameCharacterUnitId": 28
    },
    {
        "id": 156,
        "characterPartyName": "お団子結び",
        "gameCharacterUnitId": 29
    },
    {
        "id": 157,
        "characterPartyName": "余裕の笑み",
        "gameCharacterUnitId": 29
    },
    {
        "id": 159,
        "characterPartyName": "おほしさま",
        "gameCharacterUnitId": 30
    },
    {
        "id": 160,
        "characterPartyName": "オッドアイ",
        "gameCharacterUnitId": 31
    },
    {
        "id": 161,
        "characterPartyName": "ホワイトヘア",
        "gameCharacterUnitId": 31
    },
    {
        "id": 162,
        "characterPartyName": "みんなの先輩",
        "gameCharacterUnitId": 42
    },
    {
        "id": 163,
        "characterPartyName": "ザ・お姉さま",
        "gameCharacterUnitId": 42
    },
    {
        "id": 164,
        "characterPartyName": "頼りがいの塊",
        "gameCharacterUnitId": 47
    },
    {
        "id": 165,
        "characterPartyName": "イケメン部長",
        "gameCharacterUnitId": 47
    },
    {
        "id": 166,
        "characterPartyName": "キラキラ笑顔",
        "gameCharacterUnitId": 33
    },
    {
        "id": 167,
        "characterPartyName": "新米アイドル",
        "gameCharacterUnitId": 33
    },
    {
        "id": 168,
        "characterPartyName": "格子柄リボン",
        "gameCharacterUnitId": 33
    },
    {
        "id": 169,
        "characterPartyName": "ほっぺ柔らか",
        "gameCharacterUnitId": 43
    },
    {
        "id": 170,
        "characterPartyName": "カリスマ",
        "gameCharacterUnitId": 43
    },
    {
        "id": 171,
        "characterPartyName": "実はおちゃめ",
        "gameCharacterUnitId": 43
    },
    {
        "id": 172,
        "characterPartyName": "やんちゃ少女",
        "gameCharacterUnitId": 34
    },
    {
        "id": 173,
        "characterPartyName": "DJガール",
        "gameCharacterUnitId": 34
    },
    {
        "id": 174,
        "characterPartyName": "クールリボン",
        "gameCharacterUnitId": 34
    },
    {
        "id": 175,
        "characterPartyName": "やんちゃ少年",
        "gameCharacterUnitId": 39
    },
    {
        "id": 176,
        "characterPartyName": "DJボーイ",
        "gameCharacterUnitId": 39
    },
    {
        "id": 177,
        "characterPartyName": "背伸びしたい",
        "gameCharacterUnitId": 39
    },
    {
        "id": 178,
        "characterPartyName": "いらっしゃい",
        "gameCharacterUnitId": 49
    },
    {
        "id": 179,
        "characterPartyName": "マスターさん",
        "gameCharacterUnitId": 49
    },
    {
        "id": 180,
        "characterPartyName": "うさ耳リボン",
        "gameCharacterUnitId": 35
    },
    {
        "id": 181,
        "characterPartyName": "ふわふわ笑顔",
        "gameCharacterUnitId": 35
    },
    {
        "id": 182,
        "characterPartyName": "爆弾ガール",
        "gameCharacterUnitId": 35
    },
    {
        "id": 183,
        "characterPartyName": "ショー大好き",
        "gameCharacterUnitId": 40
    },
    {
        "id": 184,
        "characterPartyName": "みんなの姉御",
        "gameCharacterUnitId": 50
    },
    {
        "id": 185,
        "characterPartyName": "ドカンと豪快",
        "gameCharacterUnitId": 50
    },
    {
        "id": 186,
        "characterPartyName": "赤い竜巻",
        "gameCharacterUnitId": 50
    },
    {
        "id": 187,
        "characterPartyName": "王子の風格",
        "gameCharacterUnitId": 55
    },
    {
        "id": 188,
        "characterPartyName": "振り回され役",
        "gameCharacterUnitId": 55
    },
    {
        "id": 189,
        "characterPartyName": "セカイの座長",
        "gameCharacterUnitId": 55
    },
    {
        "id": 190,
        "characterPartyName": "さみしがり",
        "gameCharacterUnitId": 36
    },
    {
        "id": 191,
        "characterPartyName": "素直じゃない",
        "gameCharacterUnitId": 36
    },
    {
        "id": 192,
        "characterPartyName": "くすみリボン",
        "gameCharacterUnitId": 36
    },
    {
        "id": 193,
        "characterPartyName": "すやすやぐー",
        "gameCharacterUnitId": 45
    },
    {
        "id": 194,
        "characterPartyName": "寝るの大好き",
        "gameCharacterUnitId": 45
    },
    {
        "id": 195,
        "characterPartyName": "ひつじさん",
        "gameCharacterUnitId": 45
    },
    {
        "id": 196,
        "characterPartyName": "必要な距離",
        "gameCharacterUnitId": 51
    },
    {
        "id": 197,
        "characterPartyName": "見守る目",
        "gameCharacterUnitId": 51
    },
    {
        "id": 198,
        "characterPartyName": "灰色ドレス",
        "gameCharacterUnitId": 51
    },
    {
        "id": 199,
        "characterPartyName": "DJの師匠",
        "gameCharacterUnitId": 54
    },
    {
        "id": 200,
        "characterPartyName": "陽気",
        "gameCharacterUnitId": 54
    },
    {
        "id": 201,
        "characterPartyName": "マニアック",
        "gameCharacterUnitId": 54
    },
    {
        "id": 202,
        "characterPartyName": "素敵な赤色",
        "gameCharacterUnitId": 48
    },
    {
        "id": 203,
        "characterPartyName": "So cute♪",
        "gameCharacterUnitId": 48
    },
    {
        "id": 204,
        "characterPartyName": "はじける元気",
        "gameCharacterUnitId": 48
    },
    {
        "id": 205,
        "characterPartyName": "怪しい微笑",
        "gameCharacterUnitId": 46
    },
    {
        "id": 206,
        "characterPartyName": "謎めいた言動",
        "gameCharacterUnitId": 46
    },
    {
        "id": 207,
        "characterPartyName": "手段は問わず",
        "gameCharacterUnitId": 46
    },
    {
        "id": 208,
        "characterPartyName": "ギャル系",
        "gameCharacterUnitId": 32
    },
    {
        "id": 209,
        "characterPartyName": "お調子者",
        "gameCharacterUnitId": 32
    },
    {
        "id": 210,
        "characterPartyName": "萌え袖",
        "gameCharacterUnitId": 32
    },
    {
        "id": 211,
        "characterPartyName": "私は歌える！",
        "gameCharacterUnitId": 9
    },
    {
        "id": 212,
        "characterPartyName": "キラキラ王子",
        "gameCharacterUnitId": 38
    },
    {
        "id": 213,
        "characterPartyName": "性格もイケメン",
        "gameCharacterUnitId": 38
    },
    {
        "id": 214,
        "characterPartyName": "基本神対応",
        "gameCharacterUnitId": 38
    },
    {
        "id": 215,
        "characterPartyName": "シャイ",
        "gameCharacterUnitId": 52
    },
    {
        "id": 216,
        "characterPartyName": "音で語る",
        "gameCharacterUnitId": 52
    },
    {
        "id": 217,
        "characterPartyName": "メガネ男子",
        "gameCharacterUnitId": 52
    },
    {
        "id": 218,
        "characterPartyName": "意外と冷静",
        "gameCharacterUnitId": 37
    },
    {
        "id": 219,
        "characterPartyName": "上昇志向",
        "gameCharacterUnitId": 37
    },
    {
        "id": 220,
        "characterPartyName": "まっすぐ男子",
        "gameCharacterUnitId": 37
    },
    {
        "id": 221,
        "characterPartyName": "マネージャー",
        "gameCharacterUnitId": 53
    },
    {
        "id": 222,
        "characterPartyName": "アイドル好き",
        "gameCharacterUnitId": 53
    },
    {
        "id": 223,
        "characterPartyName": "表でも裏でも",
        "gameCharacterUnitId": 53
    },
    {
        "id": 224,
        "characterPartyName": "自由人",
        "gameCharacterUnitId": 44
    },
    {
        "id": 225,
        "characterPartyName": "朗らか",
        "gameCharacterUnitId": 44
    },
    {
        "id": 226,
        "characterPartyName": "へそ出し",
        "gameCharacterUnitId": 44
    },
    {
        "id": 227,
        "characterPartyName": "臆病な少年",
        "gameCharacterUnitId": 41
    },
    {
        "id": 228,
        "characterPartyName": "背に隠れがち",
        "gameCharacterUnitId": 41
    },
    {
        "id": 229,
        "characterPartyName": "共感力が高い",
        "gameCharacterUnitId": 41
    }
]