[
    {
        "id": 1,
        "eventId": 18,
        "cheerfulCarnivalTeamId": 1,
        "resourceBoxId": 1
    },
    {
        "id": 2,
        "eventId": 18,
        "cheerfulCarnivalTeamId": 2,
        "resourceBoxId": 2
    },
    {
        "id": 3,
        "eventId": 21,
        "cheerfulCarnivalTeamId": 3,
        "resourceBoxId": 3
    },
    {
        "id": 4,
        "eventId": 21,
        "cheerfulCarnivalTeamId": 4,
        "resourceBoxId": 4
    },
    {
        "id": 5,
        "eventId": 24,
        "cheerfulCarnivalTeamId": 5,
        "resourceBoxId": 5
    },
    {
        "id": 6,
        "eventId": 24,
        "cheerfulCarnivalTeamId": 6,
        "resourceBoxId": 6
    },
    {
        "id": 7,
        "eventId": 27,
        "cheerfulCarnivalTeamId": 7,
        "resourceBoxId": 7
    },
    {
        "id": 8,
        "eventId": 27,
        "cheerfulCarnivalTeamId": 8,
        "resourceBoxId": 8
    },
    {
        "id": 9,
        "eventId": 30,
        "cheerfulCarnivalTeamId": 9,
        "resourceBoxId": 9
    },
    {
        "id": 10,
        "eventId": 30,
        "cheerfulCarnivalTeamId": 10,
        "resourceBoxId": 10
    },
    {
        "id": 11,
        "eventId": 33,
        "cheerfulCarnivalTeamId": 11,
        "resourceBoxId": 11
    },
    {
        "id": 12,
        "eventId": 33,
        "cheerfulCarnivalTeamId": 12,
        "resourceBoxId": 12
    },
    {
        "id": 13,
        "eventId": 36,
        "cheerfulCarnivalTeamId": 13,
        "resourceBoxId": 13
    },
    {
        "id": 14,
        "eventId": 36,
        "cheerfulCarnivalTeamId": 14,
        "resourceBoxId": 14
    },
    {
        "id": 15,
        "eventId": 39,
        "cheerfulCarnivalTeamId": 15,
        "resourceBoxId": 15
    },
    {
        "id": 16,
        "eventId": 39,
        "cheerfulCarnivalTeamId": 16,
        "resourceBoxId": 16
    },
    {
        "id": 17,
        "eventId": 42,
        "cheerfulCarnivalTeamId": 17,
        "resourceBoxId": 17
    },
    {
        "id": 18,
        "eventId": 42,
        "cheerfulCarnivalTeamId": 18,
        "resourceBoxId": 18
    },
    {
        "id": 19,
        "eventId": 45,
        "cheerfulCarnivalTeamId": 19,
        "resourceBoxId": 19
    },
    {
        "id": 20,
        "eventId": 45,
        "cheerfulCarnivalTeamId": 20,
        "resourceBoxId": 20
    },
    {
        "id": 21,
        "eventId": 48,
        "cheerfulCarnivalTeamId": 21,
        "resourceBoxId": 21
    },
    {
        "id": 22,
        "eventId": 48,
        "cheerfulCarnivalTeamId": 22,
        "resourceBoxId": 22
    },
    {
        "id": 23,
        "eventId": 51,
        "cheerfulCarnivalTeamId": 23,
        "resourceBoxId": 23
    },
    {
        "id": 24,
        "eventId": 51,
        "cheerfulCarnivalTeamId": 24,
        "resourceBoxId": 24
    },
    {
        "id": 25,
        "eventId": 54,
        "cheerfulCarnivalTeamId": 25,
        "resourceBoxId": 25
    },
    {
        "id": 26,
        "eventId": 54,
        "cheerfulCarnivalTeamId": 26,
        "resourceBoxId": 26
    },
    {
        "id": 27,
        "eventId": 57,
        "cheerfulCarnivalTeamId": 27,
        "resourceBoxId": 27
    },
    {
        "id": 28,
        "eventId": 57,
        "cheerfulCarnivalTeamId": 28,
        "resourceBoxId": 28
    },
    {
        "id": 29,
        "eventId": 60,
        "cheerfulCarnivalTeamId": 29,
        "resourceBoxId": 29
    },
    {
        "id": 30,
        "eventId": 60,
        "cheerfulCarnivalTeamId": 30,
        "resourceBoxId": 30
    },
    {
        "id": 31,
        "eventId": 63,
        "cheerfulCarnivalTeamId": 31,
        "resourceBoxId": 31
    },
    {
        "id": 32,
        "eventId": 63,
        "cheerfulCarnivalTeamId": 32,
        "resourceBoxId": 32
    },
    {
        "id": 33,
        "eventId": 66,
        "cheerfulCarnivalTeamId": 33,
        "resourceBoxId": 33
    },
    {
        "id": 34,
        "eventId": 66,
        "cheerfulCarnivalTeamId": 34,
        "resourceBoxId": 34
    },
    {
        "id": 35,
        "eventId": 69,
        "cheerfulCarnivalTeamId": 35,
        "resourceBoxId": 35
    },
    {
        "id": 36,
        "eventId": 69,
        "cheerfulCarnivalTeamId": 36,
        "resourceBoxId": 36
    },
    {
        "id": 37,
        "eventId": 72,
        "cheerfulCarnivalTeamId": 37,
        "resourceBoxId": 37
    },
    {
        "id": 38,
        "eventId": 72,
        "cheerfulCarnivalTeamId": 38,
        "resourceBoxId": 38
    },
    {
        "id": 39,
        "eventId": 75,
        "cheerfulCarnivalTeamId": 39,
        "resourceBoxId": 39
    },
    {
        "id": 40,
        "eventId": 75,
        "cheerfulCarnivalTeamId": 40,
        "resourceBoxId": 40
    },
    {
        "id": 41,
        "eventId": 78,
        "cheerfulCarnivalTeamId": 41,
        "resourceBoxId": 41
    },
    {
        "id": 42,
        "eventId": 78,
        "cheerfulCarnivalTeamId": 42,
        "resourceBoxId": 42
    }
]