[
    {
        "customProfileResourceType": "collection",
        "id": 1,
        "seq": 10,
        "name": "おみくじ",
        "resourceLoadType": "assetbundle",
        "resourceLoadVal": "lottery_game/new_year_2022",
        "fileName": "Prefabs/Omikuji",
        "customProfileResourceCollectionType": "omikuji",
        "groupId": 1
    },
    {
        "customProfileResourceType": "collection",
        "id": 2,
        "seq": 20,
        "name": "バーチャル・シンガーの絵馬",
        "resourceLoadType": "assetbundle",
        "resourceLoadVal": "custom_profile/other/ema",
        "fileName": "ema_piapro"
    },
    {
        "customProfileResourceType": "collection",
        "id": 3,
        "seq": 30,
        "name": "Leo/needの絵馬",
        "resourceLoadType": "assetbundle",
        "resourceLoadVal": "custom_profile/other/ema",
        "fileName": "ema_leoneed"
    },
    {
        "customProfileResourceType": "collection",
        "id": 4,
        "seq": 40,
        "name": "MORE MORE JUMP！の絵馬",
        "resourceLoadType": "assetbundle",
        "resourceLoadVal": "custom_profile/other/ema",
        "fileName": "ema_morejump"
    },
    {
        "customProfileResourceType": "collection",
        "id": 5,
        "seq": 50,
        "name": "Vivid BAD SQUADの絵馬",
        "resourceLoadType": "assetbundle",
        "resourceLoadVal": "custom_profile/other/ema",
        "fileName": "ema_vivibad"
    },
    {
        "customProfileResourceType": "collection",
        "id": 6,
        "seq": 60,
        "name": "ワンダーランズ×ショウタイムの絵馬",
        "resourceLoadType": "assetbundle",
        "resourceLoadVal": "custom_profile/other/ema",
        "fileName": "ema_wonder"
    },
    {
        "customProfileResourceType": "collection",
        "id": 7,
        "seq": 70,
        "name": "25時、ナイトコードで。の絵馬",
        "resourceLoadType": "assetbundle",
        "resourceLoadVal": "custom_profile/other/ema",
        "fileName": "ema_25night"
    },
    {
        "customProfileResourceType": "collection",
        "id": 8,
        "seq": 80,
        "name": "ミクの絵馬",
        "resourceLoadType": "assetbundle",
        "resourceLoadVal": "custom_profile/other/ema",
        "fileName": "ema_miku"
    },
    {
        "customProfileResourceType": "collection",
        "id": 9,
        "seq": 90,
        "name": "リンの絵馬",
        "resourceLoadType": "assetbundle",
        "resourceLoadVal": "custom_profile/other/ema",
        "fileName": "ema_rin"
    },
    {
        "customProfileResourceType": "collection",
        "id": 10,
        "seq": 100,
        "name": "レンの絵馬",
        "resourceLoadType": "assetbundle",
        "resourceLoadVal": "custom_profile/other/ema",
        "fileName": "ema_len"
    },
    {
        "customProfileResourceType": "collection",
        "id": 11,
        "seq": 110,
        "name": "ルカの絵馬",
        "resourceLoadType": "assetbundle",
        "resourceLoadVal": "custom_profile/other/ema",
        "fileName": "ema_luka"
    },
    {
        "customProfileResourceType": "collection",
        "id": 12,
        "seq": 120,
        "name": "MEIKOの絵馬",
        "resourceLoadType": "assetbundle",
        "resourceLoadVal": "custom_profile/other/ema",
        "fileName": "ema_meiko"
    },
    {
        "customProfileResourceType": "collection",
        "id": 13,
        "seq": 130,
        "name": "KAITOの絵馬",
        "resourceLoadType": "assetbundle",
        "resourceLoadVal": "custom_profile/other/ema",
        "fileName": "ema_kaito"
    },
    {
        "customProfileResourceType": "collection",
        "id": 14,
        "seq": 140,
        "name": "一歌の絵馬",
        "resourceLoadType": "assetbundle",
        "resourceLoadVal": "custom_profile/other/ema",
        "fileName": "ema_ichika"
    },
    {
        "customProfileResourceType": "collection",
        "id": 15,
        "seq": 150,
        "name": "咲希の絵馬",
        "resourceLoadType": "assetbundle",
        "resourceLoadVal": "custom_profile/other/ema",
        "fileName": "ema_saki"
    },
    {
        "customProfileResourceType": "collection",
        "id": 16,
        "seq": 160,
        "name": "穂波の絵馬",
        "resourceLoadType": "assetbundle",
        "resourceLoadVal": "custom_profile/other/ema",
        "fileName": "ema_honami"
    },
    {
        "customProfileResourceType": "collection",
        "id": 17,
        "seq": 170,
        "name": "志歩の絵馬",
        "resourceLoadType": "assetbundle",
        "resourceLoadVal": "custom_profile/other/ema",
        "fileName": "ema_shiho"
    },
    {
        "customProfileResourceType": "collection",
        "id": 18,
        "seq": 180,
        "name": "みのりの絵馬",
        "resourceLoadType": "assetbundle",
        "resourceLoadVal": "custom_profile/other/ema",
        "fileName": "ema_minori"
    },
    {
        "customProfileResourceType": "collection",
        "id": 19,
        "seq": 190,
        "name": "遥の絵馬",
        "resourceLoadType": "assetbundle",
        "resourceLoadVal": "custom_profile/other/ema",
        "fileName": "ema_haruka"
    },
    {
        "customProfileResourceType": "collection",
        "id": 20,
        "seq": 200,
        "name": "愛莉の絵馬",
        "resourceLoadType": "assetbundle",
        "resourceLoadVal": "custom_profile/other/ema",
        "fileName": "ema_airi"
    },
    {
        "customProfileResourceType": "collection",
        "id": 21,
        "seq": 210,
        "name": "雫の絵馬",
        "resourceLoadType": "assetbundle",
        "resourceLoadVal": "custom_profile/other/ema",
        "fileName": "ema_shizuku"
    },
    {
        "customProfileResourceType": "collection",
        "id": 22,
        "seq": 220,
        "name": "こはねの絵馬",
        "resourceLoadType": "assetbundle",
        "resourceLoadVal": "custom_profile/other/ema",
        "fileName": "ema_kohane"
    },
    {
        "customProfileResourceType": "collection",
        "id": 23,
        "seq": 230,
        "name": "杏の絵馬",
        "resourceLoadType": "assetbundle",
        "resourceLoadVal": "custom_profile/other/ema",
        "fileName": "ema_an"
    },
    {
        "customProfileResourceType": "collection",
        "id": 24,
        "seq": 240,
        "name": "彰人の絵馬",
        "resourceLoadType": "assetbundle",
        "resourceLoadVal": "custom_profile/other/ema",
        "fileName": "ema_akito"
    },
    {
        "customProfileResourceType": "collection",
        "id": 25,
        "seq": 250,
        "name": "冬弥の絵馬",
        "resourceLoadType": "assetbundle",
        "resourceLoadVal": "custom_profile/other/ema",
        "fileName": "ema_toya"
    },
    {
        "customProfileResourceType": "collection",
        "id": 26,
        "seq": 260,
        "name": "司の絵馬",
        "resourceLoadType": "assetbundle",
        "resourceLoadVal": "custom_profile/other/ema",
        "fileName": "ema_tukasa"
    },
    {
        "customProfileResourceType": "collection",
        "id": 27,
        "seq": 270,
        "name": "えむの絵馬",
        "resourceLoadType": "assetbundle",
        "resourceLoadVal": "custom_profile/other/ema",
        "fileName": "ema_emu"
    },
    {
        "customProfileResourceType": "collection",
        "id": 28,
        "seq": 280,
        "name": "寧々の絵馬",
        "resourceLoadType": "assetbundle",
        "resourceLoadVal": "custom_profile/other/ema",
        "fileName": "ema_nene"
    },
    {
        "customProfileResourceType": "collection",
        "id": 29,
        "seq": 290,
        "name": "類の絵馬",
        "resourceLoadType": "assetbundle",
        "resourceLoadVal": "custom_profile/other/ema",
        "fileName": "ema_rui"
    },
    {
        "customProfileResourceType": "collection",
        "id": 30,
        "seq": 300,
        "name": "奏の絵馬",
        "resourceLoadType": "assetbundle",
        "resourceLoadVal": "custom_profile/other/ema",
        "fileName": "ema_kanade"
    },
    {
        "customProfileResourceType": "collection",
        "id": 31,
        "seq": 310,
        "name": "まふゆの絵馬",
        "resourceLoadType": "assetbundle",
        "resourceLoadVal": "custom_profile/other/ema",
        "fileName": "ema_mafuyu"
    },
    {
        "customProfileResourceType": "collection",
        "id": 32,
        "seq": 320,
        "name": "絵名の絵馬",
        "resourceLoadType": "assetbundle",
        "resourceLoadVal": "custom_profile/other/ema",
        "fileName": "ema_ena"
    },
    {
        "customProfileResourceType": "collection",
        "id": 33,
        "seq": 330,
        "name": "瑞希の絵馬",
        "resourceLoadType": "assetbundle",
        "resourceLoadVal": "custom_profile/other/ema",
        "fileName": "ema_mizuki"
    },
    {
        "customProfileResourceType": "collection",
        "id": 34,
        "seq": 340,
        "name": "バーチャル・シンガーのお守り",
        "resourceLoadType": "assetbundle",
        "resourceLoadVal": "custom_profile/other/amulet",
        "fileName": "amulet_piapro"
    },
    {
        "customProfileResourceType": "collection",
        "id": 35,
        "seq": 350,
        "name": "Leo/needのお守り",
        "resourceLoadType": "assetbundle",
        "resourceLoadVal": "custom_profile/other/amulet",
        "fileName": "amulet_leoneed"
    },
    {
        "customProfileResourceType": "collection",
        "id": 36,
        "seq": 360,
        "name": "MORE MORE JUMP！のお守り",
        "resourceLoadType": "assetbundle",
        "resourceLoadVal": "custom_profile/other/amulet",
        "fileName": "amulet_morejump"
    },
    {
        "customProfileResourceType": "collection",
        "id": 37,
        "seq": 370,
        "name": "Vivid BAD SQUADのお守り",
        "resourceLoadType": "assetbundle",
        "resourceLoadVal": "custom_profile/other/amulet",
        "fileName": "amulet_vivibad"
    },
    {
        "customProfileResourceType": "collection",
        "id": 38,
        "seq": 380,
        "name": "ワンダーランズ×ショウタイムのお守り",
        "resourceLoadType": "assetbundle",
        "resourceLoadVal": "custom_profile/other/amulet",
        "fileName": "amulet_wonder"
    },
    {
        "customProfileResourceType": "collection",
        "id": 39,
        "seq": 390,
        "name": "25時、ナイトコードで。のお守り",
        "resourceLoadType": "assetbundle",
        "resourceLoadVal": "custom_profile/other/amulet",
        "fileName": "amulet_25night"
    },
    {
        "customProfileResourceType": "collection",
        "id": 40,
        "seq": 400,
        "name": "ミクのお守り",
        "resourceLoadType": "assetbundle",
        "resourceLoadVal": "custom_profile/other/amulet",
        "fileName": "amulet_miku"
    },
    {
        "customProfileResourceType": "collection",
        "id": 41,
        "seq": 410,
        "name": "リンのお守り",
        "resourceLoadType": "assetbundle",
        "resourceLoadVal": "custom_profile/other/amulet",
        "fileName": "amulet_rin"
    },
    {
        "customProfileResourceType": "collection",
        "id": 42,
        "seq": 420,
        "name": "レンのお守り",
        "resourceLoadType": "assetbundle",
        "resourceLoadVal": "custom_profile/other/amulet",
        "fileName": "amulet_len"
    },
    {
        "customProfileResourceType": "collection",
        "id": 43,
        "seq": 430,
        "name": "ルカのお守り",
        "resourceLoadType": "assetbundle",
        "resourceLoadVal": "custom_profile/other/amulet",
        "fileName": "amulet_luka"
    },
    {
        "customProfileResourceType": "collection",
        "id": 44,
        "seq": 440,
        "name": "MEIKOのお守り",
        "resourceLoadType": "assetbundle",
        "resourceLoadVal": "custom_profile/other/amulet",
        "fileName": "amulet_meiko"
    },
    {
        "customProfileResourceType": "collection",
        "id": 45,
        "seq": 450,
        "name": "KAITOのお守り",
        "resourceLoadType": "assetbundle",
        "resourceLoadVal": "custom_profile/other/amulet",
        "fileName": "amulet_kaito"
    },
    {
        "customProfileResourceType": "collection",
        "id": 46,
        "seq": 460,
        "name": "一歌のお守り",
        "resourceLoadType": "assetbundle",
        "resourceLoadVal": "custom_profile/other/amulet",
        "fileName": "amulet_ichika"
    },
    {
        "customProfileResourceType": "collection",
        "id": 47,
        "seq": 470,
        "name": "咲希のお守り",
        "resourceLoadType": "assetbundle",
        "resourceLoadVal": "custom_profile/other/amulet",
        "fileName": "amulet_saki"
    },
    {
        "customProfileResourceType": "collection",
        "id": 48,
        "seq": 480,
        "name": "穂波のお守り",
        "resourceLoadType": "assetbundle",
        "resourceLoadVal": "custom_profile/other/amulet",
        "fileName": "amulet_honami"
    },
    {
        "customProfileResourceType": "collection",
        "id": 49,
        "seq": 490,
        "name": "志歩のお守り",
        "resourceLoadType": "assetbundle",
        "resourceLoadVal": "custom_profile/other/amulet",
        "fileName": "amulet_shiho"
    },
    {
        "customProfileResourceType": "collection",
        "id": 50,
        "seq": 500,
        "name": "みのりのお守り",
        "resourceLoadType": "assetbundle",
        "resourceLoadVal": "custom_profile/other/amulet",
        "fileName": "amulet_minori"
    },
    {
        "customProfileResourceType": "collection",
        "id": 51,
        "seq": 510,
        "name": "遥のお守り",
        "resourceLoadType": "assetbundle",
        "resourceLoadVal": "custom_profile/other/amulet",
        "fileName": "amulet_haruka"
    },
    {
        "customProfileResourceType": "collection",
        "id": 52,
        "seq": 520,
        "name": "愛莉のお守り",
        "resourceLoadType": "assetbundle",
        "resourceLoadVal": "custom_profile/other/amulet",
        "fileName": "amulet_airi"
    },
    {
        "customProfileResourceType": "collection",
        "id": 53,
        "seq": 530,
        "name": "雫のお守り",
        "resourceLoadType": "assetbundle",
        "resourceLoadVal": "custom_profile/other/amulet",
        "fileName": "amulet_shizuku"
    },
    {
        "customProfileResourceType": "collection",
        "id": 54,
        "seq": 540,
        "name": "こはねのお守り",
        "resourceLoadType": "assetbundle",
        "resourceLoadVal": "custom_profile/other/amulet",
        "fileName": "amulet_kohane"
    },
    {
        "customProfileResourceType": "collection",
        "id": 55,
        "seq": 550,
        "name": "杏のお守り",
        "resourceLoadType": "assetbundle",
        "resourceLoadVal": "custom_profile/other/amulet",
        "fileName": "amulet_an"
    },
    {
        "customProfileResourceType": "collection",
        "id": 56,
        "seq": 560,
        "name": "彰人のお守り",
        "resourceLoadType": "assetbundle",
        "resourceLoadVal": "custom_profile/other/amulet",
        "fileName": "amulet_akito"
    },
    {
        "customProfileResourceType": "collection",
        "id": 57,
        "seq": 570,
        "name": "冬弥のお守り",
        "resourceLoadType": "assetbundle",
        "resourceLoadVal": "custom_profile/other/amulet",
        "fileName": "amulet_toya"
    },
    {
        "customProfileResourceType": "collection",
        "id": 58,
        "seq": 580,
        "name": "司のお守り",
        "resourceLoadType": "assetbundle",
        "resourceLoadVal": "custom_profile/other/amulet",
        "fileName": "amulet_tukasa"
    },
    {
        "customProfileResourceType": "collection",
        "id": 59,
        "seq": 590,
        "name": "えむのお守り",
        "resourceLoadType": "assetbundle",
        "resourceLoadVal": "custom_profile/other/amulet",
        "fileName": "amulet_emu"
    },
    {
        "customProfileResourceType": "collection",
        "id": 60,
        "seq": 600,
        "name": "寧々のお守り",
        "resourceLoadType": "assetbundle",
        "resourceLoadVal": "custom_profile/other/amulet",
        "fileName": "amulet_nene"
    },
    {
        "customProfileResourceType": "collection",
        "id": 61,
        "seq": 610,
        "name": "類のお守り",
        "resourceLoadType": "assetbundle",
        "resourceLoadVal": "custom_profile/other/amulet",
        "fileName": "amulet_rui"
    },
    {
        "customProfileResourceType": "collection",
        "id": 62,
        "seq": 620,
        "name": "奏のお守り",
        "resourceLoadType": "assetbundle",
        "resourceLoadVal": "custom_profile/other/amulet",
        "fileName": "amulet_kanade"
    },
    {
        "customProfileResourceType": "collection",
        "id": 63,
        "seq": 630,
        "name": "まふゆのお守り",
        "resourceLoadType": "assetbundle",
        "resourceLoadVal": "custom_profile/other/amulet",
        "fileName": "amulet_mafuyu"
    },
    {
        "customProfileResourceType": "collection",
        "id": 64,
        "seq": 640,
        "name": "絵名のお守り",
        "resourceLoadType": "assetbundle",
        "resourceLoadVal": "custom_profile/other/amulet",
        "fileName": "amulet_ena"
    },
    {
        "customProfileResourceType": "collection",
        "id": 65,
        "seq": 650,
        "name": "瑞希のお守り",
        "resourceLoadType": "assetbundle",
        "resourceLoadVal": "custom_profile/other/amulet",
        "fileName": "amulet_mizuki"
    },
    {
        "customProfileResourceType": "collection",
        "id": 66,
        "seq": 660,
        "name": "「CRASH」銀テープ",
        "resourceLoadType": "assetbundle",
        "resourceLoadVal": "custom_profile/collection/crash",
        "fileName": "crash_tape"
    },
    {
        "customProfileResourceType": "collection",
        "id": 67,
        "seq": 670,
        "name": "「CRASH」ライブロゴステッカー",
        "resourceLoadType": "assetbundle",
        "resourceLoadVal": "custom_profile/collection/crash",
        "fileName": "crash_logo"
    },
    {
        "customProfileResourceType": "collection",
        "id": 68,
        "seq": 680,
        "name": "「CRASH」キービジュアルステッカー",
        "resourceLoadType": "assetbundle",
        "resourceLoadVal": "custom_profile/collection/crash",
        "fileName": "crash_keyvisual"
    },
    {
        "customProfileResourceType": "collection",
        "id": 69,
        "seq": 690,
        "name": "「CRASH」タペストリー",
        "resourceLoadType": "assetbundle",
        "resourceLoadVal": "custom_profile/collection/crash",
        "fileName": "crash_tapestry"
    },
    {
        "customProfileResourceType": "collection",
        "id": 70,
        "seq": 700,
        "name": "「CRASH」こはねの缶バッジ",
        "resourceLoadType": "assetbundle",
        "resourceLoadVal": "custom_profile/collection/crash",
        "fileName": "crash_kohane_canbadge",
        "customProfileResourceCollectionType": "can_badge"
    },
    {
        "customProfileResourceType": "collection",
        "id": 71,
        "seq": 710,
        "name": "「CRASH」杏の缶バッジ",
        "resourceLoadType": "assetbundle",
        "resourceLoadVal": "custom_profile/collection/crash",
        "fileName": "crash_an_canbadge",
        "customProfileResourceCollectionType": "can_badge"
    },
    {
        "customProfileResourceType": "collection",
        "id": 72,
        "seq": 720,
        "name": "「CRASH」彰人の缶バッジ",
        "resourceLoadType": "assetbundle",
        "resourceLoadVal": "custom_profile/collection/crash",
        "fileName": "crash_akito_canbadge",
        "customProfileResourceCollectionType": "can_badge"
    },
    {
        "customProfileResourceType": "collection",
        "id": 73,
        "seq": 730,
        "name": "「CRASH」冬弥の缶バッジ",
        "resourceLoadType": "assetbundle",
        "resourceLoadVal": "custom_profile/collection/crash",
        "fileName": "crash_toya_canbadge",
        "customProfileResourceCollectionType": "can_badge"
    },
    {
        "customProfileResourceType": "collection",
        "id": 74,
        "seq": 740,
        "name": "「CRASH」ミクの缶バッジ",
        "resourceLoadType": "assetbundle",
        "resourceLoadVal": "custom_profile/collection/crash",
        "fileName": "crash_miku_canbadge",
        "customProfileResourceCollectionType": "can_badge"
    },
    {
        "customProfileResourceType": "collection",
        "id": 75,
        "seq": 750,
        "name": "「CRASH」レンの缶バッジ",
        "resourceLoadType": "assetbundle",
        "resourceLoadVal": "custom_profile/collection/crash",
        "fileName": "crash_len_canbadge",
        "customProfileResourceCollectionType": "can_badge"
    },
    {
        "customProfileResourceType": "collection",
        "id": 76,
        "seq": 760,
        "name": "「CRASH」ルカの缶バッジ",
        "resourceLoadType": "assetbundle",
        "resourceLoadVal": "custom_profile/collection/crash",
        "fileName": "crash_luka_canbadge",
        "customProfileResourceCollectionType": "can_badge"
    },
    {
        "customProfileResourceType": "collection",
        "id": 77,
        "seq": 770,
        "name": "「CRASH」KAITOの缶バッジ",
        "resourceLoadType": "assetbundle",
        "resourceLoadVal": "custom_profile/collection/crash",
        "fileName": "crash_kaito_canbadge",
        "customProfileResourceCollectionType": "can_badge"
    },
    {
        "customProfileResourceType": "collection",
        "id": 78,
        "seq": 780,
        "name": "「CRASH」こはねのアクリルスタンド",
        "resourceLoadType": "assetbundle",
        "resourceLoadVal": "custom_profile/collection/crash",
        "fileName": "crash_kohane_acrylicstand"
    },
    {
        "customProfileResourceType": "collection",
        "id": 79,
        "seq": 790,
        "name": "「CRASH」杏のアクリルスタンド",
        "resourceLoadType": "assetbundle",
        "resourceLoadVal": "custom_profile/collection/crash",
        "fileName": "crash_an_acrylicstand"
    },
    {
        "customProfileResourceType": "collection",
        "id": 80,
        "seq": 800,
        "name": "「CRASH」彰人のアクリルスタンド",
        "resourceLoadType": "assetbundle",
        "resourceLoadVal": "custom_profile/collection/crash",
        "fileName": "crash_akito_acrylicstand"
    },
    {
        "customProfileResourceType": "collection",
        "id": 81,
        "seq": 810,
        "name": "「CRASH」冬弥のアクリルスタンド",
        "resourceLoadType": "assetbundle",
        "resourceLoadVal": "custom_profile/collection/crash",
        "fileName": "crash_toya_acrylicstand"
    },
    {
        "customProfileResourceType": "collection",
        "id": 82,
        "seq": 820,
        "name": "「CRASH」ミクのアクリルスタンド",
        "resourceLoadType": "assetbundle",
        "resourceLoadVal": "custom_profile/collection/crash",
        "fileName": "crash_miku_acrylicstand"
    },
    {
        "customProfileResourceType": "collection",
        "id": 83,
        "seq": 830,
        "name": "「CRASH」レンのアクリルスタンド",
        "resourceLoadType": "assetbundle",
        "resourceLoadVal": "custom_profile/collection/crash",
        "fileName": "crash_len_acrylicstand"
    },
    {
        "customProfileResourceType": "collection",
        "id": 84,
        "seq": 840,
        "name": "「CRASH」ルカのアクリルスタンド",
        "resourceLoadType": "assetbundle",
        "resourceLoadVal": "custom_profile/collection/crash",
        "fileName": "crash_luka_acrylicstand"
    },
    {
        "customProfileResourceType": "collection",
        "id": 85,
        "seq": 850,
        "name": "「CRASH」KAITOのアクリルスタンド",
        "resourceLoadType": "assetbundle",
        "resourceLoadVal": "custom_profile/collection/crash",
        "fileName": "crash_kaito_acrylicstand"
    },
    {
        "customProfileResourceType": "collection",
        "id": 86,
        "seq": 860,
        "name": "「CRASH」キーホルダー",
        "resourceLoadType": "assetbundle",
        "resourceLoadVal": "custom_profile/collection/crash",
        "fileName": "crash_keyholder"
    },
    {
        "customProfileResourceType": "collection",
        "id": 87,
        "seq": 870,
        "name": "「CRASH」チケットホルダー",
        "resourceLoadType": "assetbundle",
        "resourceLoadVal": "custom_profile/collection/crash",
        "fileName": "crash_ticketholder"
    },
    {
        "customProfileResourceType": "collection",
        "id": 88,
        "seq": 880,
        "name": "「CRASH」タオル",
        "resourceLoadType": "assetbundle",
        "resourceLoadVal": "custom_profile/collection/crash",
        "fileName": "crash_towel"
    },
    {
        "customProfileResourceType": "collection",
        "id": 89,
        "seq": 890,
        "name": "「2nd ANNIVERSARY SPECIAL STAGE」銀テープ",
        "resourceLoadType": "assetbundle",
        "resourceLoadVal": "custom_profile/collection/2ndanniversary",
        "fileName": "2ndanniversary_tape"
    },
    {
        "customProfileResourceType": "collection",
        "id": 90,
        "seq": 900,
        "name": "「2nd ANNIVERSARY SPECIAL STAGE」ライブロゴステッカー",
        "resourceLoadType": "assetbundle",
        "resourceLoadVal": "custom_profile/collection/2ndanniversary",
        "fileName": "2ndanniversary_logo"
    },
    {
        "customProfileResourceType": "collection",
        "id": 91,
        "seq": 910,
        "name": "「2nd ANNIVERSARY SPECIAL STAGE」キービジュアルステッカー",
        "resourceLoadType": "assetbundle",
        "resourceLoadVal": "custom_profile/collection/2ndanniversary",
        "fileName": "2ndanniversary_keyvisual"
    },
    {
        "customProfileResourceType": "collection",
        "id": 92,
        "seq": 920,
        "name": "「2nd ANNIVERSARY SPECIAL STAGE」バーチャル・シンガー キービジュアルステッカー",
        "resourceLoadType": "assetbundle",
        "resourceLoadVal": "custom_profile/collection/2ndanniversary",
        "fileName": "2ndanniversary_vs_keyvisual"
    },
    {
        "customProfileResourceType": "collection",
        "id": 93,
        "seq": 930,
        "name": "「2nd ANNIVERSARY SPECIAL STAGE」Leo/need キービジュアルステッカー",
        "resourceLoadType": "assetbundle",
        "resourceLoadVal": "custom_profile/collection/2ndanniversary",
        "fileName": "2ndanniversary_ln_keyvisual"
    },
    {
        "customProfileResourceType": "collection",
        "id": 94,
        "seq": 940,
        "name": "「2nd ANNIVERSARY SPECIAL STAGE」MORE MORE JUMP！ キービジュアルステッカー",
        "resourceLoadType": "assetbundle",
        "resourceLoadVal": "custom_profile/collection/2ndanniversary",
        "fileName": "2ndanniversary_mmj_keyvisual"
    },
    {
        "customProfileResourceType": "collection",
        "id": 95,
        "seq": 950,
        "name": "「2nd ANNIVERSARY SPECIAL STAGE」Vivid BAD SQUAD キービジュアルステッカー",
        "resourceLoadType": "assetbundle",
        "resourceLoadVal": "custom_profile/collection/2ndanniversary",
        "fileName": "2ndanniversary_vbs_keyvisual"
    },
    {
        "customProfileResourceType": "collection",
        "id": 96,
        "seq": 960,
        "name": "「2nd ANNIVERSARY SPECIAL STAGE」ワンダーランズ×ショウタイム キービジュアルステッカー",
        "resourceLoadType": "assetbundle",
        "resourceLoadVal": "custom_profile/collection/2ndanniversary",
        "fileName": "2ndanniversary_wlst_keyvisual"
    },
    {
        "customProfileResourceType": "collection",
        "id": 97,
        "seq": 970,
        "name": "「2nd ANNIVERSARY SPECIAL STAGE」25時、ナイトコードで。 キービジュアルステッカー",
        "resourceLoadType": "assetbundle",
        "resourceLoadVal": "custom_profile/collection/2ndanniversary",
        "fileName": "2ndanniversary_25nc_keyvisual"
    },
    {
        "customProfileResourceType": "collection",
        "id": 98,
        "seq": 980,
        "name": "「2nd ANNIVERSARY SPECIAL STAGE」タペストリー",
        "resourceLoadType": "assetbundle",
        "resourceLoadVal": "custom_profile/collection/2ndanniversary",
        "fileName": "2ndanniversary_tapestry"
    },
    {
        "customProfileResourceType": "collection",
        "id": 99,
        "seq": 990,
        "name": "「2nd ANNIVERSARY SPECIAL STAGE」キーホルダー",
        "resourceLoadType": "assetbundle",
        "resourceLoadVal": "custom_profile/collection/2ndanniversary",
        "fileName": "2ndanniversary_keyholder"
    },
    {
        "customProfileResourceType": "collection",
        "id": 100,
        "seq": 1000,
        "name": "「2nd ANNIVERSARY SPECIAL STAGE」チケットホルダー",
        "resourceLoadType": "assetbundle",
        "resourceLoadVal": "custom_profile/collection/2ndanniversary",
        "fileName": "2ndanniversary_ticketholder"
    },
    {
        "customProfileResourceType": "collection",
        "id": 101,
        "seq": 1010,
        "name": "「2nd ANNIVERSARY SPECIAL STAGE」タオル",
        "resourceLoadType": "assetbundle",
        "resourceLoadVal": "custom_profile/collection/2ndanniversary",
        "fileName": "2ndanniversary_towel"
    },
    {
        "customProfileResourceType": "collection",
        "id": 102,
        "seq": 1020,
        "name": "「2nd ANNIVERSARY SPECIAL STAGE」ミクの缶バッジ",
        "resourceLoadType": "assetbundle",
        "resourceLoadVal": "custom_profile/collection/2ndanniversary",
        "fileName": "2ndanniversary_vs_miku_canbatch",
        "customProfileResourceCollectionType": "can_badge"
    },
    {
        "customProfileResourceType": "collection",
        "id": 103,
        "seq": 1030,
        "name": "「2nd ANNIVERSARY SPECIAL STAGE」リンの缶バッジ",
        "resourceLoadType": "assetbundle",
        "resourceLoadVal": "custom_profile/collection/2ndanniversary",
        "fileName": "2ndanniversary_vs_rin_canbatch",
        "customProfileResourceCollectionType": "can_badge"
    },
    {
        "customProfileResourceType": "collection",
        "id": 104,
        "seq": 1040,
        "name": "「2nd ANNIVERSARY SPECIAL STAGE」レンの缶バッジ",
        "resourceLoadType": "assetbundle",
        "resourceLoadVal": "custom_profile/collection/2ndanniversary",
        "fileName": "2ndanniversary_vs_len_canbatch",
        "customProfileResourceCollectionType": "can_badge"
    },
    {
        "customProfileResourceType": "collection",
        "id": 105,
        "seq": 1050,
        "name": "「2nd ANNIVERSARY SPECIAL STAGE」ルカの缶バッジ",
        "resourceLoadType": "assetbundle",
        "resourceLoadVal": "custom_profile/collection/2ndanniversary",
        "fileName": "2ndanniversary_vs_luka_canbatch",
        "customProfileResourceCollectionType": "can_badge"
    },
    {
        "customProfileResourceType": "collection",
        "id": 106,
        "seq": 1060,
        "name": "「2nd ANNIVERSARY SPECIAL STAGE」MEIKOの缶バッジ",
        "resourceLoadType": "assetbundle",
        "resourceLoadVal": "custom_profile/collection/2ndanniversary",
        "fileName": "2ndanniversary_vs_meiko_canbatch",
        "customProfileResourceCollectionType": "can_badge"
    },
    {
        "customProfileResourceType": "collection",
        "id": 107,
        "seq": 1070,
        "name": "「2nd ANNIVERSARY SPECIAL STAGE」KAITOの缶バッジ",
        "resourceLoadType": "assetbundle",
        "resourceLoadVal": "custom_profile/collection/2ndanniversary",
        "fileName": "2ndanniversary_vs_kaito_canbatch",
        "customProfileResourceCollectionType": "can_badge"
    },
    {
        "customProfileResourceType": "collection",
        "id": 108,
        "seq": 1080,
        "name": "「2nd ANNIVERSARY SPECIAL STAGE」ミクのアクリルスタンド",
        "resourceLoadType": "assetbundle",
        "resourceLoadVal": "custom_profile/collection/2ndanniversary",
        "fileName": "2ndanniversary_vs_miku_acrylicstand"
    },
    {
        "customProfileResourceType": "collection",
        "id": 109,
        "seq": 1090,
        "name": "「2nd ANNIVERSARY SPECIAL STAGE」リンのアクリルスタンド",
        "resourceLoadType": "assetbundle",
        "resourceLoadVal": "custom_profile/collection/2ndanniversary",
        "fileName": "2ndanniversary_vs_rin_acrylicstand"
    },
    {
        "customProfileResourceType": "collection",
        "id": 110,
        "seq": 1100,
        "name": "「2nd ANNIVERSARY SPECIAL STAGE」レンのアクリルスタンド",
        "resourceLoadType": "assetbundle",
        "resourceLoadVal": "custom_profile/collection/2ndanniversary",
        "fileName": "2ndanniversary_vs_len_acrylicstand"
    },
    {
        "customProfileResourceType": "collection",
        "id": 111,
        "seq": 1110,
        "name": "「2nd ANNIVERSARY SPECIAL STAGE」ルカのアクリルスタンド",
        "resourceLoadType": "assetbundle",
        "resourceLoadVal": "custom_profile/collection/2ndanniversary",
        "fileName": "2ndanniversary_vs_luka_acrylicstand"
    },
    {
        "customProfileResourceType": "collection",
        "id": 112,
        "seq": 1120,
        "name": "「2nd ANNIVERSARY SPECIAL STAGE」MEIKOのアクリルスタンド",
        "resourceLoadType": "assetbundle",
        "resourceLoadVal": "custom_profile/collection/2ndanniversary",
        "fileName": "2ndanniversary_vs_meiko_acrylicstand"
    },
    {
        "customProfileResourceType": "collection",
        "id": 113,
        "seq": 1130,
        "name": "「2nd ANNIVERSARY SPECIAL STAGE」KAITOのアクリルスタンド",
        "resourceLoadType": "assetbundle",
        "resourceLoadVal": "custom_profile/collection/2ndanniversary",
        "fileName": "2ndanniversary_vs_kaito_acrylicstand"
    },
    {
        "customProfileResourceType": "collection",
        "id": 114,
        "seq": 1140,
        "name": "「2nd ANNIVERSARY SPECIAL STAGE」一歌の缶バッジ",
        "resourceLoadType": "assetbundle",
        "resourceLoadVal": "custom_profile/collection/2ndanniversary",
        "fileName": "2ndanniversary_ln_ichika_canbatch",
        "customProfileResourceCollectionType": "can_badge"
    },
    {
        "customProfileResourceType": "collection",
        "id": 115,
        "seq": 1150,
        "name": "「2nd ANNIVERSARY SPECIAL STAGE」咲希の缶バッジ",
        "resourceLoadType": "assetbundle",
        "resourceLoadVal": "custom_profile/collection/2ndanniversary",
        "fileName": "2ndanniversary_ln_saki_canbatch",
        "customProfileResourceCollectionType": "can_badge"
    },
    {
        "customProfileResourceType": "collection",
        "id": 116,
        "seq": 1160,
        "name": "「2nd ANNIVERSARY SPECIAL STAGE」穂波の缶バッジ",
        "resourceLoadType": "assetbundle",
        "resourceLoadVal": "custom_profile/collection/2ndanniversary",
        "fileName": "2ndanniversary_ln_honami_canbatch",
        "customProfileResourceCollectionType": "can_badge"
    },
    {
        "customProfileResourceType": "collection",
        "id": 117,
        "seq": 1170,
        "name": "「2nd ANNIVERSARY SPECIAL STAGE」志歩の缶バッジ",
        "resourceLoadType": "assetbundle",
        "resourceLoadVal": "custom_profile/collection/2ndanniversary",
        "fileName": "2ndanniversary_ln_shiho_canbatch",
        "customProfileResourceCollectionType": "can_badge"
    },
    {
        "customProfileResourceType": "collection",
        "id": 118,
        "seq": 1180,
        "name": "「2nd ANNIVERSARY SPECIAL STAGE」ミクの缶バッジ",
        "resourceLoadType": "assetbundle",
        "resourceLoadVal": "custom_profile/collection/2ndanniversary",
        "fileName": "2ndanniversary_ln_miku_canbatch",
        "customProfileResourceCollectionType": "can_badge"
    },
    {
        "customProfileResourceType": "collection",
        "id": 119,
        "seq": 1190,
        "name": "「2nd ANNIVERSARY SPECIAL STAGE」ルカの缶バッジ",
        "resourceLoadType": "assetbundle",
        "resourceLoadVal": "custom_profile/collection/2ndanniversary",
        "fileName": "2ndanniversary_ln_luka_canbatch",
        "customProfileResourceCollectionType": "can_badge"
    },
    {
        "customProfileResourceType": "collection",
        "id": 120,
        "seq": 1200,
        "name": "「2nd ANNIVERSARY SPECIAL STAGE」一歌のアクリルスタンド",
        "resourceLoadType": "assetbundle",
        "resourceLoadVal": "custom_profile/collection/2ndanniversary",
        "fileName": "2ndanniversary_ln_ichika_acrylicstand"
    },
    {
        "customProfileResourceType": "collection",
        "id": 121,
        "seq": 1210,
        "name": "「2nd ANNIVERSARY SPECIAL STAGE」咲希のアクリルスタンド",
        "resourceLoadType": "assetbundle",
        "resourceLoadVal": "custom_profile/collection/2ndanniversary",
        "fileName": "2ndanniversary_ln_saki_acrylicstand"
    },
    {
        "customProfileResourceType": "collection",
        "id": 122,
        "seq": 1220,
        "name": "「2nd ANNIVERSARY SPECIAL STAGE」穂波のアクリルスタンド",
        "resourceLoadType": "assetbundle",
        "resourceLoadVal": "custom_profile/collection/2ndanniversary",
        "fileName": "2ndanniversary_ln_honami_acrylicstand"
    },
    {
        "customProfileResourceType": "collection",
        "id": 123,
        "seq": 1230,
        "name": "「2nd ANNIVERSARY SPECIAL STAGE」志歩のアクリルスタンド",
        "resourceLoadType": "assetbundle",
        "resourceLoadVal": "custom_profile/collection/2ndanniversary",
        "fileName": "2ndanniversary_ln_shiho_acrylicstand"
    },
    {
        "customProfileResourceType": "collection",
        "id": 124,
        "seq": 1240,
        "name": "「2nd ANNIVERSARY SPECIAL STAGE」ミクのアクリルスタンド",
        "resourceLoadType": "assetbundle",
        "resourceLoadVal": "custom_profile/collection/2ndanniversary",
        "fileName": "2ndanniversary_ln_miku_acrylicstand"
    },
    {
        "customProfileResourceType": "collection",
        "id": 125,
        "seq": 1250,
        "name": "「2nd ANNIVERSARY SPECIAL STAGE」ルカのアクリルスタンド",
        "resourceLoadType": "assetbundle",
        "resourceLoadVal": "custom_profile/collection/2ndanniversary",
        "fileName": "2ndanniversary_ln_luka_acrylicstand"
    },
    {
        "customProfileResourceType": "collection",
        "id": 126,
        "seq": 1260,
        "name": "「2nd ANNIVERSARY SPECIAL STAGE」みのりの缶バッジ",
        "resourceLoadType": "assetbundle",
        "resourceLoadVal": "custom_profile/collection/2ndanniversary",
        "fileName": "2ndanniversary_mmj_minori_canbatch",
        "customProfileResourceCollectionType": "can_badge"
    },
    {
        "customProfileResourceType": "collection",
        "id": 127,
        "seq": 1270,
        "name": "「2nd ANNIVERSARY SPECIAL STAGE」遥の缶バッジ",
        "resourceLoadType": "assetbundle",
        "resourceLoadVal": "custom_profile/collection/2ndanniversary",
        "fileName": "2ndanniversary_mmj_haruka_canbatch",
        "customProfileResourceCollectionType": "can_badge"
    },
    {
        "customProfileResourceType": "collection",
        "id": 128,
        "seq": 1280,
        "name": "「2nd ANNIVERSARY SPECIAL STAGE」愛莉の缶バッジ",
        "resourceLoadType": "assetbundle",
        "resourceLoadVal": "custom_profile/collection/2ndanniversary",
        "fileName": "2ndanniversary_mmj_airi_canbatch",
        "customProfileResourceCollectionType": "can_badge"
    },
    {
        "customProfileResourceType": "collection",
        "id": 129,
        "seq": 1290,
        "name": "「2nd ANNIVERSARY SPECIAL STAGE」雫の缶バッジ",
        "resourceLoadType": "assetbundle",
        "resourceLoadVal": "custom_profile/collection/2ndanniversary",
        "fileName": "2ndanniversary_mmj_shizuku_canbatch",
        "customProfileResourceCollectionType": "can_badge"
    },
    {
        "customProfileResourceType": "collection",
        "id": 130,
        "seq": 1300,
        "name": "「2nd ANNIVERSARY SPECIAL STAGE」ルカの缶バッジ",
        "resourceLoadType": "assetbundle",
        "resourceLoadVal": "custom_profile/collection/2ndanniversary",
        "fileName": "2ndanniversary_mmj_luka_canbatch",
        "customProfileResourceCollectionType": "can_badge"
    },
    {
        "customProfileResourceType": "collection",
        "id": 131,
        "seq": 1310,
        "name": "「2nd ANNIVERSARY SPECIAL STAGE」KAITOの缶バッジ",
        "resourceLoadType": "assetbundle",
        "resourceLoadVal": "custom_profile/collection/2ndanniversary",
        "fileName": "2ndanniversary_mmj_kaito_canbatch",
        "customProfileResourceCollectionType": "can_badge"
    },
    {
        "customProfileResourceType": "collection",
        "id": 132,
        "seq": 1320,
        "name": "「2nd ANNIVERSARY SPECIAL STAGE」みのりのアクリルスタンド",
        "resourceLoadType": "assetbundle",
        "resourceLoadVal": "custom_profile/collection/2ndanniversary",
        "fileName": "2ndanniversary_mmj_minori_acrylicstand"
    },
    {
        "customProfileResourceType": "collection",
        "id": 133,
        "seq": 1330,
        "name": "「2nd ANNIVERSARY SPECIAL STAGE」遥のアクリルスタンド",
        "resourceLoadType": "assetbundle",
        "resourceLoadVal": "custom_profile/collection/2ndanniversary",
        "fileName": "2ndanniversary_mmj_haruka_acrylicstand"
    },
    {
        "customProfileResourceType": "collection",
        "id": 134,
        "seq": 1340,
        "name": "「2nd ANNIVERSARY SPECIAL STAGE」愛莉のアクリルスタンド",
        "resourceLoadType": "assetbundle",
        "resourceLoadVal": "custom_profile/collection/2ndanniversary",
        "fileName": "2ndanniversary_mmj_airi_acrylicstand"
    },
    {
        "customProfileResourceType": "collection",
        "id": 135,
        "seq": 1350,
        "name": "「2nd ANNIVERSARY SPECIAL STAGE」雫のアクリルスタンド",
        "resourceLoadType": "assetbundle",
        "resourceLoadVal": "custom_profile/collection/2ndanniversary",
        "fileName": "2ndanniversary_mmj_shizuku_acrylicstand"
    },
    {
        "customProfileResourceType": "collection",
        "id": 136,
        "seq": 1360,
        "name": "「2nd ANNIVERSARY SPECIAL STAGE」ルカのアクリルスタンド",
        "resourceLoadType": "assetbundle",
        "resourceLoadVal": "custom_profile/collection/2ndanniversary",
        "fileName": "2ndanniversary_mmj_luka_acrylicstand"
    },
    {
        "customProfileResourceType": "collection",
        "id": 137,
        "seq": 1370,
        "name": "「2nd ANNIVERSARY SPECIAL STAGE」KAITOのアクリルスタンド",
        "resourceLoadType": "assetbundle",
        "resourceLoadVal": "custom_profile/collection/2ndanniversary",
        "fileName": "2ndanniversary_mmj_kaito_acrylicstand"
    },
    {
        "customProfileResourceType": "collection",
        "id": 138,
        "seq": 1380,
        "name": "「2nd ANNIVERSARY SPECIAL STAGE」こはねの缶バッジ",
        "resourceLoadType": "assetbundle",
        "resourceLoadVal": "custom_profile/collection/2ndanniversary",
        "fileName": "2ndanniversary_vbs_kohane_canbatch",
        "customProfileResourceCollectionType": "can_badge"
    },
    {
        "customProfileResourceType": "collection",
        "id": 139,
        "seq": 1390,
        "name": "「2nd ANNIVERSARY SPECIAL STAGE」杏の缶バッジ",
        "resourceLoadType": "assetbundle",
        "resourceLoadVal": "custom_profile/collection/2ndanniversary",
        "fileName": "2ndanniversary_vbs_an_canbatch",
        "customProfileResourceCollectionType": "can_badge"
    },
    {
        "customProfileResourceType": "collection",
        "id": 140,
        "seq": 1400,
        "name": "「2nd ANNIVERSARY SPECIAL STAGE」彰人の缶バッジ",
        "resourceLoadType": "assetbundle",
        "resourceLoadVal": "custom_profile/collection/2ndanniversary",
        "fileName": "2ndanniversary_vbs_akito_canbatch",
        "customProfileResourceCollectionType": "can_badge"
    },
    {
        "customProfileResourceType": "collection",
        "id": 141,
        "seq": 1410,
        "name": "「2nd ANNIVERSARY SPECIAL STAGE」冬弥の缶バッジ",
        "resourceLoadType": "assetbundle",
        "resourceLoadVal": "custom_profile/collection/2ndanniversary",
        "fileName": "2ndanniversary_vbs_toya_canbatch",
        "customProfileResourceCollectionType": "can_badge"
    },
    {
        "customProfileResourceType": "collection",
        "id": 142,
        "seq": 1420,
        "name": "「2nd ANNIVERSARY SPECIAL STAGE」リンの缶バッジ",
        "resourceLoadType": "assetbundle",
        "resourceLoadVal": "custom_profile/collection/2ndanniversary",
        "fileName": "2ndanniversary_vbs_rin_canbatch",
        "customProfileResourceCollectionType": "can_badge"
    },
    {
        "customProfileResourceType": "collection",
        "id": 143,
        "seq": 1430,
        "name": "「2nd ANNIVERSARY SPECIAL STAGE」MEIKOの缶バッジ",
        "resourceLoadType": "assetbundle",
        "resourceLoadVal": "custom_profile/collection/2ndanniversary",
        "fileName": "2ndanniversary_vbs_meiko_canbatch",
        "customProfileResourceCollectionType": "can_badge"
    },
    {
        "customProfileResourceType": "collection",
        "id": 144,
        "seq": 1440,
        "name": "「2nd ANNIVERSARY SPECIAL STAGE」こはねのアクリルスタンド",
        "resourceLoadType": "assetbundle",
        "resourceLoadVal": "custom_profile/collection/2ndanniversary",
        "fileName": "2ndanniversary_vbs_kohane_acrylicstand"
    },
    {
        "customProfileResourceType": "collection",
        "id": 145,
        "seq": 1450,
        "name": "「2nd ANNIVERSARY SPECIAL STAGE」杏のアクリルスタンド",
        "resourceLoadType": "assetbundle",
        "resourceLoadVal": "custom_profile/collection/2ndanniversary",
        "fileName": "2ndanniversary_vbs_an_acrylicstand"
    },
    {
        "customProfileResourceType": "collection",
        "id": 146,
        "seq": 1460,
        "name": "「2nd ANNIVERSARY SPECIAL STAGE」彰人のアクリルスタンド",
        "resourceLoadType": "assetbundle",
        "resourceLoadVal": "custom_profile/collection/2ndanniversary",
        "fileName": "2ndanniversary_vbs_akito_acrylicstand"
    },
    {
        "customProfileResourceType": "collection",
        "id": 147,
        "seq": 1470,
        "name": "「2nd ANNIVERSARY SPECIAL STAGE」冬弥のアクリルスタンド",
        "resourceLoadType": "assetbundle",
        "resourceLoadVal": "custom_profile/collection/2ndanniversary",
        "fileName": "2ndanniversary_vbs_toya_acrylicstand"
    },
    {
        "customProfileResourceType": "collection",
        "id": 148,
        "seq": 1480,
        "name": "「2nd ANNIVERSARY SPECIAL STAGE」リンのアクリルスタンド",
        "resourceLoadType": "assetbundle",
        "resourceLoadVal": "custom_profile/collection/2ndanniversary",
        "fileName": "2ndanniversary_vbs_rin_acrylicstand"
    },
    {
        "customProfileResourceType": "collection",
        "id": 149,
        "seq": 1490,
        "name": "「2nd ANNIVERSARY SPECIAL STAGE」MEIKOのアクリルスタンド",
        "resourceLoadType": "assetbundle",
        "resourceLoadVal": "custom_profile/collection/2ndanniversary",
        "fileName": "2ndanniversary_vbs_meiko_acrylicstand"
    },
    {
        "customProfileResourceType": "collection",
        "id": 150,
        "seq": 1500,
        "name": "「2nd ANNIVERSARY SPECIAL STAGE」司の缶バッジ",
        "resourceLoadType": "assetbundle",
        "resourceLoadVal": "custom_profile/collection/2ndanniversary",
        "fileName": "2ndanniversary_wlst_tsukasa_canbatch",
        "customProfileResourceCollectionType": "can_badge"
    },
    {
        "customProfileResourceType": "collection",
        "id": 151,
        "seq": 1510,
        "name": "「2nd ANNIVERSARY SPECIAL STAGE」えむの缶バッジ",
        "resourceLoadType": "assetbundle",
        "resourceLoadVal": "custom_profile/collection/2ndanniversary",
        "fileName": "2ndanniversary_wlst_emu_canbatch",
        "customProfileResourceCollectionType": "can_badge"
    },
    {
        "customProfileResourceType": "collection",
        "id": 152,
        "seq": 1520,
        "name": "「2nd ANNIVERSARY SPECIAL STAGE」寧々の缶バッジ",
        "resourceLoadType": "assetbundle",
        "resourceLoadVal": "custom_profile/collection/2ndanniversary",
        "fileName": "2ndanniversary_wlst_nene_canbatch",
        "customProfileResourceCollectionType": "can_badge"
    },
    {
        "customProfileResourceType": "collection",
        "id": 153,
        "seq": 1530,
        "name": "「2nd ANNIVERSARY SPECIAL STAGE」類の缶バッジ",
        "resourceLoadType": "assetbundle",
        "resourceLoadVal": "custom_profile/collection/2ndanniversary",
        "fileName": "2ndanniversary_wlst_rui_canbatch",
        "customProfileResourceCollectionType": "can_badge"
    },
    {
        "customProfileResourceType": "collection",
        "id": 154,
        "seq": 1540,
        "name": "「2nd ANNIVERSARY SPECIAL STAGE」レンの缶バッジ",
        "resourceLoadType": "assetbundle",
        "resourceLoadVal": "custom_profile/collection/2ndanniversary",
        "fileName": "2ndanniversary_wlst_len_canbatch",
        "customProfileResourceCollectionType": "can_badge"
    },
    {
        "customProfileResourceType": "collection",
        "id": 155,
        "seq": 1550,
        "name": "「2nd ANNIVERSARY SPECIAL STAGE」KAITOの缶バッジ",
        "resourceLoadType": "assetbundle",
        "resourceLoadVal": "custom_profile/collection/2ndanniversary",
        "fileName": "2ndanniversary_wlst_kaito_canbatch",
        "customProfileResourceCollectionType": "can_badge"
    },
    {
        "customProfileResourceType": "collection",
        "id": 156,
        "seq": 1560,
        "name": "「2nd ANNIVERSARY SPECIAL STAGE」司のアクリルスタンド",
        "resourceLoadType": "assetbundle",
        "resourceLoadVal": "custom_profile/collection/2ndanniversary",
        "fileName": "2ndanniversary_wlst_tsukasa_acrylicstand"
    },
    {
        "customProfileResourceType": "collection",
        "id": 157,
        "seq": 1570,
        "name": "「2nd ANNIVERSARY SPECIAL STAGE」えむのアクリルスタンド",
        "resourceLoadType": "assetbundle",
        "resourceLoadVal": "custom_profile/collection/2ndanniversary",
        "fileName": "2ndanniversary_wlst_emu_acrylicstand"
    },
    {
        "customProfileResourceType": "collection",
        "id": 158,
        "seq": 1580,
        "name": "「2nd ANNIVERSARY SPECIAL STAGE」寧々のアクリルスタンド",
        "resourceLoadType": "assetbundle",
        "resourceLoadVal": "custom_profile/collection/2ndanniversary",
        "fileName": "2ndanniversary_wlst_nene_acrylicstand"
    },
    {
        "customProfileResourceType": "collection",
        "id": 159,
        "seq": 1590,
        "name": "「2nd ANNIVERSARY SPECIAL STAGE」類のアクリルスタンド",
        "resourceLoadType": "assetbundle",
        "resourceLoadVal": "custom_profile/collection/2ndanniversary",
        "fileName": "2ndanniversary_wlst_rui_acrylicstand"
    },
    {
        "customProfileResourceType": "collection",
        "id": 160,
        "seq": 1600,
        "name": "「2nd ANNIVERSARY SPECIAL STAGE」レンのアクリルスタンド",
        "resourceLoadType": "assetbundle",
        "resourceLoadVal": "custom_profile/collection/2ndanniversary",
        "fileName": "2ndanniversary_wlst_len_acrylicstand"
    },
    {
        "customProfileResourceType": "collection",
        "id": 161,
        "seq": 1610,
        "name": "「2nd ANNIVERSARY SPECIAL STAGE」KAITOのアクリルスタンド",
        "resourceLoadType": "assetbundle",
        "resourceLoadVal": "custom_profile/collection/2ndanniversary",
        "fileName": "2ndanniversary_wlst_kaito_acrylicstand"
    },
    {
        "customProfileResourceType": "collection",
        "id": 162,
        "seq": 1620,
        "name": "「2nd ANNIVERSARY SPECIAL STAGE」奏の缶バッジ",
        "resourceLoadType": "assetbundle",
        "resourceLoadVal": "custom_profile/collection/2ndanniversary",
        "fileName": "2ndanniversary_25nc_kanade_canbatch",
        "customProfileResourceCollectionType": "can_badge"
    },
    {
        "customProfileResourceType": "collection",
        "id": 163,
        "seq": 1630,
        "name": "「2nd ANNIVERSARY SPECIAL STAGE」まふゆの缶バッジ",
        "resourceLoadType": "assetbundle",
        "resourceLoadVal": "custom_profile/collection/2ndanniversary",
        "fileName": "2ndanniversary_25nc_mafuyu_canbatch",
        "customProfileResourceCollectionType": "can_badge"
    },
    {
        "customProfileResourceType": "collection",
        "id": 164,
        "seq": 1640,
        "name": "「2nd ANNIVERSARY SPECIAL STAGE」絵名の缶バッジ",
        "resourceLoadType": "assetbundle",
        "resourceLoadVal": "custom_profile/collection/2ndanniversary",
        "fileName": "2ndanniversary_25nc_ena_canbatch",
        "customProfileResourceCollectionType": "can_badge"
    },
    {
        "customProfileResourceType": "collection",
        "id": 165,
        "seq": 1650,
        "name": "「2nd ANNIVERSARY SPECIAL STAGE」瑞希の缶バッジ",
        "resourceLoadType": "assetbundle",
        "resourceLoadVal": "custom_profile/collection/2ndanniversary",
        "fileName": "2ndanniversary_25nc_mizuki_canbatch",
        "customProfileResourceCollectionType": "can_badge"
    },
    {
        "customProfileResourceType": "collection",
        "id": 166,
        "seq": 1660,
        "name": "「2nd ANNIVERSARY SPECIAL STAGE」ミクの缶バッジ",
        "resourceLoadType": "assetbundle",
        "resourceLoadVal": "custom_profile/collection/2ndanniversary",
        "fileName": "2ndanniversary_25nc_miku_canbatch",
        "customProfileResourceCollectionType": "can_badge"
    },
    {
        "customProfileResourceType": "collection",
        "id": 167,
        "seq": 1670,
        "name": "「2nd ANNIVERSARY SPECIAL STAGE」MEIKOの缶バッジ",
        "resourceLoadType": "assetbundle",
        "resourceLoadVal": "custom_profile/collection/2ndanniversary",
        "fileName": "2ndanniversary_25nc_meiko_canbatch",
        "customProfileResourceCollectionType": "can_badge"
    },
    {
        "customProfileResourceType": "collection",
        "id": 168,
        "seq": 1680,
        "name": "「2nd ANNIVERSARY SPECIAL STAGE」奏のアクリルスタンド",
        "resourceLoadType": "assetbundle",
        "resourceLoadVal": "custom_profile/collection/2ndanniversary",
        "fileName": "2ndanniversary_25nc_kanade_acrylicstand"
    },
    {
        "customProfileResourceType": "collection",
        "id": 169,
        "seq": 1690,
        "name": "「2nd ANNIVERSARY SPECIAL STAGE」まふゆのアクリルスタンド",
        "resourceLoadType": "assetbundle",
        "resourceLoadVal": "custom_profile/collection/2ndanniversary",
        "fileName": "2ndanniversary_25nc_mafuyu_acrylicstand"
    },
    {
        "customProfileResourceType": "collection",
        "id": 170,
        "seq": 1700,
        "name": "「2nd ANNIVERSARY SPECIAL STAGE」絵名のアクリルスタンド",
        "resourceLoadType": "assetbundle",
        "resourceLoadVal": "custom_profile/collection/2ndanniversary",
        "fileName": "2ndanniversary_25nc_ena_acrylicstand"
    },
    {
        "customProfileResourceType": "collection",
        "id": 171,
        "seq": 1710,
        "name": "「2nd ANNIVERSARY SPECIAL STAGE」瑞希のアクリルスタンド",
        "resourceLoadType": "assetbundle",
        "resourceLoadVal": "custom_profile/collection/2ndanniversary",
        "fileName": "2ndanniversary_25nc_mizuki_acrylicstand"
    },
    {
        "customProfileResourceType": "collection",
        "id": 172,
        "seq": 1720,
        "name": "「2nd ANNIVERSARY SPECIAL STAGE」ミクのアクリルスタンド",
        "resourceLoadType": "assetbundle",
        "resourceLoadVal": "custom_profile/collection/2ndanniversary",
        "fileName": "2ndanniversary_25nc_miku_acrylicstand"
    },
    {
        "customProfileResourceType": "collection",
        "id": 173,
        "seq": 1730,
        "name": "「2nd ANNIVERSARY SPECIAL STAGE」MEIKOのアクリルスタンド",
        "resourceLoadType": "assetbundle",
        "resourceLoadVal": "custom_profile/collection/2ndanniversary",
        "fileName": "2ndanniversary_25nc_meiko_acrylicstand"
    }
]