[
    {
        "customProfileResourceType": "general_background",
        "id": 1,
        "seq": 1,
        "name": "キュート背景",
        "resourceLoadType": "assetbundle",
        "resourceLoadVal": "custom_profile/bg",
        "fileName": "profile_bg_pattern_0001"
    },
    {
        "customProfileResourceType": "general_background",
        "id": 2,
        "seq": 2,
        "name": "クール背景",
        "resourceLoadType": "assetbundle",
        "resourceLoadVal": "custom_profile/bg",
        "fileName": "profile_bg_pattern_0002"
    },
    {
        "customProfileResourceType": "general_background",
        "id": 3,
        "seq": 3,
        "name": "ピュア背景",
        "resourceLoadType": "assetbundle",
        "resourceLoadVal": "custom_profile/bg",
        "fileName": "profile_bg_pattern_0003"
    },
    {
        "customProfileResourceType": "general_background",
        "id": 4,
        "seq": 4,
        "name": "ハッピー背景",
        "resourceLoadType": "assetbundle",
        "resourceLoadVal": "custom_profile/bg",
        "fileName": "profile_bg_pattern_0004"
    },
    {
        "customProfileResourceType": "general_background",
        "id": 5,
        "seq": 5,
        "name": "ミステリアス背景",
        "resourceLoadType": "assetbundle",
        "resourceLoadVal": "custom_profile/bg",
        "fileName": "profile_bg_pattern_0005"
    }
]