[
    {
        "id": 101,
        "cardRarityType": "rarity_1",
        "masterRank": 0,
        "bonusRate": 0.0
    },
    {
        "id": 102,
        "cardRarityType": "rarity_1",
        "masterRank": 1,
        "bonusRate": 0.1
    },
    {
        "id": 103,
        "cardRarityType": "rarity_1",
        "masterRank": 2,
        "bonusRate": 0.2
    },
    {
        "id": 104,
        "cardRarityType": "rarity_1",
        "masterRank": 3,
        "bonusRate": 0.3
    },
    {
        "id": 105,
        "cardRarityType": "rarity_1",
        "masterRank": 4,
        "bonusRate": 0.4
    },
    {
        "id": 106,
        "cardRarityType": "rarity_1",
        "masterRank": 5,
        "bonusRate": 0.5
    },
    {
        "id": 201,
        "cardRarityType": "rarity_2",
        "masterRank": 0,
        "bonusRate": 0.0
    },
    {
        "id": 202,
        "cardRarityType": "rarity_2",
        "masterRank": 1,
        "bonusRate": 0.2
    },
    {
        "id": 203,
        "cardRarityType": "rarity_2",
        "masterRank": 2,
        "bonusRate": 0.4
    },
    {
        "id": 204,
        "cardRarityType": "rarity_2",
        "masterRank": 3,
        "bonusRate": 0.6
    },
    {
        "id": 205,
        "cardRarityType": "rarity_2",
        "masterRank": 4,
        "bonusRate": 0.8
    },
    {
        "id": 206,
        "cardRarityType": "rarity_2",
        "masterRank": 5,
        "bonusRate": 1.0
    },
    {
        "id": 301,
        "cardRarityType": "rarity_3",
        "masterRank": 0,
        "bonusRate": 0.0
    },
    {
        "id": 302,
        "cardRarityType": "rarity_3",
        "masterRank": 1,
        "bonusRate": 1.0
    },
    {
        "id": 303,
        "cardRarityType": "rarity_3",
        "masterRank": 2,
        "bonusRate": 2.0
    },
    {
        "id": 304,
        "cardRarityType": "rarity_3",
        "masterRank": 3,
        "bonusRate": 3.0
    },
    {
        "id": 305,
        "cardRarityType": "rarity_3",
        "masterRank": 4,
        "bonusRate": 4.0
    },
    {
        "id": 306,
        "cardRarityType": "rarity_3",
        "masterRank": 5,
        "bonusRate": 5.0
    },
    {
        "id": 401,
        "cardRarityType": "rarity_4",
        "masterRank": 0,
        "bonusRate": 0.0
    },
    {
        "id": 402,
        "cardRarityType": "rarity_4",
        "masterRank": 1,
        "bonusRate": 10.0
    },
    {
        "id": 403,
        "cardRarityType": "rarity_4",
        "masterRank": 2,
        "bonusRate": 11.0
    },
    {
        "id": 404,
        "cardRarityType": "rarity_4",
        "masterRank": 3,
        "bonusRate": 12.0
    },
    {
        "id": 405,
        "cardRarityType": "rarity_4",
        "masterRank": 4,
        "bonusRate": 13.0
    },
    {
        "id": 406,
        "cardRarityType": "rarity_4",
        "masterRank": 5,
        "bonusRate": 15.0
    },
    {
        "id": 501,
        "cardRarityType": "rarity_birthday",
        "masterRank": 0,
        "bonusRate": 0.0
    },
    {
        "id": 502,
        "cardRarityType": "rarity_birthday",
        "masterRank": 1,
        "bonusRate": 5.0
    },
    {
        "id": 503,
        "cardRarityType": "rarity_birthday",
        "masterRank": 2,
        "bonusRate": 6.0
    },
    {
        "id": 504,
        "cardRarityType": "rarity_birthday",
        "masterRank": 3,
        "bonusRate": 7.0
    },
    {
        "id": 505,
        "cardRarityType": "rarity_birthday",
        "masterRank": 4,
        "bonusRate": 8.0
    },
    {
        "id": 506,
        "cardRarityType": "rarity_birthday",
        "masterRank": 5,
        "bonusRate": 10.0
    }
]