[
    {
        "id": 1,
        "eventId": 1,
        "name": "イベントバッジ",
        "flavorText": "イベント交換所でアイテムと交換できます。"
    },
    {
        "id": 2,
        "eventId": 2,
        "name": "イベントバッジ",
        "flavorText": "イベント交換所でアイテムと交換できます。"
    },
    {
        "id": 3,
        "eventId": 3,
        "name": "イベントバッジ",
        "flavorText": "イベント交換所でアイテムと交換できます。"
    },
    {
        "id": 4,
        "eventId": 4,
        "name": "イベントバッジ",
        "flavorText": "イベント交換所でアイテムと交換できます。"
    },
    {
        "id": 5,
        "eventId": 5,
        "name": "イベントバッジ",
        "flavorText": "イベント交換所でアイテムと交換できます。"
    },
    {
        "id": 6,
        "eventId": 6,
        "name": "イベントバッジ",
        "flavorText": "イベント交換所でアイテムと交換できます。"
    },
    {
        "id": 7,
        "eventId": 7,
        "name": "イベントバッジ",
        "flavorText": "イベント交換所でアイテムと交換できます。"
    },
    {
        "id": 8,
        "eventId": 8,
        "name": "イベントバッジ",
        "flavorText": "イベント交換所でアイテムと交換できます。"
    },
    {
        "id": 9,
        "eventId": 9,
        "name": "イベントバッジ",
        "flavorText": "イベント交換所でアイテムと交換できます。"
    },
    {
        "id": 10,
        "eventId": 10,
        "name": "イベントバッジ",
        "flavorText": "イベント交換所でアイテムと交換できます。"
    },
    {
        "id": 11,
        "eventId": 11,
        "name": "イベントバッジ",
        "flavorText": "イベント交換所でアイテムと交換できます。"
    },
    {
        "id": 12,
        "eventId": 12,
        "name": "イベントバッジ",
        "flavorText": "イベント交換所でアイテムと交換できます。"
    },
    {
        "id": 13,
        "eventId": 13,
        "name": "イベントバッジ",
        "flavorText": "イベント交換所でアイテムと交換できます。"
    },
    {
        "id": 14,
        "eventId": 14,
        "name": "イベントバッジ",
        "flavorText": "イベント交換所でアイテムと交換できます。"
    },
    {
        "id": 15,
        "eventId": 15,
        "name": "イベントバッジ",
        "flavorText": "イベント交換所でアイテムと交換できます。"
    },
    {
        "id": 16,
        "eventId": 16,
        "name": "イベントバッジ",
        "flavorText": "イベント交換所でアイテムと交換できます。"
    },
    {
        "id": 17,
        "eventId": 17,
        "name": "イベントバッジ",
        "flavorText": "イベント交換所でアイテムと交換できます。"
    },
    {
        "id": 18,
        "eventId": 18,
        "name": "イベントバッジ",
        "flavorText": "イベント交換所でアイテムと交換できます。"
    },
    {
        "id": 19,
        "eventId": 19,
        "name": "イベントバッジ",
        "flavorText": "イベント交換所でアイテムと交換できます。"
    },
    {
        "id": 20,
        "eventId": 20,
        "name": "イベントバッジ",
        "flavorText": "イベント交換所でアイテムと交換できます。"
    },
    {
        "id": 21,
        "eventId": 21,
        "name": "イベントバッジ",
        "flavorText": "イベント交換所でアイテムと交換できます。"
    },
    {
        "id": 22,
        "eventId": 22,
        "name": "イベントバッジ",
        "flavorText": "イベント交換所でアイテムと交換できます。"
    },
    {
        "id": 23,
        "eventId": 23,
        "name": "イベントバッジ",
        "flavorText": "イベント交換所でアイテムと交換できます。"
    },
    {
        "id": 24,
        "eventId": 24,
        "name": "イベントバッジ",
        "flavorText": "イベント交換所でアイテムと交換できます。"
    },
    {
        "id": 25,
        "eventId": 25,
        "name": "イベントバッジ",
        "flavorText": "イベント交換所でアイテムと交換できます。"
    },
    {
        "id": 26,
        "eventId": 26,
        "name": "イベントバッジ",
        "flavorText": "イベント交換所でアイテムと交換できます。"
    },
    {
        "id": 27,
        "eventId": 27,
        "name": "イベントバッジ",
        "flavorText": "イベント交換所でアイテムと交換できます。"
    },
    {
        "id": 28,
        "eventId": 28,
        "name": "イベントバッジ",
        "flavorText": "イベント交換所でアイテムと交換できます。"
    },
    {
        "id": 29,
        "eventId": 29,
        "name": "イベントバッジ",
        "flavorText": "イベント交換所でアイテムと交換できます。"
    },
    {
        "id": 30,
        "eventId": 30,
        "name": "イベントバッジ",
        "flavorText": "イベント交換所でアイテムと交換できます。"
    },
    {
        "id": 31,
        "eventId": 31,
        "name": "イベントバッジ",
        "flavorText": "イベント交換所でアイテムと交換できます。"
    },
    {
        "id": 32,
        "eventId": 32,
        "name": "イベントバッジ",
        "flavorText": "イベント交換所でアイテムと交換できます。"
    },
    {
        "id": 33,
        "eventId": 33,
        "name": "イベントバッジ",
        "flavorText": "イベント交換所でアイテムと交換できます。"
    },
    {
        "id": 34,
        "eventId": 34,
        "name": "イベントバッジ",
        "flavorText": "イベント交換所でアイテムと交換できます。",
        "assetbundleName": "badge_mysterious"
    },
    {
        "id": 35,
        "eventId": 35,
        "name": "イベントバッジ",
        "flavorText": "イベント交換所でアイテムと交換できます。",
        "assetbundleName": "badge_happy"
    },
    {
        "id": 36,
        "eventId": 36,
        "name": "イベントバッジ",
        "flavorText": "イベント交換所でアイテムと交換できます。",
        "assetbundleName": "badge_pure"
    },
    {
        "id": 37,
        "eventId": 37,
        "name": "イベントバッジ",
        "flavorText": "イベント交換所でアイテムと交換できます。",
        "assetbundleName": "badge_cool"
    },
    {
        "id": 38,
        "eventId": 38,
        "name": "イベントバッジ",
        "flavorText": "イベント交換所でアイテムと交換できます。",
        "assetbundleName": "badge_happy"
    },
    {
        "id": 39,
        "eventId": 39,
        "name": "イベントバッジ",
        "flavorText": "イベント交換所でアイテムと交換できます。",
        "assetbundleName": "badge_cute"
    },
    {
        "id": 40,
        "eventId": 40,
        "name": "イベントバッジ",
        "flavorText": "イベント交換所でアイテムと交換できます。",
        "assetbundleName": "badge_cool"
    },
    {
        "id": 41,
        "eventId": 41,
        "name": "イベントバッジ",
        "flavorText": "イベント交換所でアイテムと交換できます。",
        "assetbundleName": "badge_happy"
    },
    {
        "id": 42,
        "eventId": 42,
        "name": "イベントバッジ",
        "flavorText": "イベント交換所でアイテムと交換できます。",
        "assetbundleName": "badge_cute"
    },
    {
        "id": 43,
        "eventId": 43,
        "name": "イベントバッジ",
        "flavorText": "イベント交換所でアイテムと交換できます。",
        "assetbundleName": "badge_mysterious"
    },
    {
        "id": 44,
        "eventId": 44,
        "name": "イベントバッジ",
        "flavorText": "イベント交換所でアイテムと交換できます。",
        "assetbundleName": "badge_pure"
    },
    {
        "id": 45,
        "eventId": 45,
        "name": "イベントバッジ",
        "flavorText": "イベント交換所でアイテムと交換できます。",
        "assetbundleName": "badge_cute"
    },
    {
        "id": 46,
        "eventId": 46,
        "name": "イベントバッジ",
        "flavorText": "イベント交換所でアイテムと交換できます。",
        "assetbundleName": "badge_cool"
    },
    {
        "id": 47,
        "eventId": 47,
        "name": "イベントバッジ",
        "flavorText": "イベント交換所でアイテムと交換できます。",
        "assetbundleName": "badge_pure"
    },
    {
        "id": 48,
        "eventId": 48,
        "name": "イベントバッジ",
        "flavorText": "イベント交換所でアイテムと交換できます。",
        "assetbundleName": "badge_happy"
    },
    {
        "id": 49,
        "eventId": 49,
        "name": "イベントバッジ",
        "flavorText": "イベント交換所でアイテムと交換できます。",
        "assetbundleName": "badge_mysterious"
    },
    {
        "id": 50,
        "eventId": 50,
        "name": "イベントバッジ",
        "flavorText": "イベント交換所でアイテムと交換できます。",
        "assetbundleName": "badge_pure"
    },
    {
        "id": 51,
        "eventId": 51,
        "name": "イベントバッジ",
        "flavorText": "イベント交換所でアイテムと交換できます。",
        "assetbundleName": "badge_mysterious"
    },
    {
        "id": 52,
        "eventId": 52,
        "name": "イベントバッジ",
        "flavorText": "イベント交換所でアイテムと交換できます。",
        "assetbundleName": "badge_pure"
    },
    {
        "id": 53,
        "eventId": 53,
        "name": "イベントバッジ",
        "flavorText": "イベント交換所でアイテムと交換できます。",
        "assetbundleName": "badge_cool"
    },
    {
        "id": 54,
        "eventId": 54,
        "name": "イベントバッジ",
        "flavorText": "イベント交換所でアイテムと交換できます。",
        "assetbundleName": "badge_happy"
    },
    {
        "id": 55,
        "eventId": 55,
        "name": "イベントバッジ",
        "flavorText": "イベント交換所でアイテムと交換できます。",
        "assetbundleName": "badge_cute"
    },
    {
        "id": 56,
        "eventId": 56,
        "name": "イベントバッジ",
        "flavorText": "イベント交換所でアイテムと交換できます。",
        "assetbundleName": "badge_mysterious"
    },
    {
        "id": 57,
        "eventId": 57,
        "name": "イベントバッジ",
        "flavorText": "イベント交換所でアイテムと交換できます。",
        "assetbundleName": "badge_cool"
    },
    {
        "id": 58,
        "eventId": 58,
        "name": "イベントバッジ",
        "flavorText": "イベント交換所でアイテムと交換できます。",
        "assetbundleName": "badge_cool"
    },
    {
        "id": 59,
        "eventId": 59,
        "name": "イベントバッジ",
        "flavorText": "イベント交換所でアイテムと交換できます。",
        "assetbundleName": "badge_cute"
    },
    {
        "id": 60,
        "eventId": 60,
        "name": "イベントバッジ",
        "flavorText": "イベント交換所でアイテムと交換できます。",
        "assetbundleName": "badge_pure"
    },
    {
        "id": 61,
        "eventId": 61,
        "name": "イベントバッジ",
        "flavorText": "イベント交換所でアイテムと交換できます。",
        "assetbundleName": "badge_cool"
    },
    {
        "id": 62,
        "eventId": 62,
        "name": "イベントバッジ",
        "flavorText": "イベント交換所でアイテムと交換できます。",
        "assetbundleName": "badge_happy"
    },
    {
        "id": 63,
        "eventId": 63,
        "name": "イベントバッジ",
        "flavorText": "イベント交換所でアイテムと交換できます。",
        "assetbundleName": "badge_happy"
    },
    {
        "id": 64,
        "eventId": 64,
        "name": "イベントバッジ",
        "flavorText": "イベント交換所でアイテムと交換できます。",
        "assetbundleName": "badge_mysterious"
    },
    {
        "id": 65,
        "eventId": 65,
        "name": "イベントバッジ",
        "flavorText": "イベント交換所でアイテムと交換できます。",
        "assetbundleName": "badge_cute"
    },
    {
        "id": 66,
        "eventId": 66,
        "name": "イベントバッジ",
        "flavorText": "イベント交換所でアイテムと交換できます。",
        "assetbundleName": "badge_cute"
    },
    {
        "id": 67,
        "eventId": 67,
        "name": "イベントバッジ",
        "flavorText": "イベント交換所でアイテムと交換できます。",
        "assetbundleName": "badge_cool"
    },
    {
        "id": 68,
        "eventId": 68,
        "name": "イベントバッジ",
        "flavorText": "イベント交換所でアイテムと交換できます。",
        "assetbundleName": "badge_cute"
    },
    {
        "id": 69,
        "eventId": 69,
        "name": "イベントバッジ",
        "flavorText": "イベント交換所でアイテムと交換できます。",
        "assetbundleName": "badge_pure"
    },
    {
        "id": 70,
        "eventId": 70,
        "name": "イベントバッジ",
        "flavorText": "イベント交換所でアイテムと交換できます。",
        "assetbundleName": "badge_mysterious"
    },
    {
        "id": 71,
        "eventId": 71,
        "name": "イベントバッジ",
        "flavorText": "イベント交換所でアイテムと交換できます。",
        "assetbundleName": "badge_cool"
    },
    {
        "id": 72,
        "eventId": 72,
        "name": "イベントバッジ",
        "flavorText": "イベント交換所でアイテムと交換できます。",
        "assetbundleName": "badge_pure"
    },
    {
        "id": 73,
        "eventId": 73,
        "name": "イベントバッジ",
        "flavorText": "イベント交換所でアイテムと交換できます。",
        "assetbundleName": "badge_cute"
    },
    {
        "id": 74,
        "eventId": 74,
        "name": "イベントバッジ",
        "flavorText": "イベント交換所でアイテムと交換できます。",
        "assetbundleName": "badge_cool"
    },
    {
        "id": 75,
        "eventId": 75,
        "name": "イベントバッジ",
        "flavorText": "イベント交換所でアイテムと交換できます。",
        "assetbundleName": "badge_mysterious"
    },
    {
        "id": 76,
        "eventId": 76,
        "name": "イベントバッジ",
        "flavorText": "イベント交換所でアイテムと交換できます。",
        "assetbundleName": "badge_happy"
    },
    {
        "id": 77,
        "eventId": 77,
        "name": "イベントバッジ",
        "flavorText": "イベント交換所でアイテムと交換できます。",
        "assetbundleName": "badge_mysterious"
    },
    {
        "id": 78,
        "eventId": 78,
        "name": "イベントバッジ",
        "flavorText": "イベント交換所でアイテムと交換できます。",
        "assetbundleName": "badge_pure"
    }
]