[
    {
        "id": 1,
        "childGachaIds": [
            240,
            241,
            242,
            243,
            244,
            245
        ],
        "seq": 510,
        "assetbundleName": "ab_gacha_tab_1"
    },
    {
        "id": 2,
        "childGachaIds": [
            249,
            250
        ],
        "seq": 520,
        "assetbundleName": "ab_gacha_tab_2"
    },
    {
        "id": 3,
        "childGachaIds": [
            256,
            257
        ],
        "seq": 570,
        "assetbundleName": "ab_gacha_tab_3"
    },
    {
        "id": 4,
        "childGachaIds": [
            259,
            260
        ],
        "seq": 570,
        "assetbundleName": "ab_gacha_tab_4"
    },
    {
        "id": 5,
        "childGachaIds": [
            261,
            262
        ],
        "seq": 580,
        "assetbundleName": "ab_gacha_tab_5"
    },
    {
        "id": 6,
        "childGachaIds": [
            268,
            269
        ],
        "seq": 570,
        "assetbundleName": "ab_gacha_tab_6"
    }
]