[
    {
        "id": 1,
        "name": "ガチャチケット",
        "assetbundleName": "gacha_ticket"
    },
    {
        "id": 2,
        "name": "★3以上確定チケット",
        "assetbundleName": "over_the_3_ticket"
    },
    {
        "id": 3,
        "name": "1周年記念10連無料ガチャチケット",
        "assetbundleName": "anniversary_free_gacha_ticket"
    },
    {
        "id": 4,
        "name": "[2022新春]10連無料ガチャチケット",
        "assetbundleName": "free_gacha_10_ticket"
    },
    {
        "id": 5,
        "name": "ミクの日お祝いキャンペーンガチャチケット",
        "assetbundleName": "gacha_ticket"
    },
    {
        "id": 6,
        "name": "[2周年記念]10連無料ガチャチケット",
        "assetbundleName": "anniversary_free_gacha_ticket"
    }
]