[
    {
        "id": 1,
        "ingameNoteType": "normal",
        "scoreCoefficient": 10.0,
        "damageBad": 50,
        "damageMiss": 80
    },
    {
        "id": 2,
        "ingameNoteType": "long",
        "scoreCoefficient": 10.0,
        "damageBad": 50,
        "damageMiss": 80
    },
    {
        "id": 3,
        "ingameNoteType": "long_mid",
        "scoreCoefficient": 1.0,
        "damageBad": 40,
        "damageMiss": 40
    },
    {
        "id": 4,
        "ingameNoteType": "flick",
        "scoreCoefficient": 10.0,
        "damageBad": 50,
        "damageMiss": 80
    },
    {
        "id": 5,
        "ingameNoteType": "normal_critical",
        "scoreCoefficient": 20.0,
        "damageBad": 50,
        "damageMiss": 80
    },
    {
        "id": 6,
        "ingameNoteType": "long_critical",
        "scoreCoefficient": 20.0,
        "damageBad": 50,
        "damageMiss": 80
    },
    {
        "id": 7,
        "ingameNoteType": "long_mid_critical",
        "scoreCoefficient": 2.0,
        "damageBad": 50,
        "damageMiss": 80
    },
    {
        "id": 8,
        "ingameNoteType": "flick_critical",
        "scoreCoefficient": 30.0,
        "damageBad": 50,
        "damageMiss": 80
    },
    {
        "id": 9,
        "ingameNoteType": "long_combo_auto",
        "scoreCoefficient": 1.0,
        "damageBad": 40,
        "damageMiss": 40
    }
]