[
    {
        "id": 1,
        "seq": 1,
        "name": "リリース記念 39ログインキャンペーン",
        "startAt": 1588273200000,
        "endAt": 1603997999000,
        "assetbundleName": "release_anniversary",
        "closeAt": 1602961200000,
        "limitedLoginBonusDetails": [
            {
                "id": 1,
                "limitedLoginBonusId": 1,
                "day": 1,
                "resourceBoxId": 15
            },
            {
                "id": 2,
                "limitedLoginBonusId": 1,
                "day": 2,
                "resourceBoxId": 15
            },
            {
                "id": 3,
                "limitedLoginBonusId": 1,
                "day": 3,
                "resourceBoxId": 15
            },
            {
                "id": 4,
                "limitedLoginBonusId": 1,
                "day": 4,
                "resourceBoxId": 15
            },
            {
                "id": 5,
                "limitedLoginBonusId": 1,
                "day": 5,
                "resourceBoxId": 15
            },
            {
                "id": 6,
                "limitedLoginBonusId": 1,
                "day": 6,
                "resourceBoxId": 15
            },
            {
                "id": 7,
                "limitedLoginBonusId": 1,
                "day": 7,
                "resourceBoxId": 15
            },
            {
                "id": 8,
                "limitedLoginBonusId": 1,
                "day": 8,
                "resourceBoxId": 15
            },
            {
                "id": 9,
                "limitedLoginBonusId": 1,
                "day": 9,
                "resourceBoxId": 15
            },
            {
                "id": 10,
                "limitedLoginBonusId": 1,
                "day": 10,
                "resourceBoxId": 15
            },
            {
                "id": 11,
                "limitedLoginBonusId": 1,
                "day": 11,
                "resourceBoxId": 15
            },
            {
                "id": 12,
                "limitedLoginBonusId": 1,
                "day": 12,
                "resourceBoxId": 15
            },
            {
                "id": 13,
                "limitedLoginBonusId": 1,
                "day": 13,
                "resourceBoxId": 15
            }
        ]
    },
    {
        "id": 2,
        "seq": 2,
        "name": "100万人突破記念ログインキャンペーン",
        "startAt": 1601694000000,
        "endAt": 1602269999000,
        "assetbundleName": "100_anniversary",
        "closeAt": 1602269999000,
        "limitedLoginBonusDetails": [
            {
                "id": 14,
                "limitedLoginBonusId": 2,
                "day": 1,
                "resourceBoxId": 16
            }
        ]
    },
    {
        "id": 3,
        "seq": 3,
        "name": "150万人突破記念ログインキャンペーン",
        "startAt": 1602212400000,
        "endAt": 1602788399000,
        "assetbundleName": "150_anniversary",
        "closeAt": 1602788399000,
        "limitedLoginBonusDetails": [
            {
                "id": 15,
                "limitedLoginBonusId": 3,
                "day": 1,
                "resourceBoxId": 17
            }
        ]
    },
    {
        "id": 4,
        "seq": 4,
        "name": "200万人突破記念ログインキャンペーン",
        "startAt": 1603335600000,
        "endAt": 1603911599000,
        "assetbundleName": "200_anniversary",
        "closeAt": 1603911599000,
        "limitedLoginBonusDetails": [
            {
                "id": 16,
                "limitedLoginBonusId": 4,
                "day": 1,
                "resourceBoxId": 18
            }
        ]
    },
    {
        "id": 5,
        "seq": 5,
        "name": "250万人突破記念ログインキャンペーン",
        "startAt": 1605927600000,
        "endAt": 1606503599000,
        "assetbundleName": "250_anniversary",
        "closeAt": 1606503599000,
        "limitedLoginBonusDetails": [
            {
                "id": 17,
                "limitedLoginBonusId": 5,
                "day": 1,
                "resourceBoxId": 19
            }
        ]
    },
    {
        "id": 6,
        "seq": 6,
        "name": "ハッピーハロウィンログインキャンペーン",
        "startAt": 1603594800000,
        "endAt": 1604689199000,
        "assetbundleName": "happy_halloween_2020",
        "closeAt": 1604170800000,
        "limitedLoginBonusDetails": [
            {
                "id": 18,
                "limitedLoginBonusId": 6,
                "day": 1,
                "resourceBoxId": 20
            },
            {
                "id": 19,
                "limitedLoginBonusId": 6,
                "day": 2,
                "resourceBoxId": 21
            },
            {
                "id": 20,
                "limitedLoginBonusId": 6,
                "day": 3,
                "resourceBoxId": 21
            },
            {
                "id": 21,
                "limitedLoginBonusId": 6,
                "day": 4,
                "resourceBoxId": 21
            },
            {
                "id": 22,
                "limitedLoginBonusId": 6,
                "day": 5,
                "resourceBoxId": 21
            },
            {
                "id": 23,
                "limitedLoginBonusId": 6,
                "day": 6,
                "resourceBoxId": 21
            },
            {
                "id": 24,
                "limitedLoginBonusId": 6,
                "day": 7,
                "resourceBoxId": 21
            }
        ]
    },
    {
        "id": 7,
        "seq": 7,
        "name": "ベストオブ2020 最優秀賞 大感謝ログインキャンペーン",
        "startAt": 1607320800000,
        "endAt": 1609441199000,
        "assetbundleName": "bestof2020_anniversary",
        "closeAt": 1608404400000,
        "limitedLoginBonusDetails": [
            {
                "id": 25,
                "limitedLoginBonusId": 7,
                "day": 1,
                "resourceBoxId": 24
            },
            {
                "id": 26,
                "limitedLoginBonusId": 7,
                "day": 2,
                "resourceBoxId": 25
            },
            {
                "id": 27,
                "limitedLoginBonusId": 7,
                "day": 3,
                "resourceBoxId": 25
            },
            {
                "id": 28,
                "limitedLoginBonusId": 7,
                "day": 4,
                "resourceBoxId": 25
            },
            {
                "id": 29,
                "limitedLoginBonusId": 7,
                "day": 5,
                "resourceBoxId": 25
            },
            {
                "id": 30,
                "limitedLoginBonusId": 7,
                "day": 6,
                "resourceBoxId": 25
            },
            {
                "id": 31,
                "limitedLoginBonusId": 7,
                "day": 7,
                "resourceBoxId": 25
            },
            {
                "id": 32,
                "limitedLoginBonusId": 7,
                "day": 8,
                "resourceBoxId": 25
            },
            {
                "id": 33,
                "limitedLoginBonusId": 7,
                "day": 9,
                "resourceBoxId": 25
            },
            {
                "id": 34,
                "limitedLoginBonusId": 7,
                "day": 10,
                "resourceBoxId": 25
            },
            {
                "id": 35,
                "limitedLoginBonusId": 7,
                "day": 11,
                "resourceBoxId": 25
            },
            {
                "id": 36,
                "limitedLoginBonusId": 7,
                "day": 12,
                "resourceBoxId": 25
            },
            {
                "id": 37,
                "limitedLoginBonusId": 7,
                "day": 13,
                "resourceBoxId": 25
            }
        ]
    },
    {
        "id": 8,
        "seq": 8,
        "name": "クリスマスログインキャンペーン",
        "startAt": 1608735600000,
        "endAt": 1608908399000,
        "assetbundleName": "christmas_2020",
        "closeAt": 1608908399000,
        "limitedLoginBonusDetails": [
            {
                "id": 38,
                "limitedLoginBonusId": 8,
                "day": 1,
                "resourceBoxId": 26
            }
        ]
    },
    {
        "id": 9,
        "seq": 9,
        "name": "年末カウントダウンログインキャンペーン",
        "startAt": 1608908400000,
        "endAt": 1608994799000,
        "assetbundleName": "countdown_2020_01",
        "closeAt": 1608994799000,
        "limitedLoginBonusDetails": [
            {
                "id": 39,
                "limitedLoginBonusId": 9,
                "day": 1,
                "resourceBoxId": 27
            }
        ]
    },
    {
        "id": 10,
        "seq": 10,
        "name": "年末カウントダウンログインキャンペーン",
        "startAt": 1608994800000,
        "endAt": 1609081199000,
        "assetbundleName": "countdown_2020_02",
        "closeAt": 1609081199000,
        "limitedLoginBonusDetails": [
            {
                "id": 40,
                "limitedLoginBonusId": 10,
                "day": 1,
                "resourceBoxId": 27
            }
        ]
    },
    {
        "id": 11,
        "seq": 11,
        "name": "年末カウントダウンログインキャンペーン",
        "startAt": 1609081200000,
        "endAt": 1609167599000,
        "assetbundleName": "countdown_2020_03",
        "closeAt": 1609167599000,
        "limitedLoginBonusDetails": [
            {
                "id": 41,
                "limitedLoginBonusId": 11,
                "day": 1,
                "resourceBoxId": 27
            }
        ]
    },
    {
        "id": 12,
        "seq": 12,
        "name": "年末カウントダウンログインキャンペーン",
        "startAt": 1609167600000,
        "endAt": 1609253999000,
        "assetbundleName": "countdown_2020_04",
        "closeAt": 1609253999000,
        "limitedLoginBonusDetails": [
            {
                "id": 42,
                "limitedLoginBonusId": 12,
                "day": 1,
                "resourceBoxId": 27
            }
        ]
    },
    {
        "id": 13,
        "seq": 13,
        "name": "年末カウントダウンログインキャンペーン",
        "startAt": 1609254000000,
        "endAt": 1609340399000,
        "assetbundleName": "countdown_2020_05",
        "closeAt": 1609340399000,
        "limitedLoginBonusDetails": [
            {
                "id": 43,
                "limitedLoginBonusId": 13,
                "day": 1,
                "resourceBoxId": 27
            }
        ]
    },
    {
        "id": 14,
        "seq": 14,
        "name": "年末カウントダウンログインキャンペーン",
        "startAt": 1609340400000,
        "endAt": 1609426799000,
        "assetbundleName": "countdown_2020_06",
        "closeAt": 1609426799000,
        "limitedLoginBonusDetails": [
            {
                "id": 44,
                "limitedLoginBonusId": 14,
                "day": 1,
                "resourceBoxId": 27
            }
        ]
    },
    {
        "id": 15,
        "seq": 15,
        "name": "300万人突破記念ログインキャンペーン",
        "startAt": 1612753200000,
        "endAt": 1613329199000,
        "assetbundleName": "300_anniversary",
        "closeAt": 1613329199000,
        "limitedLoginBonusDetails": [
            {
                "id": 45,
                "limitedLoginBonusId": 15,
                "day": 1,
                "resourceBoxId": 28
            }
        ]
    },
    {
        "id": 16,
        "seq": 16,
        "name": "バレンタインログインキャンペーン",
        "startAt": 1613228400000,
        "endAt": 1613314799000,
        "assetbundleName": "valentine_2021",
        "closeAt": 1613314799000,
        "limitedLoginBonusDetails": [
            {
                "id": 46,
                "limitedLoginBonusId": 16,
                "day": 1,
                "resourceBoxId": 29
            }
        ]
    },
    {
        "id": 17,
        "seq": 17,
        "name": "ホワイトデーログインキャンペーン",
        "startAt": 1615647600000,
        "endAt": 1615733999000,
        "assetbundleName": "whiteday_2021",
        "closeAt": 1615733999000,
        "limitedLoginBonusDetails": [
            {
                "id": 47,
                "limitedLoginBonusId": 17,
                "day": 1,
                "resourceBoxId": 30
            }
        ]
    },
    {
        "id": 18,
        "seq": 18,
        "name": "ハーフアニバーサリーカウントダウンログインキャンペーン",
        "startAt": 1616770800000,
        "endAt": 1616857199000,
        "assetbundleName": "half_anniversary_countdown_01",
        "closeAt": 1616857199000,
        "limitedLoginBonusDetails": [
            {
                "id": 48,
                "limitedLoginBonusId": 18,
                "day": 1,
                "resourceBoxId": 31
            }
        ]
    },
    {
        "id": 19,
        "seq": 19,
        "name": "ハーフアニバーサリーカウントダウンログインキャンペーン",
        "startAt": 1616857200000,
        "endAt": 1616943599000,
        "assetbundleName": "half_anniversary_countdown_02",
        "closeAt": 1616943599000,
        "limitedLoginBonusDetails": [
            {
                "id": 49,
                "limitedLoginBonusId": 19,
                "day": 1,
                "resourceBoxId": 31
            }
        ]
    },
    {
        "id": 20,
        "seq": 20,
        "name": "ハーフアニバーサリーカウントダウンログインキャンペーン",
        "startAt": 1616943600000,
        "endAt": 1617029999000,
        "assetbundleName": "half_anniversary_countdown_03",
        "closeAt": 1617029999000,
        "limitedLoginBonusDetails": [
            {
                "id": 50,
                "limitedLoginBonusId": 20,
                "day": 1,
                "resourceBoxId": 31
            }
        ]
    },
    {
        "id": 21,
        "seq": 21,
        "name": "ハーフアニバーサリー記念ログインキャンペーン",
        "startAt": 1617073200000,
        "endAt": 1618426799000,
        "assetbundleName": "half_anniversary",
        "closeAt": 1617994800000,
        "limitedLoginBonusDetails": [
            {
                "id": 51,
                "limitedLoginBonusId": 21,
                "day": 1,
                "resourceBoxId": 32
            },
            {
                "id": 52,
                "limitedLoginBonusId": 21,
                "day": 2,
                "resourceBoxId": 33
            },
            {
                "id": 53,
                "limitedLoginBonusId": 21,
                "day": 3,
                "resourceBoxId": 33
            },
            {
                "id": 54,
                "limitedLoginBonusId": 21,
                "day": 4,
                "resourceBoxId": 33
            },
            {
                "id": 55,
                "limitedLoginBonusId": 21,
                "day": 5,
                "resourceBoxId": 33
            },
            {
                "id": 56,
                "limitedLoginBonusId": 21,
                "day": 6,
                "resourceBoxId": 33
            }
        ]
    },
    {
        "id": 22,
        "seq": 22,
        "name": "390万人突破記念ログインキャンペーン",
        "startAt": 1618801200000,
        "endAt": 1619377199000,
        "assetbundleName": "390_anniversary",
        "closeAt": 1619377199000,
        "limitedLoginBonusDetails": [
            {
                "id": 57,
                "limitedLoginBonusId": 22,
                "day": 1,
                "resourceBoxId": 34
            }
        ]
    },
    {
        "id": 23,
        "seq": 23,
        "name": "GWログインキャンペーン",
        "startAt": 1619665200000,
        "endAt": 1621450799000,
        "assetbundleName": "gw_2021",
        "closeAt": 1620586800000,
        "limitedLoginBonusDetails": [
            {
                "id": 58,
                "limitedLoginBonusId": 23,
                "day": 1,
                "resourceBoxId": 35
            },
            {
                "id": 59,
                "limitedLoginBonusId": 23,
                "day": 2,
                "resourceBoxId": 36
            },
            {
                "id": 60,
                "limitedLoginBonusId": 23,
                "day": 3,
                "resourceBoxId": 37
            },
            {
                "id": 61,
                "limitedLoginBonusId": 23,
                "day": 4,
                "resourceBoxId": 38
            },
            {
                "id": 62,
                "limitedLoginBonusId": 23,
                "day": 5,
                "resourceBoxId": 39
            },
            {
                "id": 63,
                "limitedLoginBonusId": 23,
                "day": 6,
                "resourceBoxId": 40
            },
            {
                "id": 64,
                "limitedLoginBonusId": 23,
                "day": 7,
                "resourceBoxId": 41
            },
            {
                "id": 65,
                "limitedLoginBonusId": 23,
                "day": 8,
                "resourceBoxId": 42
            },
            {
                "id": 66,
                "limitedLoginBonusId": 23,
                "day": 9,
                "resourceBoxId": 43
            },
            {
                "id": 67,
                "limitedLoginBonusId": 23,
                "day": 10,
                "resourceBoxId": 44
            },
            {
                "id": 68,
                "limitedLoginBonusId": 23,
                "day": 11,
                "resourceBoxId": 45
            }
        ]
    },
    {
        "id": 24,
        "seq": 24,
        "name": "ローソンタイアップ記念ログインキャンペーン",
        "startAt": 1625540400000,
        "endAt": 1626706799000,
        "assetbundleName": "tieup_lawson_2021",
        "closeAt": 1626706799000,
        "limitedLoginBonusDetails": [
            {
                "id": 69,
                "limitedLoginBonusId": 24,
                "day": 1,
                "resourceBoxId": 46
            }
        ]
    },
    {
        "id": 25,
        "seq": 25,
        "name": "500万人突破記念ログインキャンペーン",
        "startAt": 1627268400000,
        "endAt": 1627930799000,
        "assetbundleName": "500_anniversary",
        "closeAt": 1627930799000,
        "limitedLoginBonusDetails": [
            {
                "id": 70,
                "limitedLoginBonusId": 25,
                "day": 1,
                "resourceBoxId": 47
            }
        ]
    },
    {
        "id": 26,
        "seq": 26,
        "name": "もうすぐ1周年！カウントダウンログインキャンペーン",
        "startAt": 1632495600000,
        "endAt": 1632581999000,
        "assetbundleName": "anniversary_countdown_01",
        "closeAt": 1632581999000,
        "limitedLoginBonusDetails": [
            {
                "id": 71,
                "limitedLoginBonusId": 26,
                "day": 1,
                "resourceBoxId": 48
            }
        ]
    },
    {
        "id": 27,
        "seq": 27,
        "name": "もうすぐ1周年！カウントダウンログインキャンペーン",
        "startAt": 1632582000000,
        "endAt": 1632668399000,
        "assetbundleName": "anniversary_countdown_02",
        "closeAt": 1632668399000,
        "limitedLoginBonusDetails": [
            {
                "id": 72,
                "limitedLoginBonusId": 27,
                "day": 1,
                "resourceBoxId": 49
            }
        ]
    },
    {
        "id": 28,
        "seq": 28,
        "name": "もうすぐ1周年！カウントダウンログインキャンペーン",
        "startAt": 1632668400000,
        "endAt": 1632754799000,
        "assetbundleName": "anniversary_countdown_03",
        "closeAt": 1632754799000,
        "limitedLoginBonusDetails": [
            {
                "id": 73,
                "limitedLoginBonusId": 28,
                "day": 1,
                "resourceBoxId": 50
            }
        ]
    },
    {
        "id": 29,
        "seq": 29,
        "name": "もうすぐ1周年！カウントダウンログインキャンペーン",
        "startAt": 1632754800000,
        "endAt": 1632841199000,
        "assetbundleName": "anniversary_countdown_04",
        "closeAt": 1632841199000,
        "limitedLoginBonusDetails": [
            {
                "id": 74,
                "limitedLoginBonusId": 29,
                "day": 1,
                "resourceBoxId": 51
            }
        ]
    },
    {
        "id": 30,
        "seq": 30,
        "name": "もうすぐ1周年！カウントダウンログインキャンペーン",
        "startAt": 1632841200000,
        "endAt": 1632927599000,
        "assetbundleName": "anniversary_countdown_05",
        "closeAt": 1632927599000,
        "limitedLoginBonusDetails": [
            {
                "id": 75,
                "limitedLoginBonusId": 30,
                "day": 1,
                "resourceBoxId": 52
            }
        ]
    },
    {
        "id": 31,
        "seq": 31,
        "name": "[1周年記念]ログインキャンペーン",
        "startAt": 1632942000000,
        "endAt": 1634065199000,
        "assetbundleName": "1st_anniversary",
        "closeAt": 1633546800000,
        "limitedLoginBonusDetails": [
            {
                "id": 76,
                "limitedLoginBonusId": 31,
                "day": 1,
                "resourceBoxId": 53
            },
            {
                "id": 77,
                "limitedLoginBonusId": 31,
                "day": 2,
                "resourceBoxId": 54
            },
            {
                "id": 78,
                "limitedLoginBonusId": 31,
                "day": 3,
                "resourceBoxId": 54
            },
            {
                "id": 79,
                "limitedLoginBonusId": 31,
                "day": 4,
                "resourceBoxId": 54
            },
            {
                "id": 80,
                "limitedLoginBonusId": 31,
                "day": 5,
                "resourceBoxId": 54
            },
            {
                "id": 81,
                "limitedLoginBonusId": 31,
                "day": 6,
                "resourceBoxId": 54
            },
            {
                "id": 82,
                "limitedLoginBonusId": 31,
                "day": 7,
                "resourceBoxId": 54
            }
        ]
    },
    {
        "id": 32,
        "seq": 32,
        "name": "ハロウィンログインキャンペーン",
        "startAt": 1635606000000,
        "endAt": 1635778799000,
        "assetbundleName": "halloween_2021",
        "closeAt": 1635778799000,
        "limitedLoginBonusDetails": [
            {
                "id": 83,
                "limitedLoginBonusId": 32,
                "day": 1,
                "resourceBoxId": 55
            }
        ]
    },
    {
        "id": 33,
        "seq": 33,
        "name": "[プロセカ×悪ノ大罪シリーズ]コラボ記念ログインキャンペーン",
        "startAt": 1639375200000,
        "endAt": 1640584799000,
        "assetbundleName": "collaboration_akuno",
        "closeAt": 1640584799000,
        "limitedLoginBonusDetails": [
            {
                "id": 84,
                "limitedLoginBonusId": 33,
                "day": 1,
                "resourceBoxId": 56
            }
        ]
    },
    {
        "id": 34,
        "seq": 34,
        "name": "クリスマスログインキャンペーン",
        "startAt": 1640271600000,
        "endAt": 1640444399000,
        "assetbundleName": "christmas_2021",
        "closeAt": 1640444399000,
        "limitedLoginBonusDetails": [
            {
                "id": 85,
                "limitedLoginBonusId": 34,
                "day": 1,
                "resourceBoxId": 57
            }
        ]
    },
    {
        "id": 35,
        "seq": 35,
        "name": "[もうすぐ2022]年末カウントダウンログインキャンペーン",
        "startAt": 1640617200000,
        "endAt": 1640703599000,
        "assetbundleName": "countdown_2021_01",
        "closeAt": 1640703599000,
        "limitedLoginBonusDetails": [
            {
                "id": 86,
                "limitedLoginBonusId": 35,
                "day": 1,
                "resourceBoxId": 58
            }
        ]
    },
    {
        "id": 36,
        "seq": 36,
        "name": "[もうすぐ2022]年末カウントダウンログインキャンペーン",
        "startAt": 1640703600000,
        "endAt": 1640789999000,
        "assetbundleName": "countdown_2021_02",
        "closeAt": 1640789999000,
        "limitedLoginBonusDetails": [
            {
                "id": 87,
                "limitedLoginBonusId": 36,
                "day": 1,
                "resourceBoxId": 58
            }
        ]
    },
    {
        "id": 37,
        "seq": 37,
        "name": "[もうすぐ2022]年末カウントダウンログインキャンペーン",
        "startAt": 1640790000000,
        "endAt": 1640876399000,
        "assetbundleName": "countdown_2021_03",
        "closeAt": 1640876399000,
        "limitedLoginBonusDetails": [
            {
                "id": 88,
                "limitedLoginBonusId": 37,
                "day": 1,
                "resourceBoxId": 58
            }
        ]
    },
    {
        "id": 38,
        "seq": 38,
        "name": "[もうすぐ2022]年末カウントダウンログインキャンペーン",
        "startAt": 1640876400000,
        "endAt": 1640962799000,
        "assetbundleName": "countdown_2021_04",
        "closeAt": 1640962799000,
        "limitedLoginBonusDetails": [
            {
                "id": 89,
                "limitedLoginBonusId": 38,
                "day": 1,
                "resourceBoxId": 58
            }
        ]
    },
    {
        "id": 39,
        "seq": 39,
        "name": "[2022新春]お年玉ログインキャンペーン",
        "startAt": 1640977200000,
        "endAt": 1642100399000,
        "assetbundleName": "newyear_2022",
        "closeAt": 1641582000000,
        "limitedLoginBonusDetails": [
            {
                "id": 90,
                "limitedLoginBonusId": 39,
                "day": 1,
                "resourceBoxId": 59
            },
            {
                "id": 91,
                "limitedLoginBonusId": 39,
                "day": 2,
                "resourceBoxId": 59
            },
            {
                "id": 92,
                "limitedLoginBonusId": 39,
                "day": 3,
                "resourceBoxId": 59
            },
            {
                "id": 93,
                "limitedLoginBonusId": 39,
                "day": 4,
                "resourceBoxId": 59
            },
            {
                "id": 94,
                "limitedLoginBonusId": 39,
                "day": 5,
                "resourceBoxId": 59
            },
            {
                "id": 95,
                "limitedLoginBonusId": 39,
                "day": 6,
                "resourceBoxId": 59
            },
            {
                "id": 96,
                "limitedLoginBonusId": 39,
                "day": 7,
                "resourceBoxId": 59
            }
        ]
    },
    {
        "id": 40,
        "seq": 40,
        "name": "カップヌードルタイアップ記念ログインキャンペーン",
        "startAt": 1642042800000,
        "endAt": 1644245999000,
        "assetbundleName": "collaboration_nissin",
        "closeAt": 1644245999000,
        "limitedLoginBonusDetails": [
            {
                "id": 97,
                "limitedLoginBonusId": 40,
                "day": 1,
                "resourceBoxId": 60
            }
        ]
    },
    {
        "id": 41,
        "seq": 41,
        "name": "バレンタインログインキャンペーン",
        "startAt": 1644764400000,
        "endAt": 1644937199000,
        "assetbundleName": "valentine_2022",
        "closeAt": 1644937199000,
        "limitedLoginBonusDetails": [
            {
                "id": 98,
                "limitedLoginBonusId": 41,
                "day": 1,
                "resourceBoxId": 61
            }
        ]
    },
    {
        "id": 42,
        "seq": 42,
        "name": "ホワイトデーログインキャンペーン",
        "startAt": 1647183600000,
        "endAt": 1647356399000,
        "assetbundleName": "whiteday_2022",
        "closeAt": 1647356399000,
        "limitedLoginBonusDetails": [
            {
                "id": 99,
                "limitedLoginBonusId": 42,
                "day": 1,
                "resourceBoxId": 62
            }
        ]
    },
    {
        "id": 43,
        "seq": 43,
        "name": "1.5周年記念ログインキャンペーン",
        "startAt": 1648620000000,
        "endAt": 1649656799000,
        "assetbundleName": "1.5th_anniversary",
        "closeAt": 1649656799000,
        "limitedLoginBonusDetails": [
            {
                "id": 100,
                "limitedLoginBonusId": 43,
                "day": 1,
                "resourceBoxId": 63
            }
        ]
    },
    {
        "id": 44,
        "seq": 44,
        "name": "GWログインキャンペーン",
        "startAt": 1651201200000,
        "endAt": 1652727599000,
        "assetbundleName": "gw_2022",
        "closeAt": 1651950000000,
        "limitedLoginBonusDetails": [
            {
                "id": 101,
                "limitedLoginBonusId": 44,
                "day": 1,
                "resourceBoxId": 64
            },
            {
                "id": 102,
                "limitedLoginBonusId": 44,
                "day": 2,
                "resourceBoxId": 65
            },
            {
                "id": 103,
                "limitedLoginBonusId": 44,
                "day": 3,
                "resourceBoxId": 65
            },
            {
                "id": 104,
                "limitedLoginBonusId": 44,
                "day": 4,
                "resourceBoxId": 65
            },
            {
                "id": 105,
                "limitedLoginBonusId": 44,
                "day": 5,
                "resourceBoxId": 65
            },
            {
                "id": 106,
                "limitedLoginBonusId": 44,
                "day": 6,
                "resourceBoxId": 65
            },
            {
                "id": 107,
                "limitedLoginBonusId": 44,
                "day": 7,
                "resourceBoxId": 65
            },
            {
                "id": 108,
                "limitedLoginBonusId": 44,
                "day": 8,
                "resourceBoxId": 65
            },
            {
                "id": 109,
                "limitedLoginBonusId": 44,
                "day": 9,
                "resourceBoxId": 65
            },
            {
                "id": 110,
                "limitedLoginBonusId": 44,
                "day": 10,
                "resourceBoxId": 66
            }
        ]
    },
    {
        "id": 45,
        "seq": 45,
        "name": "「ブラック★★ロックシューター DAWN FALL」放送記念タイアップログインキャンペーン",
        "startAt": 1652162400000,
        "endAt": 1653317999000,
        "assetbundleName": "collaboration_brs",
        "closeAt": 1653317999000,
        "limitedLoginBonusDetails": [
            {
                "id": 111,
                "limitedLoginBonusId": 45,
                "day": 1,
                "resourceBoxId": 67
            }
        ]
    },
    {
        "id": 46,
        "seq": 46,
        "name": "1000万人突破記念ログインキャンペーン",
        "startAt": 1656558000000,
        "endAt": 1657133999000,
        "assetbundleName": "1000_anniversary",
        "closeAt": 1657133999000,
        "limitedLoginBonusDetails": [
            {
                "id": 112,
                "limitedLoginBonusId": 46,
                "day": 1,
                "resourceBoxId": 68
            }
        ]
    },
    {
        "id": 47,
        "seq": 47,
        "name": "ポカリスエットコラボ記念ログインキャンペーン",
        "startAt": 1659322800000,
        "endAt": 1661957999000,
        "assetbundleName": "collaboration_pocarisweat",
        "closeAt": 1661957999000,
        "limitedLoginBonusDetails": [
            {
                "id": 113,
                "limitedLoginBonusId": 47,
                "day": 1,
                "resourceBoxId": 69
            }
        ]
    },
    {
        "id": 48,
        "seq": 48,
        "name": "もうすぐ2周年！カウントダウンログインキャンペーン",
        "startAt": 1664031600000,
        "endAt": 1664117999000,
        "assetbundleName": "anniversary_countdown_01",
        "closeAt": 1664117999000,
        "limitedLoginBonusDetails": [
            {
                "id": 114,
                "limitedLoginBonusId": 48,
                "day": 1,
                "resourceBoxId": 70
            }
        ]
    },
    {
        "id": 49,
        "seq": 49,
        "name": "もうすぐ2周年！カウントダウンログインキャンペーン",
        "startAt": 1664118000000,
        "endAt": 1664204399000,
        "assetbundleName": "anniversary_countdown_02",
        "closeAt": 1664204399000,
        "limitedLoginBonusDetails": [
            {
                "id": 115,
                "limitedLoginBonusId": 49,
                "day": 1,
                "resourceBoxId": 70
            }
        ]
    },
    {
        "id": 50,
        "seq": 50,
        "name": "もうすぐ2周年！カウントダウンログインキャンペーン",
        "startAt": 1664204400000,
        "endAt": 1664290799000,
        "assetbundleName": "anniversary_countdown_03",
        "closeAt": 1664290799000,
        "limitedLoginBonusDetails": [
            {
                "id": 116,
                "limitedLoginBonusId": 50,
                "day": 1,
                "resourceBoxId": 70
            }
        ]
    },
    {
        "id": 51,
        "seq": 51,
        "name": "もうすぐ2周年！カウントダウンログインキャンペーン",
        "startAt": 1664290800000,
        "endAt": 1664377199000,
        "assetbundleName": "anniversary_countdown_04",
        "closeAt": 1664377199000,
        "limitedLoginBonusDetails": [
            {
                "id": 117,
                "limitedLoginBonusId": 51,
                "day": 1,
                "resourceBoxId": 70
            }
        ]
    },
    {
        "id": 52,
        "seq": 52,
        "name": "もうすぐ2周年！カウントダウンログインキャンペーン",
        "startAt": 1664377200000,
        "endAt": 1664463599000,
        "assetbundleName": "anniversary_countdown_05",
        "closeAt": 1664463599000,
        "limitedLoginBonusDetails": [
            {
                "id": 118,
                "limitedLoginBonusId": 52,
                "day": 1,
                "resourceBoxId": 70
            }
        ]
    },
    {
        "id": 53,
        "seq": 53,
        "name": "[2周年記念]ログインキャンペーン",
        "startAt": 1664506800000,
        "endAt": 1665601199000,
        "assetbundleName": "2nd_anniversary",
        "closeAt": 1665082800000,
        "limitedLoginBonusDetails": [
            {
                "id": 119,
                "limitedLoginBonusId": 53,
                "day": 1,
                "resourceBoxId": 71
            },
            {
                "id": 120,
                "limitedLoginBonusId": 53,
                "day": 2,
                "resourceBoxId": 72
            },
            {
                "id": 121,
                "limitedLoginBonusId": 53,
                "day": 3,
                "resourceBoxId": 72
            },
            {
                "id": 122,
                "limitedLoginBonusId": 53,
                "day": 4,
                "resourceBoxId": 72
            },
            {
                "id": 123,
                "limitedLoginBonusId": 53,
                "day": 5,
                "resourceBoxId": 72
            },
            {
                "id": 124,
                "limitedLoginBonusId": 53,
                "day": 6,
                "resourceBoxId": 72
            },
            {
                "id": 125,
                "limitedLoginBonusId": 53,
                "day": 7,
                "resourceBoxId": 72
            }
        ]
    },
    {
        "id": 54,
        "seq": 54,
        "name": "ハロウィンログインキャンペーン",
        "startAt": 1667142000000,
        "endAt": 1667314799000,
        "assetbundleName": "halloween_2022",
        "closeAt": 1667314799000,
        "limitedLoginBonusDetails": [
            {
                "id": 126,
                "limitedLoginBonusId": 54,
                "day": 1,
                "resourceBoxId": 75
            }
        ]
    }
]