[
    {
        "id": 1,
        "seq": 1,
        "name": "モブ子　ショート　金髪（セーラー服）",
        "gender": "female"
    },
    {
        "id": 2,
        "seq": 2,
        "name": "モブ子　ショート　こげ茶（セーラー服）",
        "gender": "female"
    },
    {
        "id": 3,
        "seq": 3,
        "name": "モブ子　ショート　茶髪（セーラー服）",
        "gender": "female"
    },
    {
        "id": 4,
        "seq": 4,
        "name": "モブ子　ロング　金髪（セーラー服）",
        "gender": "female"
    },
    {
        "id": 5,
        "seq": 5,
        "name": "モブ子　ロング　こげ茶（セーラー服）",
        "gender": "female"
    },
    {
        "id": 6,
        "seq": 6,
        "name": "モブ子　ロング　茶髪（セーラー服）",
        "gender": "female"
    },
    {
        "id": 7,
        "seq": 7,
        "name": "モブ子　ツインテ　金髪（セーラー服）",
        "gender": "female"
    },
    {
        "id": 8,
        "seq": 8,
        "name": "モブ子　ツインテ　こげ茶（セーラー服）",
        "gender": "female"
    },
    {
        "id": 9,
        "seq": 9,
        "name": "モブ子　ツインテ　茶髪（セーラー服）",
        "gender": "female"
    },
    {
        "id": 10,
        "seq": 10,
        "name": "モブ子　ショート　金髪（ブレザー）",
        "gender": "female"
    },
    {
        "id": 11,
        "seq": 11,
        "name": "モブ子　ショート　こげ茶（ブレザー）",
        "gender": "female"
    },
    {
        "id": 12,
        "seq": 12,
        "name": "モブ子　ショート　茶髪（ブレザー）",
        "gender": "female"
    },
    {
        "id": 13,
        "seq": 13,
        "name": "モブ子　ロング　金髪（ブレザー）",
        "gender": "female"
    },
    {
        "id": 14,
        "seq": 14,
        "name": "モブ子　ロング　こげ茶（ブレザー）",
        "gender": "female"
    },
    {
        "id": 15,
        "seq": 15,
        "name": "モブ子　ロング　茶髪（ブレザー）",
        "gender": "female"
    },
    {
        "id": 16,
        "seq": 16,
        "name": "モブ子　ツインテ　金髪（ブレザー）",
        "gender": "female"
    },
    {
        "id": 17,
        "seq": 17,
        "name": "モブ子　ツインテ　こげ茶（ブレザー）",
        "gender": "female"
    },
    {
        "id": 18,
        "seq": 18,
        "name": "モブ子　ツインテ　茶髪（ブレザー）",
        "gender": "female"
    },
    {
        "id": 19,
        "seq": 19,
        "name": "モブ男　ゆるショート　金髪（カーディガン）",
        "gender": "male"
    },
    {
        "id": 20,
        "seq": 20,
        "name": "モブ男　ゆるショート　こげ茶（カーディガン）",
        "gender": "male"
    },
    {
        "id": 21,
        "seq": 21,
        "name": "モブ男　ゆるショート　茶髪（カーディガン）",
        "gender": "male"
    },
    {
        "id": 22,
        "seq": 22,
        "name": "モブ男　くせ毛　金髪（カーディガン）",
        "gender": "male"
    },
    {
        "id": 23,
        "seq": 23,
        "name": "モブ男　くせ毛　こげ茶（カーディガン）",
        "gender": "male"
    },
    {
        "id": 24,
        "seq": 24,
        "name": "モブ男　くせ毛　茶髪（カーディガン）",
        "gender": "male"
    },
    {
        "id": 26,
        "seq": 26,
        "name": "スタッフ男",
        "gender": "male"
    },
    {
        "id": 27,
        "seq": 27,
        "name": "スタッフ女",
        "gender": "female"
    },
    {
        "id": 28,
        "seq": 28,
        "name": "スタッフ男",
        "gender": "male"
    },
    {
        "id": 29,
        "seq": 29,
        "name": "スタッフ女",
        "gender": "female"
    },
    {
        "id": 30,
        "seq": 30,
        "name": "ショップ定員5",
        "gender": "male"
    },
    {
        "id": 31,
        "seq": 31,
        "name": "ショップ定員6",
        "gender": "male"
    },
    {
        "id": 32,
        "seq": 32,
        "name": "ショップ定員7",
        "gender": "male"
    },
    {
        "id": 33,
        "seq": 33,
        "name": "ショップ定員8",
        "gender": "male"
    },
    {
        "id": 34,
        "seq": 34,
        "name": "ショップ定員9",
        "gender": "male"
    },
    {
        "id": 35,
        "seq": 35,
        "name": "ショップ定員10",
        "gender": "male"
    },
    {
        "id": 36,
        "seq": 36,
        "name": "杏パパ",
        "gender": "male"
    },
    {
        "id": 37,
        "seq": 37,
        "name": "奏パパ",
        "gender": "male"
    },
    {
        "id": 38,
        "seq": 38,
        "name": "テマパぬいぐるみ",
        "gender": "male"
    },
    {
        "id": 39,
        "seq": 39,
        "name": "テマパ着ぐるみ",
        "gender": "male"
    },
    {
        "id": 40,
        "seq": 40,
        "name": "ネネロボ　",
        "gender": "male"
    },
    {
        "id": 41,
        "seq": 41,
        "name": "ミクダヨー",
        "gender": "male"
    },
    {
        "id": 42,
        "seq": 42,
        "name": "遥ファン",
        "gender": "male"
    },
    {
        "id": 43,
        "seq": 43,
        "name": "ビビバスモブ",
        "gender": "male"
    },
    {
        "id": 44,
        "seq": 44,
        "name": "モブ子　ショート　金髪（私服）",
        "gender": "female"
    },
    {
        "id": 45,
        "seq": 45,
        "name": "モブ子　ショート　こげ茶（私服）",
        "gender": "female"
    },
    {
        "id": 46,
        "seq": 46,
        "name": "モブ子　ショート　茶髪（私服）",
        "gender": "female"
    },
    {
        "id": 47,
        "seq": 47,
        "name": "モブ子　ロング　金髪（私服）",
        "gender": "female"
    },
    {
        "id": 48,
        "seq": 48,
        "name": "モブ子　ロング　こげ茶（私服）",
        "gender": "female"
    },
    {
        "id": 49,
        "seq": 49,
        "name": "モブ子　ロング　茶髪（私服）",
        "gender": "female"
    },
    {
        "id": 50,
        "seq": 50,
        "name": "モブ子　ツインテ　金髪（私服）",
        "gender": "female"
    },
    {
        "id": 51,
        "seq": 51,
        "name": "モブ子　ツインテ　こげ茶（私服）",
        "gender": "female"
    },
    {
        "id": 52,
        "seq": 52,
        "name": "モブ子　ツインテ　茶髪（私服）",
        "gender": "female"
    },
    {
        "id": 53,
        "seq": 53,
        "name": "モブ男　ショート　金髪（カーディガン）",
        "gender": "male"
    },
    {
        "id": 54,
        "seq": 54,
        "name": "モブ男　ショート　こげ茶（カーディガン）",
        "gender": "male"
    },
    {
        "id": 55,
        "seq": 55,
        "name": "モブ男　ショート　茶髪（カーディガン）",
        "gender": "male"
    },
    {
        "id": 56,
        "seq": 56,
        "name": "モブ男　ゆるショート　金髪（ブレザー）",
        "gender": "male"
    },
    {
        "id": 57,
        "seq": 57,
        "name": "モブ男　ゆるショート　こげ茶（ブレザー）",
        "gender": "male"
    },
    {
        "id": 58,
        "seq": 58,
        "name": "モブ男　ゆるショート　茶髪（ブレザー）",
        "gender": "male"
    },
    {
        "id": 59,
        "seq": 59,
        "name": "モブ男　くせ毛　金髪（ブレザー）",
        "gender": "male"
    },
    {
        "id": 60,
        "seq": 60,
        "name": "モブ男　くせ毛　こげ茶（ブレザー）",
        "gender": "male"
    },
    {
        "id": 61,
        "seq": 61,
        "name": "モブ男　くせ毛　茶髪（ブレザー）",
        "gender": "male"
    },
    {
        "id": 62,
        "seq": 62,
        "name": "モブ男　ショート　金髪（ブレザー）",
        "gender": "male"
    },
    {
        "id": 63,
        "seq": 63,
        "name": "モブ男　ショート　こげ茶（ブレザー）",
        "gender": "male"
    },
    {
        "id": 64,
        "seq": 64,
        "name": "モブ男　ショート　茶髪（ブレザー）",
        "gender": "male"
    },
    {
        "id": 65,
        "seq": 65,
        "name": "モブ男　ゆるショート　金髪（私服）",
        "gender": "male"
    },
    {
        "id": 66,
        "seq": 66,
        "name": "モブ男　ゆるショート　こげ茶（私服）",
        "gender": "male"
    },
    {
        "id": 67,
        "seq": 67,
        "name": "モブ男　ゆるショート　茶髪（私服）",
        "gender": "male"
    },
    {
        "id": 68,
        "seq": 68,
        "name": "モブ男　くせ毛　金髪（私服）",
        "gender": "male"
    },
    {
        "id": 69,
        "seq": 69,
        "name": "モブ男　くせ毛　こげ茶（私服）",
        "gender": "male"
    },
    {
        "id": 70,
        "seq": 70,
        "name": "モブ男　くせ毛　茶髪（私服）",
        "gender": "male"
    },
    {
        "id": 71,
        "seq": 71,
        "name": "モブ男　ショート　金髪（私服）",
        "gender": "male"
    },
    {
        "id": 72,
        "seq": 72,
        "name": "モブ男　ショート　こげ茶（私服）",
        "gender": "male"
    },
    {
        "id": 73,
        "seq": 73,
        "name": "モブ男　ショート　茶髪（私服）",
        "gender": "male"
    },
    {
        "id": 74,
        "seq": 74,
        "name": "園芸部員男",
        "gender": "male"
    },
    {
        "id": 75,
        "seq": 75,
        "name": "園芸部員女",
        "gender": "female"
    },
    {
        "id": 76,
        "seq": 76,
        "name": "イオリ",
        "gender": "female"
    },
    {
        "id": 77,
        "seq": 77,
        "name": "櫻子",
        "gender": "female"
    },
    {
        "id": 78,
        "seq": 78,
        "name": "東雲パパ",
        "gender": "male"
    },
    {
        "id": 79,
        "seq": 79,
        "name": "冬弥パパ",
        "gender": "male"
    },
    {
        "id": 80,
        "seq": 80,
        "name": "獅子舞ロボット",
        "gender": "male"
    },
    {
        "id": 81,
        "seq": 81,
        "name": "えむパパ",
        "gender": "male"
    },
    {
        "id": 82,
        "seq": 82,
        "name": "鳳ひなた（長女）",
        "gender": "female"
    },
    {
        "id": 83,
        "seq": 83,
        "name": "鳳慶介（長男）",
        "gender": "male"
    },
    {
        "id": 84,
        "seq": 84,
        "name": "鳳昌介（次男）",
        "gender": "male"
    },
    {
        "id": 85,
        "seq": 85,
        "name": "ななみん",
        "gender": "female"
    },
    {
        "id": 86,
        "seq": 86,
        "name": "ミオ",
        "gender": "female"
    },
    {
        "id": 87,
        "seq": 87,
        "name": "新",
        "gender": "male"
    },
    {
        "id": 88,
        "seq": 88,
        "name": "ライリー",
        "gender": "male"
    },
    {
        "id": 89,
        "seq": 89,
        "name": "奏ママ",
        "gender": "female"
    },
    {
        "id": 90,
        "seq": 90,
        "name": "大河",
        "gender": "male"
    },
    {
        "id": 91,
        "seq": 91,
        "name": "夕夏",
        "gender": "female"
    },
    {
        "id": 92,
        "seq": 92,
        "name": "唯奈",
        "gender": "female"
    },
    {
        "id": 93,
        "seq": 93,
        "name": "斎藤",
        "gender": "female"
    },
    {
        "id": 94,
        "seq": 94,
        "name": "鳳楽乃介",
        "gender": "male"
    },
    {
        "id": 95,
        "seq": 95,
        "name": "若いライリー",
        "gender": "male"
    },
    {
        "id": 96,
        "seq": 96,
        "name": "古瀧凪",
        "gender": "female"
    },
    {
        "id": 97,
        "seq": 97,
        "name": "杏パパ（衣装差分）",
        "gender": "male"
    },
    {
        "id": 98,
        "seq": 98,
        "name": "大河（衣装差分）",
        "gender": "male"
    },
    {
        "id": 99,
        "seq": 99,
        "name": "古瀧凪（ライブ）",
        "gender": "female"
    },
    {
        "id": 100,
        "seq": 100,
        "name": "古瀧凪（黒塗り）",
        "gender": "female"
    },
    {
        "id": 101,
        "seq": 101,
        "name": "杏パパ（ライブ）",
        "gender": "male"
    },
    {
        "id": 102,
        "seq": 102,
        "name": "大河（ライブ）",
        "gender": "male"
    },
    {
        "id": 103,
        "seq": 103,
        "name": "高木 未羽",
        "gender": "female"
    },
    {
        "id": 104,
        "seq": 104,
        "name": "夏野二葉",
        "gender": "female"
    },
    {
        "id": 105,
        "seq": 105,
        "name": "吉崎葉太",
        "gender": "male"
    },
    {
        "id": 106,
        "seq": 106,
        "name": "吉崎花乃",
        "gender": "female"
    },
    {
        "id": 107,
        "seq": 107,
        "name": "長谷川里帆",
        "gender": "female"
    },
    {
        "id": 108,
        "seq": 108,
        "name": "宮田颯真",
        "gender": "male"
    },
    {
        "id": 110,
        "seq": 110,
        "name": "岡崎達也",
        "gender": "male"
    },
    {
        "id": 111,
        "seq": 111,
        "name": "玄武旭",
        "gender": "male"
    },
    {
        "id": 900000,
        "seq": 900000,
        "name": "【特殊】全員",
        "gender": "male"
    }
]