[
    {
        "id": 1,
        "musicAchievementType": "score_rank",
        "musicAchievementTypeValue": "RANK_C",
        "resourceBoxId": 1
    },
    {
        "id": 2,
        "musicAchievementType": "score_rank",
        "musicAchievementTypeValue": "RANK_B",
        "resourceBoxId": 2
    },
    {
        "id": 3,
        "musicAchievementType": "score_rank",
        "musicAchievementTypeValue": "RANK_A",
        "resourceBoxId": 3
    },
    {
        "id": 4,
        "musicAchievementType": "score_rank",
        "musicAchievementTypeValue": "RANK_S",
        "resourceBoxId": 4
    },
    {
        "id": 5,
        "musicAchievementType": "combo",
        "musicAchievementTypeValue": "0.25",
        "musicDifficultyType": "easy",
        "resourceBoxId": 5
    },
    {
        "id": 6,
        "musicAchievementType": "combo",
        "musicAchievementTypeValue": "0.5",
        "musicDifficultyType": "easy",
        "resourceBoxId": 6
    },
    {
        "id": 7,
        "musicAchievementType": "combo",
        "musicAchievementTypeValue": "0.75",
        "musicDifficultyType": "easy",
        "resourceBoxId": 7
    },
    {
        "id": 8,
        "musicAchievementType": "combo",
        "musicAchievementTypeValue": "1",
        "musicDifficultyType": "easy",
        "resourceBoxId": 8
    },
    {
        "id": 9,
        "musicAchievementType": "combo",
        "musicAchievementTypeValue": "0.25",
        "musicDifficultyType": "normal",
        "resourceBoxId": 9
    },
    {
        "id": 10,
        "musicAchievementType": "combo",
        "musicAchievementTypeValue": "0.5",
        "musicDifficultyType": "normal",
        "resourceBoxId": 10
    },
    {
        "id": 11,
        "musicAchievementType": "combo",
        "musicAchievementTypeValue": "0.75",
        "musicDifficultyType": "normal",
        "resourceBoxId": 11
    },
    {
        "id": 12,
        "musicAchievementType": "combo",
        "musicAchievementTypeValue": "1",
        "musicDifficultyType": "normal",
        "resourceBoxId": 12
    },
    {
        "id": 13,
        "musicAchievementType": "combo",
        "musicAchievementTypeValue": "0.25",
        "musicDifficultyType": "hard",
        "resourceBoxId": 13
    },
    {
        "id": 14,
        "musicAchievementType": "combo",
        "musicAchievementTypeValue": "0.5",
        "musicDifficultyType": "hard",
        "resourceBoxId": 14
    },
    {
        "id": 15,
        "musicAchievementType": "combo",
        "musicAchievementTypeValue": "0.75",
        "musicDifficultyType": "hard",
        "resourceBoxId": 15
    },
    {
        "id": 16,
        "musicAchievementType": "combo",
        "musicAchievementTypeValue": "1",
        "musicDifficultyType": "hard",
        "resourceBoxId": 16
    },
    {
        "id": 17,
        "musicAchievementType": "combo",
        "musicAchievementTypeValue": "0.25",
        "musicDifficultyType": "expert",
        "resourceBoxId": 17
    },
    {
        "id": 18,
        "musicAchievementType": "combo",
        "musicAchievementTypeValue": "0.5",
        "musicDifficultyType": "expert",
        "resourceBoxId": 18
    },
    {
        "id": 19,
        "musicAchievementType": "combo",
        "musicAchievementTypeValue": "0.75",
        "musicDifficultyType": "expert",
        "resourceBoxId": 19
    },
    {
        "id": 20,
        "musicAchievementType": "combo",
        "musicAchievementTypeValue": "1",
        "musicDifficultyType": "expert",
        "resourceBoxId": 20
    },
    {
        "id": 21,
        "musicAchievementType": "combo",
        "musicAchievementTypeValue": "0.25",
        "musicDifficultyType": "master",
        "resourceBoxId": 21
    },
    {
        "id": 22,
        "musicAchievementType": "combo",
        "musicAchievementTypeValue": "0.5",
        "musicDifficultyType": "master",
        "resourceBoxId": 22
    },
    {
        "id": 23,
        "musicAchievementType": "combo",
        "musicAchievementTypeValue": "0.75",
        "musicDifficultyType": "master",
        "resourceBoxId": 23
    },
    {
        "id": 24,
        "musicAchievementType": "combo",
        "musicAchievementTypeValue": "1",
        "musicDifficultyType": "master",
        "resourceBoxId": 24
    }
]