[
    {
        "id": 1,
        "name": "2022年セカイ神社おみくじ",
        "summary": "期間限定で「2022年セカイ神社おみくじ」が登場！\nおみくじを引いて今年の運勢を占おう！\n\n「2022年セカイ神社おみくじ」からは各ユニットごとに「大吉」「吉」「中吉」「小吉」「末吉」「凶」「大凶」の運勢が書かれたおみくじが計42種類出現します。\n出現するおみくじは各ユニットごとに全て均一な割合になります。\nまた、おみくじを1回引くごとに「想いのカケラ×10」がおまけとしてついてきます。\n\nおみくじは期間限定のコレクションアイテムとなります。\n獲得したおみくじはカスタムプロフィールの素材として使用することができます。\n※カスタムプロフィールで設定できるおみくじの個数は引いたおみくじの個数となります。\n",
        "description": "・クリスタルは無償分から先に消費されます。\n・セカイ神社おみくじで出現するおみくじは重複する場合があります。\n・セカイ神社おみくじは提供割合に基づき1回ごとに抽選を行います。例えば提供割合1%のおみくじが100回中1回必ず出現するという仕組みではありません。\n・セカイ神社おみくじの提供割合につきましては、提供割合タブにてご確認ください。\n・提供割合タブで表示している確率は表示上小数点第4位にて四捨五入しているため、すべてを合算しても100％にならない場合があります。\n・セカイ神社おみくじ実行後に強制終了、もしくは回線が切断され正常に結果画面が表示されなかった場合でも、おみくじは獲得されております。カスタムプロフィールのコレクションをご確認ください。\n・「2022年セカイ神社おみくじ」から出現する期間限定のコレクションアイテムは今後再登場する可能性があります。再登場予定については現在未定です。\n・開催スケジュールは予告なく変更する場合がございます。",
        "assetbundleName": "lottery_game/new_year_2022",
        "appealAssetbundleName": "gacha/collection/top/collection_gacha_new_year_2022",
        "soundAssetbundleName": "lottery_game/new_year_2022_sound"
    }
]