[
    {
        "id": 1,
        "seq": 1,
        "name": "GUMI"
    },
    {
        "id": 2,
        "seq": 2,
        "name": "IA"
    },
    {
        "id": 3,
        "seq": 3,
        "name": "flower"
    },
    {
        "id": 4,
        "seq": 4,
        "name": "VY2V3"
    },
    {
        "id": 5,
        "seq": 5,
        "name": "音街ウナ"
    },
    {
        "id": 6,
        "seq": 6,
        "name": "歌愛ユキ"
    },
    {
        "id": 7,
        "seq": 7,
        "name": "ネネロボ"
    },
    {
        "id": 8,
        "seq": 8,
        "name": "ミクダヨー"
    },
    {
        "id": 9,
        "seq": 9,
        "name": "可不"
    },
    {
        "id": 10,
        "seq": 10,
        "name": "神威がくぽ"
    }
]